[
null,
{"id":1,"atypeId":1,"description":"\\c[10][Lv.\\v[3]]\\c[0]透明度の高い紅鉛鉱 (クロコアイト)の結晶\nMarkoのエネルギーと同調し炎の力を発揮する","etypeId":2,"traits":[{"code":31,"dataId":2,"value":1},{"code":43,"dataId":41,"value":1}],"iconIndex":309,"name":"Red Lotus","note":"","params":[0,0,0,0,0,0,0,0],"price":0},
{"id":2,"atypeId":0,"description":"","etypeId":2,"traits":[{"code":22,"dataId":1,"value":0}],"iconIndex":0,"name":"","note":"","params":[0,0,0,0,0,0,0,0],"price":0},
{"id":3,"atypeId":1,"description":"\\c[17][Lv.\\v[5]]\\c[0]美しく輝く黄水晶 (シトリン)の宝玉\nMarkoのエネルギーを増幅し強力な電撃を放つ","etypeId":2,"traits":[{"code":31,"dataId":4,"value":1},{"code":43,"dataId":45,"value":1},{"code":43,"dataId":35,"value":1}],"iconIndex":310,"name":"Thunder","note":"","params":[0,0,0,0,0,0,0,0],"price":0},
{"id":4,"atypeId":1,"description":"\\c[29][Lv.\\v[6]]\\c[0]純度の高い翡翠 (ジェダイト)の玉\nMarkoの刀身にプラズマ属性を付与する","etypeId":2,"traits":[{"code":31,"dataId":5,"value":1}],"iconIndex":311,"name":"翠玉","note":"","params":[0,0,0,0,24,0,0,0],"price":0},
{"id":5,"atypeId":1,"description":"\\c[7][Lv.\\v[7]]\\c[0]不気味な光を放つ大きな黒曜石 (オブシディアン)の玉\n大穴から出ている電波と同じ波長のエネルギーを感じる","etypeId":2,"traits":[{"code":31,"dataId":6,"value":1}],"iconIndex":308,"name":"昏天","note":"昏天で敵と戦うと汚染度進行","params":[0,0,0,0,0,0,0,0],"price":0},
{"id":6,"atypeId":2,"description":"Markoの変身モードによるバッドステート耐性を打ち消す\n (Restraint resistance, Hypnosis resistance無効化)","etypeId":3,"traits":[{"code":22,"dataId":1,"value":0}],"iconIndex":188,"name":"アンチイミューン","note":"","params":[0,0,0,0,0,0,0,0],"price":0},
{"id":7,"atypeId":1,"description":"\\c[23][Lv.\\v[4]]\\c[0]磨き上げられた瑠璃 (ラピスラズリ)の宝玉\nMarkoに組み込むことにより周囲に冷気をもたらす","etypeId":2,"traits":[{"code":31,"dataId":3,"value":1},{"code":43,"dataId":43,"value":1}],"iconIndex":312,"name":"Freezing","note":"","params":[0,0,0,0,0,0,0,0],"price":0},
{"id":8,"atypeId":2,"description":"","etypeId":3,"traits":[{"code":22,"dataId":1,"value":0}],"iconIndex":0,"name":"","note":"","params":[0,0,0,0,0,0,0,0],"price":0},
{"id":9,"atypeId":2,"description":"","etypeId":3,"traits":[{"code":22,"dataId":1,"value":0}],"iconIndex":0,"name":"","note":"","params":[0,0,0,0,0,0,0,0],"price":0},
{"id":10,"atypeId":2,"description":"","etypeId":3,"traits":[{"code":22,"dataId":1,"value":0}],"iconIndex":0,"name":"","note":"","params":[0,0,0,0,0,0,0,0],"price":0},
{"id":11,"atypeId":2,"description":"Markoの攻撃性能を強化する\n (攻撃力+2)","etypeId":3,"traits":[],"iconIndex":188,"name":"ATKドライバー200","note":"","params":[0,0,2,0,0,0,0,0],"price":2000},
{"id":12,"atypeId":2,"description":"Markoの攻撃性能を強化する\n (攻撃力+4)","etypeId":3,"traits":[],"iconIndex":188,"name":"ATKドライバー400","note":"","params":[0,0,4,0,0,0,0,0],"price":4500},
{"id":13,"atypeId":2,"description":"Markoの攻撃性能を強化する\n (攻撃力+8)","etypeId":3,"traits":[],"iconIndex":188,"name":"ATKドライバー800","note":"","params":[0,0,8,0,0,0,0,0],"price":15000},
{"id":14,"atypeId":2,"description":"Markoの防御性能を強化する\n (防御力+2)","etypeId":3,"traits":[],"iconIndex":188,"name":"DEFドライバー200","note":"","params":[0,0,0,2,0,0,0,0],"price":1500},
{"id":15,"atypeId":2,"description":"Markoの防御性能を強化する\n (防御力+4)","etypeId":3,"traits":[],"iconIndex":188,"name":"DEFドライバー400","note":"","params":[0,0,0,4,0,0,0,0],"price":3500},
{"id":16,"atypeId":2,"description":"Markoの防御性能を強化する\n (防御力+8)","etypeId":3,"traits":[],"iconIndex":188,"name":"DEFドライバー800","note":"","params":[0,0,0,8,0,0,0,0],"price":10000},
{"id":17,"atypeId":2,"description":"Markoの属性攻撃性能を強化する\n (Eスキル攻撃力+2)","etypeId":3,"traits":[],"iconIndex":188,"name":"SP-ATKドライバー200","note":"","params":[0,0,0,0,2,0,0,0],"price":2000},
{"id":18,"atypeId":2,"description":"Markoの属性攻撃性能を強化する\n (Eスキル攻撃力+4)","etypeId":3,"traits":[],"iconIndex":188,"name":"SP-ATKドライバー400","note":"","params":[0,0,0,0,4,0,0,0],"price":4300},
{"id":19,"atypeId":2,"description":"Markoの属性攻撃性能を強化する\n (Eスキル攻撃力+8)","etypeId":3,"traits":[],"iconIndex":188,"name":"SP-ATKドライバー800","note":"","params":[0,0,0,0,8,0,0,0],"price":11500},
{"id":20,"atypeId":2,"description":"MPの上限値を引き上げる外付けバッテリー\n (MP+15)","etypeId":3,"traits":[],"iconIndex":188,"name":"拡張バッテリー","note":"","params":[0,15,0,0,0,0,0,0],"price":5000},
{"id":21,"atypeId":2,"description":"Markoのエネルギー効率を最適化しチャージ率を高める\n (GAINチャージ率+3％)","etypeId":3,"traits":[{"code":22,"dataId":9,"value":0.03}],"iconIndex":188,"name":"アクセルユニット","note":"","params":[0,0,0,0,0,0,0,0],"price":0},
{"id":22,"atypeId":2,"description":"逆位相の波動により有害な波動を相殺するユニット\n (催眠系ステート耐性を大幅向上)","etypeId":3,"traits":[{"code":22,"dataId":1,"value":0}],"iconIndex":188,"name":"反波動ユニット","note":"","params":[0,0,0,0,0,0,0,0],"price":0},
{"id":23,"atypeId":2,"description":"Eシールドの性能を向上させ取得経験値を増やすドライバー\n (Eチャージ成功時の宝玉経験値x1.5倍)","etypeId":3,"traits":[{"code":22,"dataId":1,"value":0}],"iconIndex":188,"name":"ブーストチャージャー","note":"","params":[0,0,0,0,0,0,0,0],"price":0},
{"id":24,"atypeId":2,"description":"Markoの基礎能力を向上させるドライバー\n (通常攻撃威力x\\c[2]1.3倍\\c[0])","etypeId":3,"traits":[{"code":22,"dataId":1,"value":0}],"iconIndex":188,"name":"プラスフォーミュラー","note":"","params":[0,0,0,0,0,0,0,0],"price":0},
{"id":25,"atypeId":2,"description":"Markoのエネルギー効率を最適化しチャージ率を高める\n (GAINチャージ率+6％)","etypeId":3,"traits":[{"code":22,"dataId":9,"value":0.06}],"iconIndex":188,"name":"アクセルユニット改","note":"","params":[0,0,0,0,0,0,0,0],"price":0},
{"id":26,"atypeId":2,"description":"電磁パルス(Electromagnetic Pulse)を打ち出す電脳兵器\n (スキル「Shock」習得)","etypeId":3,"traits":[{"code":43,"dataId":35,"value":1}],"iconIndex":188,"name":"EMPディフューザー","note":"","params":[0,0,0,0,0,0,0,0],"price":0},
{"id":27,"atypeId":2,"description":"攻撃時の初速を爆発的に高めるブースター\n (先制攻撃, 攻撃力+6)","etypeId":3,"traits":[{"code":21,"dataId":6,"value":10}],"iconIndex":188,"name":"クイックホッパー","note":"","params":[0,0,6,0,0,0,0,0],"price":0},
{"id":28,"atypeId":2,"description":"瞬発力と防御を犠牲に一撃の威力を高める\n (攻撃力+15％, 防御力－10％, 敏捷性－15％)","etypeId":3,"traits":[{"code":21,"dataId":2,"value":1.15},{"code":21,"dataId":3,"value":0.9},{"code":21,"dataId":6,"value":0.85}],"iconIndex":188,"name":"ヘビーグリップ","note":"","params":[0,0,0,0,0,0,0,0],"price":0},
{"id":29,"atypeId":2,"description":"バッテリーから刀身へエネルギーを供給し続けるドライバー\n (攻撃力+22, プラズマ属性付与, 毎ターンMP消耗)","etypeId":3,"traits":[{"code":31,"dataId":5,"value":1}],"iconIndex":188,"name":"プラズマエッジ","note":"","params":[0,0,22,0,0,0,0,0],"price":0},
{"id":30,"atypeId":2,"description":"Markoからエネルギーをもらい耐衝撃オーラをまとう\n (防御力+30, 属性攻撃威力軽減50％, 毎ターンMP消耗)","etypeId":3,"traits":[{"code":11,"dataId":2,"value":0.5},{"code":11,"dataId":3,"value":0.5},{"code":11,"dataId":4,"value":0.5},{"code":11,"dataId":5,"value":0.5},{"code":11,"dataId":6,"value":0.5}],"iconIndex":188,"name":"プラズマオーラ","note":"","params":[0,0,0,30,0,0,0,0],"price":0},
{"id":31,"atypeId":2,"description":"Markoのエネルギーを少しずつHasumiに供給する\n (毎ターンMPをHPに微量変換)","etypeId":3,"traits":[{"code":22,"dataId":7,"value":0.1}],"iconIndex":188,"name":"プラズマリンク","note":"","params":[0,0,0,0,0,0,0,0],"price":0},
{"id":32,"atypeId":2,"description":"エネルギーの変換効率を高め使用コストを抑える\n (MP消費率軽減50％)","etypeId":3,"traits":[{"code":23,"dataId":4,"value":0.5}],"iconIndex":188,"name":"エナジーセーバー","note":"","params":[0,0,0,0,0,0,0,0],"price":0},
{"id":33,"atypeId":2,"description":"使用者とリンクするエネルギー増殖炉. 負担が大きく危険\n (HP上限50％制限, 毎ターンMP回復)","etypeId":3,"traits":[{"code":21,"dataId":0,"value":0.5}],"iconIndex":188,"name":"インフィニットリアクター","note":"","params":[0,0,0,0,0,0,0,0],"price":0},
{"id":34,"atypeId":2,"description":"身体への負荷と引き換えに戦闘能力を飛躍的に高める\n (クリティカル率100％, 毎ターンHPダメージ)","etypeId":3,"traits":[{"code":22,"dataId":2,"value":9.99},{"code":22,"dataId":7,"value":-0.15}],"iconIndex":188,"name":"スレイヤーズエッジ","note":"","params":[0,0,0,0,0,0,0,0],"price":0},
{"id":35,"atypeId":2,"description":"初心者の戦闘技術の習得に利用されるドライバー\n (攻撃力+12, 防御力+15, GAINチャージ不能)","etypeId":3,"traits":[{"code":22,"dataId":9,"value":-1}],"iconIndex":188,"name":"ノービスサポーター","note":"","params":[0,0,12,15,0,0,0,0],"price":0},
{"id":36,"atypeId":2,"description":"Markoのエネルギーを一部実体化させ二振りの衝撃を与える\n (通常攻撃+1回, MP上限50％制限)","etypeId":3,"traits":[{"code":34,"dataId":0,"value":1},{"code":21,"dataId":1,"value":0.5}],"iconIndex":188,"name":"セカンドエッジ","note":"","params":[0,0,0,0,0,0,0,0],"price":0},
{"id":37,"atypeId":2,"description":"Eスキルを広角に放てるようになる\n (Eスキルを敵全体攻撃化)","etypeId":3,"traits":[],"iconIndex":188,"name":"拡散マズルユニット","note":"","params":[0,0,0,0,0,0,0,0],"price":0},
{"id":38,"atypeId":2,"description":"Marko内部でエネルギーを過圧縮して高出力を得る\n (Eスキル攻撃力+18, MP消費率1.5倍)","etypeId":3,"traits":[{"code":23,"dataId":4,"value":1.5}],"iconIndex":188,"name":"ターボチャージャー","note":"","params":[0,0,0,0,18,0,0,0],"price":0},
{"id":39,"atypeId":2,"description":"戦闘中にアシストユニットを呼び出すことが出来る\n (スキル「アシストユニット呼出」取得)","etypeId":3,"traits":[{"code":43,"dataId":30,"value":1}],"iconIndex":188,"name":"ローンチングギア","note":"","params":[0,0,0,0,0,0,0,0],"price":0},
{"id":40,"atypeId":2,"description":"活性化されたMarkoのエネルギーを蓄えるユニット\n (次回戦闘開始時までGAIN値を持ち越し)","etypeId":3,"traits":[{"code":62,"dataId":3,"value":1}],"iconIndex":188,"name":"スピンコンデンサ","note":"","params":[0,0,0,0,0,0,0,0],"price":0},
{"id":41,"atypeId":2,"description":"敵消滅時にドロップアイテムを引き寄せる\n (敵ドロップアイテム入手率2倍)","etypeId":3,"traits":[{"code":64,"dataId":5,"value":1}],"iconIndex":188,"name":"マグネットギア","note":"","params":[0,0,0,0,0,0,0,0],"price":0},
{"id":42,"atypeId":2,"description":"Marko内部でエネルギーを過圧縮して高出力を得る\n (Eスキル攻撃力+28, MP消費率1.5倍)","etypeId":3,"traits":[{"code":23,"dataId":4,"value":1.5}],"iconIndex":188,"name":"Turbocharger Modifier","note":"","params":[0,0,0,0,28,0,0,0],"price":0},
{"id":43,"atypeId":2,"description":"MPの上限値を引き上げる外付けバッテリー\n (MP+40)","etypeId":3,"traits":[],"iconIndex":188,"name":"大容量バッテリー","note":"","params":[0,40,0,0,0,0,0,0],"price":0},
{"id":44,"atypeId":2,"description":"変身の解除とEシールドによるエネルギーの回生を遮断する\n (戦闘後MP自動回復なし, EチャージMP回復なし)","etypeId":3,"traits":[],"iconIndex":188,"name":"KERSキャンセラー","note":"","params":[0,0,0,0,0,0,0,0],"price":0},
{"id":45,"atypeId":0,"description":"","etypeId":2,"traits":[{"code":22,"dataId":1,"value":0}],"iconIndex":0,"name":"","note":"","params":[0,0,0,0,0,0,0,0],"price":0},
{"id":46,"atypeId":0,"description":"","etypeId":2,"traits":[{"code":22,"dataId":1,"value":0}],"iconIndex":0,"name":"","note":"","params":[0,0,0,0,0,0,0,0],"price":0},
{"id":47,"atypeId":0,"description":"","etypeId":2,"traits":[{"code":22,"dataId":1,"value":0}],"iconIndex":0,"name":"","note":"","params":[0,0,0,0,0,0,0,0],"price":0},
{"id":48,"atypeId":2,"description":"Markoの攻撃性能を大幅に弱体化させる\n (ATK10％, SP-ATK10％制限)","etypeId":3,"traits":[{"code":21,"dataId":2,"value":0.1},{"code":21,"dataId":4,"value":0.1}],"iconIndex":188,"name":"パワーリミッター10","note":"","params":[0,0,0,0,0,0,0,0],"price":0},
{"id":49,"atypeId":2,"description":"Markoの性能を弱体化させる\n (全能力50％制限)","etypeId":3,"traits":[{"code":21,"dataId":0,"value":0.5},{"code":21,"dataId":1,"value":0.5},{"code":21,"dataId":2,"value":0.5},{"code":21,"dataId":3,"value":0.5},{"code":21,"dataId":5,"value":0.5},{"code":21,"dataId":4,"value":0.5},{"code":21,"dataId":6,"value":0.5}],"iconIndex":188,"name":"エナジーリミッター50","note":"","params":[0,0,0,0,0,0,0,0],"price":0},
{"id":50,"atypeId":2,"description":"素直な心は光を映しその技をさらに輝かせる\n (経験値取得率2倍)","etypeId":3,"traits":[{"code":23,"dataId":9,"value":2}],"iconIndex":188,"name":"アーツオブハート","note":"","params":[0,0,0,0,0,0,0,0],"price":0},
{"id":51,"atypeId":2,"description":"Markoの属性防御性能を強化する\n (属性防御力+2)","etypeId":3,"traits":[],"iconIndex":188,"name":"SP-DEFドライバー200","note":"","params":[0,0,0,0,0,2,0,0],"price":1300},
{"id":52,"atypeId":2,"description":"Markoの属性防御性能を強化する\n (属性防御力+4)","etypeId":3,"traits":[],"iconIndex":188,"name":"SP-DEFドライバー400","note":"","params":[0,0,0,0,0,4,0,0],"price":4000},
{"id":53,"atypeId":2,"description":"Markoの属性防御性能を強化する\n (属性防御力+8)","etypeId":3,"traits":[],"iconIndex":188,"name":"SP-DEFドライバー800","note":"","params":[0,0,0,0,0,8,0,0],"price":8490},
{"id":54,"atypeId":2,"description":"Markoの攻撃性能を強化する\n (攻撃力+13)","etypeId":3,"traits":[],"iconIndex":188,"name":"ATKドライバー1360","note":"Fifth Baseでのみ販売\n違法強化のため高額","params":[0,0,13,0,0,0,0,0],"price":55000},
{"id":55,"atypeId":2,"description":"Markoの防御性能を強化する\n (防御力+14)","etypeId":3,"traits":[],"iconIndex":188,"name":"DEFドライバー1400","note":"Fifth Baseでのみ販売\n違法強化のため高額","params":[0,0,0,14,0,0,0,0],"price":42000},
{"id":56,"atypeId":2,"description":"Markoの属性攻撃性能を強化する\n (Eスキル攻撃力+16)","etypeId":3,"traits":[],"iconIndex":188,"name":"SP-ATKドライバー1620","note":"Fifth Baseでのみ販売\n違法強化のため高額","params":[0,0,0,0,16,0,0,0],"price":59000},
{"id":57,"atypeId":2,"description":"Markoの属性防御性能を強化する\n (属性防御力+14)","etypeId":3,"traits":[],"iconIndex":188,"name":"SP-DEFドライバー1470","note":"Fifth Baseでのみ販売\n違法強化のため高額","params":[0,0,0,0,0,14,0,0],"price":40000},
{"id":58,"atypeId":0,"description":"","etypeId":2,"traits":[{"code":22,"dataId":1,"value":0}],"iconIndex":0,"name":"","note":"","params":[0,0,0,0,0,0,0,0],"price":0},
{"id":59,"atypeId":0,"description":"","etypeId":2,"traits":[{"code":22,"dataId":1,"value":0}],"iconIndex":0,"name":"","note":"","params":[0,0,0,0,0,0,0,0],"price":0},
{"id":60,"atypeId":0,"description":"","etypeId":2,"traits":[{"code":22,"dataId":1,"value":0}],"iconIndex":0,"name":"","note":"","params":[0,0,0,0,0,0,0,0],"price":0}
]