{
"autoplayBgm":true,"autoplayBgs":true,"battleback1Name":"","battleback2Name":"","bgm":{"name":"","pan":0,"pitch":100,"volume":90},"bgs":{"name":"Wind","pan":0,"pitch":100,"volume":20},"disableDashing":false,"displayName":"","encounterList":[],"encounterStep":30,"height":13,"note":"","parallaxLoopX":false,"parallaxLoopY":false,"parallaxName":"","parallaxShow":true,"parallaxSx":0,"parallaxSy":0,"scrollType":0,"specifyBattleback":false,"tilesetId":8,"width":17,
"data":[1577,1577,1578,1585,1602,1553,2856,2844,2844,2854,1553,1561,1561,1561,1600,1585,1585,1585,1585,1602,1553,1553,1564,1561,1561,1561,1561,1563,1553,1561,1561,1561,1561,1561,1561,1561,1561,1561,1561,1562,1569,1569,1569,1569,1560,1561,1561,1561,1561,1563,1561,1569,1569,1569,1569,1569,1570,1577,1577,1577,1577,1568,1569,1620,1569,1569,1560,1561,1577,1577,1629,1577,1577,1578,1585,1585,1585,1585,1576,1599,1577,1577,1577,1568,1569,1585,1585,1585,1636,1585,1602,2907,2886,2900,2858,1600,1585,1585,1585,1585,1576,1577,2849,2849,2849,2849,2853,2910,2858,2904,2889,2833,2836,2837,2849,2849,2853,1600,1585,1561,1561,1563,2958,2857,2838,2819,2852,2896,2856,2824,2840,1656,1657,2835,2849,2849,1569,1569,1552,2862,1653,2832,2816,2840,2881,2900,2832,2818,2852,2958,2860,1564,1561,1577,1577,1560,1563,2859,2845,2844,2841,2904,2889,2856,2824,2818,2852,1564,1562,1569,1577,1577,1576,1560,1563,1656,1657,2857,2861,2905,2901,2856,2844,2841,1554,1578,1577,1577,1577,1576,1576,1552,2850,2852,2910,2994,2996,2908,3002,2958,2860,1554,1578,1577,1577,1577,1576,1576,1552,2832,2840,2994,2961,2962,2980,2963,2980,2996,1554,1578,1577,0,0,0,0,0,3196,0,3192,3190,0,0,3144,3112,3128,0,0,0,0,0,0,3198,4302,0,0,0,0,0,0,0,3144,3134,3137,3137,3137,3185,3185,3197,0,0,0,0,0,0,0,0,0,0,0,4302,0,3195,0,0,0,0,0,0,0,0,0,0,0,0,0,0,0,0,0,0,0,0,0,0,0,0,0,0,0,0,0,0,0,0,0,0,0,0,0,0,0,0,0,0,0,0,0,0,0,0,0,0,0,0,3915,3917,3195,3189,0,0,0,0,0,0,3915,3905,3905,3909,0,0,3185,3197,0,0,3196,3914,0,0,0,0,0,0,0,0,3916,0,0,0,0,0,3915,3894,3879,3917,0,0,0,0,0,0,0,0,0,0,0,0,0,0,3912,3910,3198,0,0,0,0,0,3198,3138,3140,0,0,0,0,0,0,0,3146,0,0,0,0,0,0,3147,3133,3129,0,0,0,0,0,0,0,3148,0,0,0,0,0,0,0,0,3148,0,0,0,0,0,0,0,0,0,0,0,0,0,0,0,0,0,0,0,0,0,0,0,0,0,0,0,0,0,0,0,0,0,0,0,0,0,0,0,0,0,0,0,0,0,0,0,0,0,0,0,0,0,0,0,0,0,0,0,0,0,0,0,0,0,0,0,0,0,0,0,0,0,0,0,0,0,0,135,0,0,0,0,0,0,0,0,0,0,0,0,0,0,0,0,0,167,0,0,0,0,0,0,0,0,0,0,0,167,0,0,0,0,0,0,0,0,0,0,0,0,0,0,0,0,0,0,0,0,0,0,0,0,0,0,0,0,167,0,0,0,0,0,0,0,0,0,0,0,0,0,0,0,0,0,0,0,0,0,0,0,0,0,0,0,0,0,0,0,0,0,0,0,0,0,0,0,0,0,163,0,0,0,0,0,0,0,0,0,0,0,0,0,0,0,0,0,0,0,0,0,0,0,0,0,0,0,0,0,0,0,0,0,0,0,0,0,0,0,0,0,0,0,0,0,0,0,0,0,0,0,0,0,0,0,0,0,0,0,0,0,0,0,0,0,0,0,0,0,0,0,0,0,0,0,0,0,0,0,0,0,0,0,0,0,0,0,0,0,0,0,0,0,0,0,0,0,0,0,0,158,0,158,0,0,0,0,0,0,0,0,0,0,0,0,0,0,166,0,166,159,0,0,0,0,158,0,0,0,0,0,0,159,0,155,0,151,152,0,0,159,0,166,0,0,0,156,157,0,152,384,163,0,0,160,152,0,167,155,0,0,159,0,164,165,0,160,392,0,0,0,155,160,384,0,163,0,0,152,0,0,0,0,0,0,0,0,0,163,0,392,0,0,0,212,160,0,0,0,0,153,154,0,155,0,0,0,0,0,0,0,0,0,0,0,0,0,161,162,0,384,0,0,0,0,0,0,0,0,0,0,0,0,0,0,0,0,392,0,0,0,0,0,155,0,0,0,0,0,0,0,0,0,0,0,0,0,0,0,0,163,0,0,0,0,0,0,0,0,0,0,0,0,0,0,0,0,0,0,0,0,0,0,0,0,0,0,0,0,0,0,0,0,0,0,0,0,0,0,0,0,0,0,0,0,0,0,0,0,0,0,0,0,0,0,0,0,0,0,0,0,0,0,0,0,0,0,0,0,0,0,0,0,0,0,0,0,0,0,0,0,0,0,0,0,0,0,0,0,0,0,0,0,0,0,0,0,0,0,0,0,0,0,0,0,0,0,0,0,0,0,0,0,0,0,0,0,0,0,0,0,0,0,0,0,0,0,0,0,0,0,0,0,0,0,0,0,0,0,0,0,0,0,0,0,0,0,0,0,0,0,0,0,0,0,0,0,0,0,0,0,0,0,0,0,0,0,0,0,0,0,0,0,0,0,0,0,0,0,0,0,0,0,0,0,0,0,0,0,0,0,0,0,0,0,0,0,0,0,0,0,0,0,0,0,0,0,0,0,0,0,0,0,0,0,0,0,0,0,0,0,0,0,0,0,0,0,0,0,0,0,0,0,0,0,0,0,0,0,0,0,0,0,0,0,0,0,0,0,0,0,0,0,0,0,0,0,0,0,0,0,0,0,0,0,0,0,0,0,0,0,0,0,0,0,0,0,0,0,0,0,0,0,0,0,0,0,0,0,0,0,0,0,0,0,0,0,0,0,0,0,0,0,0,0,0,0,0,0,0,0,0,0,0,0,0,0,0,0,0,0,0,0,0,0,0,0,0,0,0,0,0,0,0,0,0,0,0,0,0,0,0,0,0,0,0,0,0,0,0,0,0,0,0,0,0,0,0,0,0,0,0,0,0,0,0,0,0,0,0,0,0,0,0,0,0,0,0,0,0,0,0,0,0,0,0,0,0,0,0,0,0,0,0,0,0,0,0,0,0,0,0,0,0,0,0,0,0,0,0,0,0,0,0,0,0,0,0,0,0,0,0,0,0,0,0,0,0,0,0,0,0,0,0,0,0,0,0,0,0,0,0,0,0,0,0,0,0,0,0,0,0,0,0,0,0,0,0,0,0,0,0,0],
"events":[
null,
{"id":1,"name":"水銀柱","note":"","pages":[{"conditions":{"actorId":1,"actorValid":false,"itemId":1,"itemValid":false,"selfSwitchCh":"A","selfSwitchValid":false,"switch1Id":1,"switch1Valid":false,"switch2Id":1,"switch2Valid":false,"variableId":1,"variableValid":false,"variableValue":0},"directionFix":true,"image":{"tileId":0,"characterName":"cursor","direction":4,"pattern":0,"characterIndex":4},"list":[{"code":101,"indent":0,"parameters":["FaceH1",0,0,2]},{"code":401,"indent":0,"parameters":["「恒例となりました測定ターイム!」"]},{"code":101,"indent":0,"parameters":["FaceM1",1,0,2]},{"code":401,"indent":0,"parameters":["\\c[4]「Hasumi, 今日は元気ですね?」"]},{"code":101,"indent":0,"parameters":["FaceH1",0,0,2]},{"code":401,"indent":0,"parameters":["「探検ももうDay 3だし, 身体が慣れて"]},{"code":401,"indent":0,"parameters":["　きちゃったわ」"]},{"code":101,"indent":0,"parameters":["FaceH1",1,0,2]},{"code":401,"indent":0,"parameters":["「さてさて……ここの高度は\\c[2]地下721メートル\\c[0], "]},{"code":401,"indent":0,"parameters":["　気温は\\c[2]28.3℃\\c[0], 気圧が\\c[2]831mmHg\\c[0]ね」"]},{"code":205,"indent":0,"parameters":[-1,{"list":[{"code":16,"indent":null},{"code":0}],"repeat":false,"skippable":false,"wait":true}]},{"code":505,"indent":0,"parameters":[{"code":16,"indent":null}]},{"code":101,"indent":0,"parameters":["FaceH1",3,0,2]},{"code":401,"indent":0,"parameters":["「――地下700メートル……もう入口があんなに"]},{"code":401,"indent":0,"parameters":["　高くなるのね……」"]},{"code":101,"indent":0,"parameters":["FaceM1",1,0,2]},{"code":401,"indent":0,"parameters":["\\c[4]「100年近く前にチリのアタカマ州で落盤事故の"]},{"code":401,"indent":0,"parameters":["　発生した鉱山がちょうど地下700メートルです. "]},{"code":401,"indent":0,"parameters":["　普通に暮らしていればまず足を踏み入れない"]},{"code":401,"indent":0,"parameters":["　深度でしょう」"]},{"code":205,"indent":0,"parameters":[-1,{"list":[{"code":18,"indent":null},{"code":0}],"repeat":false,"skippable":false,"wait":true}]},{"code":505,"indent":0,"parameters":[{"code":18,"indent":null}]},{"code":101,"indent":0,"parameters":["FaceH1",7,0,2]},{"code":401,"indent":0,"parameters":["「……って言われても, 全然ピンと来ないわ」"]},{"code":101,"indent":0,"parameters":["FaceM1",1,0,2]},{"code":401,"indent":0,"parameters":["\\c[4]「東京スカイツリーが634メートルですから"]},{"code":401,"indent":0,"parameters":["　それをそのまま地面に埋めたくらいの深さ"]},{"code":401,"indent":0,"parameters":["　ということです」"]},{"code":101,"indent":0,"parameters":["FaceH2",3,0,2]},{"code":401,"indent":0,"parameters":["「想像を絶する深さだったわ……」"]},{"code":101,"indent":0,"parameters":["FaceM1",1,0,2]},{"code":401,"indent":0,"parameters":["\\c[4]「私達の向かう地下6,500メートルに比べれば"]},{"code":401,"indent":0,"parameters":["　まだ半分も到達していません. "]},{"code":401,"indent":0,"parameters":["　本番はこれからです」"]},{"code":205,"indent":0,"parameters":[-1,{"list":[{"code":16,"indent":null},{"code":0}],"repeat":false,"skippable":false,"wait":true}]},{"code":505,"indent":0,"parameters":[{"code":16,"indent":null}]},{"code":101,"indent":0,"parameters":["FaceH1",0,0,2]},{"code":401,"indent":0,"parameters":["「それにしても, こんな場所なのに草はたくま"]},{"code":401,"indent":0,"parameters":["　しく生えてくるのね. "]},{"code":401,"indent":0,"parameters":["　昨日は一面氷の洞窟だったのに」"]},{"code":101,"indent":0,"parameters":["FaceM1",1,0,2]},{"code":401,"indent":0,"parameters":["\\c[4]「この辺りがちょうど植物の生えやすい\\c[2]シルト"]},{"code":401,"indent":0,"parameters":["　質土壌\\c[4]だからでしょう. 植物は光さえあれば"]},{"code":401,"indent":0,"parameters":["　風で運ばれた種子が育つことができます」"]},{"code":101,"indent":0,"parameters":["FaceH1",0,0,2]},{"code":401,"indent":0,"parameters":["「なるほどねー, ここはだいぶ温かいし今日は"]},{"code":401,"indent":0,"parameters":["　快適な探検になりそうね!」"]},{"code":101,"indent":0,"parameters":["FaceM1",1,0,2]},{"code":401,"indent":0,"parameters":["\\}\\c[4]「……と, その時までは思っていたのです……」"]},{"code":205,"indent":0,"parameters":[-1,{"list":[{"code":17,"indent":null},{"code":0}],"repeat":false,"skippable":false,"wait":true}]},{"code":505,"indent":0,"parameters":[{"code":17,"indent":null}]},{"code":101,"indent":0,"parameters":["FaceH2",2,0,2]},{"code":401,"indent":0,"parameters":["「ちょっと!"]},{"code":401,"indent":0,"parameters":["　余計なこと言わないでもらえる?」"]},{"code":101,"indent":0,"parameters":["",0,0,2]},{"code":401,"indent":0,"parameters":["セーブしますか?"]},{"code":102,"indent":0,"parameters":[["Yes","No"],1,0,2,0]},{"code":402,"indent":0,"parameters":[0,"Yes"]},{"code":352,"indent":1,"parameters":[]},{"code":0,"indent":1,"parameters":[]},{"code":402,"indent":0,"parameters":[1,"No"]},{"code":0,"indent":1,"parameters":[]},{"code":404,"indent":0,"parameters":[]},{"code":123,"indent":0,"parameters":["A",0]},{"code":0,"indent":0,"parameters":[]}],"moveFrequency":3,"moveRoute":{"list":[{"code":0,"parameters":[]}],"repeat":true,"skippable":false,"wait":false},"moveSpeed":3,"moveType":0,"priorityType":1,"stepAnime":false,"through":false,"trigger":0,"walkAnime":true},{"conditions":{"actorId":1,"actorValid":false,"itemId":1,"itemValid":false,"selfSwitchCh":"A","selfSwitchValid":true,"switch1Id":1,"switch1Valid":false,"switch2Id":1,"switch2Valid":false,"variableId":1,"variableValid":false,"variableValue":0},"directionFix":true,"image":{"tileId":0,"characterName":"cursor","direction":4,"pattern":1,"characterIndex":4},"list":[{"code":101,"indent":0,"parameters":["FaceH1",0,0,2]},{"code":401,"indent":0,"parameters":["「ここの高度は\\c[2]地下721メートル\\c[0], "]},{"code":401,"indent":0,"parameters":["　気温は\\c[2]28.3℃\\c[0], 気圧が\\c[2]831mmHg\\c[0]ね」"]},{"code":101,"indent":0,"parameters":["",0,0,2]},{"code":401,"indent":0,"parameters":["セーブしますか?"]},{"code":102,"indent":0,"parameters":[["Yes","No"],1,0,2,0]},{"code":402,"indent":0,"parameters":[0,"Yes"]},{"code":352,"indent":1,"parameters":[]},{"code":0,"indent":1,"parameters":[]},{"code":402,"indent":0,"parameters":[1,"No"]},{"code":0,"indent":1,"parameters":[]},{"code":404,"indent":0,"parameters":[]},{"code":0,"indent":0,"parameters":[]}],"moveFrequency":3,"moveRoute":{"list":[{"code":0,"parameters":[]}],"repeat":true,"skippable":false,"wait":false},"moveSpeed":3,"moveType":0,"priorityType":1,"stepAnime":false,"through":false,"trigger":0,"walkAnime":true}],"x":7,"y":4},
{"id":2,"name":"EV002","note":"","pages":[{"conditions":{"actorId":1,"actorValid":false,"itemId":1,"itemValid":false,"selfSwitchCh":"A","selfSwitchValid":false,"switch1Id":1,"switch1Valid":false,"switch2Id":1,"switch2Valid":false,"variableId":1,"variableValid":false,"variableValue":0},"directionFix":false,"image":{"characterIndex":0,"characterName":"","direction":2,"pattern":0,"tileId":0},"list":[{"code":250,"indent":0,"parameters":[{"name":"Move1","pan":0,"pitch":100,"volume":90}]},{"code":221,"indent":0,"parameters":[]},{"code":201,"indent":0,"parameters":[0,27,7,23,0,0]},{"code":111,"indent":0,"parameters":[0,251,0]},{"code":111,"indent":1,"parameters":[0,280,1]},{"code":236,"indent":2,"parameters":["none",7,1,true]},{"code":0,"indent":2,"parameters":[]},{"code":412,"indent":1,"parameters":[]},{"code":0,"indent":1,"parameters":[]},{"code":412,"indent":0,"parameters":[]},{"code":223,"indent":0,"parameters":[[-51,-51,-51,119],1,false]},{"code":245,"indent":0,"parameters":[{"name":"Drips","volume":80,"pitch":100,"pan":0}]},{"code":222,"indent":0,"parameters":[]},{"code":0,"indent":0,"parameters":[]}],"moveFrequency":3,"moveRoute":{"list":[{"code":0,"parameters":[]}],"repeat":true,"skippable":false,"wait":false},"moveSpeed":3,"moveType":0,"priorityType":0,"stepAnime":false,"through":false,"trigger":1,"walkAnime":true}],"x":8,"y":4},
{"id":3,"name":"EV003","note":"","pages":[{"conditions":{"actorId":1,"actorValid":false,"itemId":1,"itemValid":false,"selfSwitchCh":"A","selfSwitchValid":false,"switch1Id":1,"switch1Valid":false,"switch2Id":1,"switch2Valid":false,"variableId":1,"variableValid":false,"variableValue":0},"directionFix":false,"image":{"characterIndex":0,"characterName":"","direction":2,"pattern":0,"tileId":0},"list":[{"code":250,"indent":0,"parameters":[{"name":"Move1","pan":0,"pitch":100,"volume":90}]},{"code":201,"indent":0,"parameters":[0,3,14,11,0,0]},{"code":111,"indent":0,"parameters":[0,251,0]},{"code":111,"indent":1,"parameters":[0,280,1]},{"code":245,"indent":2,"parameters":[{"name":"","volume":80,"pitch":100,"pan":0}]},{"code":236,"indent":2,"parameters":["none",7,1,true]},{"code":0,"indent":2,"parameters":[]},{"code":412,"indent":1,"parameters":[]},{"code":0,"indent":1,"parameters":[]},{"code":412,"indent":0,"parameters":[]},{"code":0,"indent":0,"parameters":[]}],"moveFrequency":3,"moveRoute":{"list":[{"code":0,"parameters":[]}],"repeat":true,"skippable":false,"wait":false},"moveSpeed":3,"moveType":0,"priorityType":0,"stepAnime":false,"through":false,"trigger":1,"walkAnime":true}],"x":8,"y":12},
{"id":4,"name":"EV004","note":"","pages":[{"conditions":{"actorId":1,"actorValid":false,"itemId":1,"itemValid":false,"selfSwitchCh":"A","selfSwitchValid":false,"switch1Id":1,"switch1Valid":false,"switch2Id":1,"switch2Valid":false,"variableId":1,"variableValid":false,"variableValue":0},"directionFix":false,"image":{"characterIndex":0,"characterName":"","direction":2,"pattern":0,"tileId":0},"list":[{"code":250,"indent":0,"parameters":[{"name":"Move1","pan":0,"pitch":100,"volume":90}]},{"code":201,"indent":0,"parameters":[0,3,14,11,0,0]},{"code":111,"indent":0,"parameters":[0,251,0]},{"code":111,"indent":1,"parameters":[0,280,1]},{"code":245,"indent":2,"parameters":[{"name":"","volume":80,"pitch":100,"pan":0}]},{"code":236,"indent":2,"parameters":["none",7,1,true]},{"code":0,"indent":2,"parameters":[]},{"code":412,"indent":1,"parameters":[]},{"code":0,"indent":1,"parameters":[]},{"code":412,"indent":0,"parameters":[]},{"code":0,"indent":0,"parameters":[]}],"moveFrequency":3,"moveRoute":{"list":[{"code":0,"parameters":[]}],"repeat":true,"skippable":false,"wait":false},"moveSpeed":3,"moveType":0,"priorityType":0,"stepAnime":false,"through":false,"trigger":1,"walkAnime":true}],"x":7,"y":12},
{"id":5,"name":"EV005","note":"","pages":[{"conditions":{"actorId":1,"actorValid":false,"itemId":1,"itemValid":false,"selfSwitchCh":"A","selfSwitchValid":false,"switch1Id":1,"switch1Valid":false,"switch2Id":1,"switch2Valid":false,"variableId":1,"variableValid":false,"variableValue":0},"directionFix":false,"image":{"characterIndex":0,"characterName":"","direction":2,"pattern":0,"tileId":0},"list":[{"code":250,"indent":0,"parameters":[{"name":"Move1","pan":0,"pitch":100,"volume":90}]},{"code":201,"indent":0,"parameters":[0,3,14,11,0,0]},{"code":111,"indent":0,"parameters":[0,251,0]},{"code":111,"indent":1,"parameters":[0,280,1]},{"code":245,"indent":2,"parameters":[{"name":"","volume":80,"pitch":100,"pan":0}]},{"code":236,"indent":2,"parameters":["none",7,1,true]},{"code":0,"indent":2,"parameters":[]},{"code":412,"indent":1,"parameters":[]},{"code":0,"indent":1,"parameters":[]},{"code":412,"indent":0,"parameters":[]},{"code":0,"indent":0,"parameters":[]}],"moveFrequency":3,"moveRoute":{"list":[{"code":0,"parameters":[]}],"repeat":true,"skippable":false,"wait":false},"moveSpeed":3,"moveType":0,"priorityType":0,"stepAnime":false,"through":false,"trigger":1,"walkAnime":true}],"x":6,"y":12},
{"id":6,"name":"EV006","note":"","pages":[{"conditions":{"actorId":1,"actorValid":false,"itemId":1,"itemValid":false,"selfSwitchCh":"A","selfSwitchValid":false,"switch1Id":1,"switch1Valid":false,"switch2Id":1,"switch2Valid":false,"variableId":1,"variableValid":false,"variableValue":0},"directionFix":false,"image":{"characterIndex":0,"characterName":"","direction":2,"pattern":0,"tileId":0},"list":[{"code":250,"indent":0,"parameters":[{"name":"Move1","pan":0,"pitch":100,"volume":90}]},{"code":201,"indent":0,"parameters":[0,3,14,11,0,0]},{"code":111,"indent":0,"parameters":[0,251,0]},{"code":111,"indent":1,"parameters":[0,280,1]},{"code":245,"indent":2,"parameters":[{"name":"","volume":80,"pitch":100,"pan":0}]},{"code":236,"indent":2,"parameters":["none",7,1,true]},{"code":0,"indent":2,"parameters":[]},{"code":412,"indent":1,"parameters":[]},{"code":0,"indent":1,"parameters":[]},{"code":412,"indent":0,"parameters":[]},{"code":0,"indent":0,"parameters":[]}],"moveFrequency":3,"moveRoute":{"list":[{"code":0,"parameters":[]}],"repeat":true,"skippable":false,"wait":false},"moveSpeed":3,"moveType":0,"priorityType":0,"stepAnime":false,"through":false,"trigger":1,"walkAnime":true}],"x":5,"y":12},
{"id":7,"name":"EV007","note":"","pages":[{"conditions":{"actorId":1,"actorValid":false,"itemId":1,"itemValid":false,"selfSwitchCh":"A","selfSwitchValid":false,"switch1Id":1,"switch1Valid":false,"switch2Id":1,"switch2Valid":false,"variableId":1,"variableValid":false,"variableValue":0},"directionFix":false,"image":{"characterIndex":0,"characterName":"","direction":2,"pattern":0,"tileId":0},"list":[{"code":250,"indent":0,"parameters":[{"name":"Move1","pan":0,"pitch":100,"volume":90}]},{"code":201,"indent":0,"parameters":[0,3,14,11,0,0]},{"code":111,"indent":0,"parameters":[0,251,0]},{"code":111,"indent":1,"parameters":[0,280,1]},{"code":245,"indent":2,"parameters":[{"name":"","volume":80,"pitch":100,"pan":0}]},{"code":236,"indent":2,"parameters":["none",7,1,true]},{"code":0,"indent":2,"parameters":[]},{"code":412,"indent":1,"parameters":[]},{"code":0,"indent":1,"parameters":[]},{"code":412,"indent":0,"parameters":[]},{"code":0,"indent":0,"parameters":[]}],"moveFrequency":3,"moveRoute":{"list":[{"code":0,"parameters":[]}],"repeat":true,"skippable":false,"wait":false},"moveSpeed":3,"moveType":0,"priorityType":0,"stepAnime":false,"through":false,"trigger":1,"walkAnime":true}],"x":4,"y":12},
{"id":8,"name":"EV008","note":"","pages":[{"conditions":{"actorId":1,"actorValid":false,"itemId":1,"itemValid":false,"selfSwitchCh":"A","selfSwitchValid":false,"switch1Id":1,"switch1Valid":false,"switch2Id":1,"switch2Valid":false,"variableId":1,"variableValid":false,"variableValue":0},"directionFix":false,"image":{"characterIndex":0,"characterName":"","direction":2,"pattern":0,"tileId":0},"list":[{"code":250,"indent":0,"parameters":[{"name":"Move1","pan":0,"pitch":100,"volume":90}]},{"code":201,"indent":0,"parameters":[0,3,14,11,0,0]},{"code":111,"indent":0,"parameters":[0,251,0]},{"code":111,"indent":1,"parameters":[0,280,1]},{"code":245,"indent":2,"parameters":[{"name":"","volume":80,"pitch":100,"pan":0}]},{"code":236,"indent":2,"parameters":["none",7,1,true]},{"code":0,"indent":2,"parameters":[]},{"code":412,"indent":1,"parameters":[]},{"code":0,"indent":1,"parameters":[]},{"code":412,"indent":0,"parameters":[]},{"code":0,"indent":0,"parameters":[]}],"moveFrequency":3,"moveRoute":{"list":[{"code":0,"parameters":[]}],"repeat":true,"skippable":false,"wait":false},"moveSpeed":3,"moveType":0,"priorityType":0,"stepAnime":false,"through":false,"trigger":1,"walkAnime":true}],"x":9,"y":12},
{"id":9,"name":"EV009","note":"","pages":[{"conditions":{"actorId":1,"actorValid":false,"itemId":1,"itemValid":false,"selfSwitchCh":"A","selfSwitchValid":false,"switch1Id":1,"switch1Valid":false,"switch2Id":1,"switch2Valid":false,"variableId":1,"variableValid":false,"variableValue":0},"directionFix":false,"image":{"characterIndex":0,"characterName":"","direction":2,"pattern":0,"tileId":0},"list":[{"code":250,"indent":0,"parameters":[{"name":"Move1","pan":0,"pitch":100,"volume":90}]},{"code":201,"indent":0,"parameters":[0,3,14,11,0,0]},{"code":111,"indent":0,"parameters":[0,251,0]},{"code":111,"indent":1,"parameters":[0,280,1]},{"code":245,"indent":2,"parameters":[{"name":"","volume":80,"pitch":100,"pan":0}]},{"code":236,"indent":2,"parameters":["none",7,1,true]},{"code":0,"indent":2,"parameters":[]},{"code":412,"indent":1,"parameters":[]},{"code":0,"indent":1,"parameters":[]},{"code":412,"indent":0,"parameters":[]},{"code":0,"indent":0,"parameters":[]}],"moveFrequency":3,"moveRoute":{"list":[{"code":0,"parameters":[]}],"repeat":true,"skippable":false,"wait":false},"moveSpeed":3,"moveType":0,"priorityType":0,"stepAnime":false,"through":false,"trigger":1,"walkAnime":true}],"x":10,"y":12},
{"id":10,"name":"EV010","note":"","pages":[{"conditions":{"actorId":1,"actorValid":false,"itemId":1,"itemValid":false,"selfSwitchCh":"A","selfSwitchValid":false,"switch1Id":1,"switch1Valid":false,"switch2Id":1,"switch2Valid":false,"variableId":1,"variableValid":false,"variableValue":0},"directionFix":false,"image":{"characterIndex":0,"characterName":"","direction":2,"pattern":0,"tileId":0},"list":[{"code":250,"indent":0,"parameters":[{"name":"Move1","pan":0,"pitch":100,"volume":90}]},{"code":201,"indent":0,"parameters":[0,3,14,11,0,0]},{"code":111,"indent":0,"parameters":[0,251,0]},{"code":111,"indent":1,"parameters":[0,280,1]},{"code":245,"indent":2,"parameters":[{"name":"","volume":80,"pitch":100,"pan":0}]},{"code":236,"indent":2,"parameters":["none",7,1,true]},{"code":0,"indent":2,"parameters":[]},{"code":412,"indent":1,"parameters":[]},{"code":0,"indent":1,"parameters":[]},{"code":412,"indent":0,"parameters":[]},{"code":0,"indent":0,"parameters":[]}],"moveFrequency":3,"moveRoute":{"list":[{"code":0,"parameters":[]}],"repeat":true,"skippable":false,"wait":false},"moveSpeed":3,"moveType":0,"priorityType":0,"stepAnime":false,"through":false,"trigger":1,"walkAnime":true}],"x":11,"y":12},
{"id":11,"name":"EV011","note":"","pages":[{"conditions":{"actorId":1,"actorValid":false,"itemId":1,"itemValid":false,"selfSwitchCh":"A","selfSwitchValid":false,"switch1Id":1,"switch1Valid":false,"switch2Id":1,"switch2Valid":false,"variableId":1,"variableValid":false,"variableValue":0},"directionFix":false,"image":{"characterIndex":0,"characterName":"","direction":2,"pattern":0,"tileId":0},"list":[{"code":250,"indent":0,"parameters":[{"name":"Move1","pan":0,"pitch":100,"volume":90}]},{"code":201,"indent":0,"parameters":[0,3,14,11,0,0]},{"code":111,"indent":0,"parameters":[0,251,0]},{"code":111,"indent":1,"parameters":[0,280,1]},{"code":245,"indent":2,"parameters":[{"name":"","volume":80,"pitch":100,"pan":0}]},{"code":236,"indent":2,"parameters":["none",7,1,true]},{"code":0,"indent":2,"parameters":[]},{"code":412,"indent":1,"parameters":[]},{"code":0,"indent":1,"parameters":[]},{"code":412,"indent":0,"parameters":[]},{"code":0,"indent":0,"parameters":[]}],"moveFrequency":3,"moveRoute":{"list":[{"code":0,"parameters":[]}],"repeat":true,"skippable":false,"wait":false},"moveSpeed":3,"moveType":0,"priorityType":0,"stepAnime":false,"through":false,"trigger":1,"walkAnime":true}],"x":12,"y":12},
{"id":12,"name":"EV012","note":"","pages":[{"conditions":{"actorId":1,"actorValid":false,"itemId":1,"itemValid":false,"selfSwitchCh":"A","selfSwitchValid":false,"switch1Id":1,"switch1Valid":false,"switch2Id":1,"switch2Valid":false,"variableId":1,"variableValid":false,"variableValue":0},"directionFix":false,"image":{"characterIndex":0,"characterName":"","direction":2,"pattern":0,"tileId":0},"list":[{"code":250,"indent":0,"parameters":[{"name":"Move1","pan":0,"pitch":100,"volume":90}]},{"code":201,"indent":0,"parameters":[0,3,14,11,0,0]},{"code":111,"indent":0,"parameters":[0,251,0]},{"code":111,"indent":1,"parameters":[0,280,1]},{"code":245,"indent":2,"parameters":[{"name":"","volume":80,"pitch":100,"pan":0}]},{"code":236,"indent":2,"parameters":["none",7,1,true]},{"code":0,"indent":2,"parameters":[]},{"code":412,"indent":1,"parameters":[]},{"code":0,"indent":1,"parameters":[]},{"code":412,"indent":0,"parameters":[]},{"code":0,"indent":0,"parameters":[]}],"moveFrequency":3,"moveRoute":{"list":[{"code":0,"parameters":[]}],"repeat":true,"skippable":false,"wait":false},"moveSpeed":3,"moveType":0,"priorityType":0,"stepAnime":false,"through":false,"trigger":1,"walkAnime":true}],"x":13,"y":12},
{"id":13,"name":"EV013","note":"","pages":[{"conditions":{"actorId":1,"actorValid":false,"itemId":1,"itemValid":false,"selfSwitchCh":"A","selfSwitchValid":false,"switch1Id":1,"switch1Valid":false,"switch2Id":1,"switch2Valid":false,"variableId":1,"variableValid":false,"variableValue":0},"directionFix":false,"image":{"characterIndex":0,"characterName":"","direction":2,"pattern":0,"tileId":0},"list":[{"code":250,"indent":0,"parameters":[{"name":"Move1","pan":0,"pitch":100,"volume":90}]},{"code":201,"indent":0,"parameters":[0,3,14,11,0,0]},{"code":111,"indent":0,"parameters":[0,251,0]},{"code":111,"indent":1,"parameters":[0,280,1]},{"code":245,"indent":2,"parameters":[{"name":"","volume":80,"pitch":100,"pan":0}]},{"code":236,"indent":2,"parameters":["none",7,1,true]},{"code":0,"indent":2,"parameters":[]},{"code":412,"indent":1,"parameters":[]},{"code":0,"indent":1,"parameters":[]},{"code":412,"indent":0,"parameters":[]},{"code":0,"indent":0,"parameters":[]}],"moveFrequency":3,"moveRoute":{"list":[{"code":0,"parameters":[]}],"repeat":true,"skippable":false,"wait":false},"moveSpeed":3,"moveType":0,"priorityType":0,"stepAnime":false,"through":false,"trigger":1,"walkAnime":true}],"x":14,"y":12}
]
}