{
"autoplayBgm":false,"autoplayBgs":false,"battleback1Name":"","battleback2Name":"","bgm":{"name":"","pan":0,"pitch":100,"volume":90},"bgs":{"name":"","pan":0,"pitch":100,"volume":90},"disableDashing":false,"displayName":"","encounterList":[],"encounterStep":30,"height":13,"note":"","parallaxLoopX":false,"parallaxLoopY":false,"parallaxName":"","parallaxShow":true,"parallaxSx":0,"parallaxSy":0,"scrollType":0,"specifyBattleback":false,"tilesetId":6,"width":17,
"data":[0,0,0,0,0,0,0,0,0,0,0,0,0,0,0,0,0,0,0,6211,6209,6209,6209,6209,6209,6209,6209,6209,6209,6209,6209,6213,0,0,0,0,6208,6562,6562,6562,6562,6562,6562,6562,6562,6562,6562,6562,6208,0,0,0,0,6208,6568,6568,6568,6568,6568,6568,6568,6568,6568,6568,6568,6208,0,0,0,0,6208,1538,1539,1539,1539,1539,1539,1539,1589,1589,1589,1589,6208,0,0,0,0,6208,1538,1539,1539,1539,1539,1539,1539,1539,1589,1589,1589,6208,0,0,0,0,6208,1538,1539,1539,1539,1539,1539,1539,1539,1589,1589,1589,6208,0,0,0,0,6208,3378,3364,3380,1539,1539,1539,1539,1539,1539,1589,1589,6208,0,0,0,0,6208,3360,3344,3368,1539,1539,1539,1539,1539,1539,1539,1589,6208,0,0,0,0,6208,3360,3344,3368,1539,1539,1539,1539,1539,1589,1589,1589,6208,0,0,0,0,6208,3384,3372,3382,1539,1539,1539,1539,1589,1589,1589,1589,6208,0,0,0,0,6217,6209,6209,6209,6221,1539,6219,6209,6209,6209,6209,6209,6215,0,0,0,0,0,0,0,0,0,0,0,0,0,0,0,0,0,0,0,0,0,0,0,0,0,0,0,0,0,0,0,0,0,0,0,0,0,0,0,0,0,0,0,0,0,0,0,0,0,0,0,0,0,0,0,0,0,0,0,0,0,0,0,0,0,0,0,0,0,0,0,0,0,0,0,0,0,0,0,0,0,0,0,0,0,0,0,0,0,0,0,0,0,0,0,0,0,0,0,0,0,0,0,0,0,0,0,0,0,0,0,0,0,0,0,0,0,0,0,0,0,0,0,0,0,0,0,0,0,0,0,0,0,0,0,0,0,0,0,0,0,0,0,0,0,0,0,0,0,0,0,0,0,0,0,0,0,0,0,0,0,0,0,0,0,0,0,0,0,0,0,0,0,0,0,0,0,0,0,0,0,0,0,0,0,0,0,0,0,0,0,0,0,0,0,0,0,0,0,0,0,0,0,0,0,0,0,0,0,0,0,0,0,0,0,0,0,0,0,0,0,0,0,0,0,0,0,0,0,0,0,0,0,0,0,0,0,0,0,0,0,0,0,0,0,0,0,0,0,0,0,0,0,0,0,0,0,0,0,0,0,0,0,0,0,0,0,0,0,0,0,0,0,0,0,0,0,0,0,0,0,0,0,0,0,0,0,0,0,0,0,0,0,0,0,0,0,0,0,0,0,0,0,0,0,0,0,0,0,0,0,0,243,244,0,0,0,0,0,0,0,0,0,0,0,0,0,0,0,0,0,0,0,0,0,0,0,0,0,0,0,0,0,0,0,0,0,0,0,0,0,0,0,0,0,0,0,0,0,0,0,0,0,0,0,0,0,0,0,0,0,0,0,0,0,0,0,0,0,0,0,0,0,0,0,0,0,0,0,0,0,0,0,0,0,0,0,0,0,0,0,0,0,0,0,0,0,0,0,0,0,0,0,0,0,0,0,0,0,0,0,0,0,0,0,0,0,0,0,0,0,0,0,0,0,0,0,0,0,0,0,0,0,0,0,0,0,0,0,0,0,0,0,0,0,0,0,0,0,0,0,0,0,0,0,0,0,0,0,0,0,0,0,0,0,0,0,0,0,0,0,0,0,0,0,0,0,0,0,0,0,0,0,0,0,0,0,0,0,365,0,0,0,0,0,311,0,365,0,0,0,0,0,0,0,407,0,0,0,0,0,0,369,0,181,74,0,0,0,0,0,0,0,132,129,0,0,249,376,377,107,189,82,0,0,0,0,0,0,0,0,272,0,0,0,0,0,0,0,0,0,0,0,0,0,0,0,0,0,0,0,0,0,0,0,0,0,0,0,0,0,0,0,0,0,0,0,0,0,0,180,180,180,180,0,0,0,0,0,0,0,0,0,0,0,0,0,188,188,188,188,0,0,0,0,0,0,225,225,0,0,0,0,0,0,0,0,0,0,0,0,0,0,0,233,233,0,0,0,0,0,0,0,0,0,0,0,0,0,0,0,0,0,0,0,0,0,0,0,0,0,0,0,0,0,0,0,0,0,0,0,0,0,0,0,0,0,0,0,0,0,0,0,0,0,0,0,0,0,0,0,0,0,0,0,0,0,0,0,0,0,0,0,0,0,0,0,0,0,0,0,0,0,0,0,0,0,0,0,0,0,0,0,0,0,0,0,0,0,0,0,0,0,0,0,0,0,0,0,0,0,0,0,0,0,0,0,0,0,0,0,0,0,5,0,0,0,0,0,0,0,0,0,0,0,0,0,0,0,0,5,0,0,0,0,0,0,0,0,0,0,0,0,0,0,0,0,5,0,0,0,0,0,0,0,0,0,0,0,0,0,0,0,0,5,0,0,0,0,0,0,0,0,0,0,0,0,0,0,0,0,5,0,0,0,0,0,0,0,0,0,0,0,0,0,0,0,0,5,0,0,0,0,0,0,0,0,0,0,0,0,0,0,0,0,5,0,0,0,0,0,0,0,0,0,0,0,0,0,0,0,0,0,0,0,0,0,0,0,0,0,0,0,0,0,0,0,0,0,0,0,0,0,0,0,0,0,0,0,0,0,0,0,0,0,0,0,0,0,0,0,0,0,0,0,0,0,0,0,0,0,0,0,0,0,0,0,0,0,0,0,0,0,0,0,0,0,0,0,0,0,0,0,0,0,0,0,0,0,0,0,0,0,0,0,0,0,0,0,0,0,0,0,0,0,0,0,0,0,0,0,0,0,0,0,0,0,0,0,0,0,0,0,0,0,0,0,0,0,0,0,0,0,0,0,0,0,0,0,0,0,0,0,0,0,0,0,0,0,0,0,0,0,0,0,0,0,0,0,0,0,0,0,0,0,0,0,0,0,0,0,0,0,0,0,0,0,0,0,0,0,0,0,0,0,0,0,0,0,0,0,0,0,0,0,0,0,0,0,0,0,0,0,0,0,0,0,0,0,0,0,0,0,0,0,0,0,0,0,0,0,0,0,0,0,0,0,0,0,0,0,0,0,0,0,0,0,0,0,0,0,0,0,0,0,0,0,0,0,0,0,0,0,0,0,0,0,0,0,0,0,0,0,0],
"events":[
null,
{"id":1,"name":"EV001","note":"","pages":[{"conditions":{"actorId":1,"actorValid":false,"itemId":1,"itemValid":false,"selfSwitchCh":"A","selfSwitchValid":false,"switch1Id":1,"switch1Valid":false,"switch2Id":1,"switch2Valid":false,"variableId":1,"variableValid":false,"variableValue":0},"directionFix":false,"image":{"characterIndex":0,"characterName":"","direction":2,"pattern":0,"tileId":0},"list":[{"code":250,"indent":0,"parameters":[{"name":"Move1","pan":0,"pitch":100,"volume":90}]},{"code":201,"indent":0,"parameters":[0,67,9,6,0,0]},{"code":111,"indent":0,"parameters":[0,251,0]},{"code":111,"indent":1,"parameters":[0,280,1]},{"code":245,"indent":2,"parameters":[{"name":"Rain3","volume":80,"pitch":100,"pan":0}]},{"code":236,"indent":2,"parameters":["rain",7,1,true]},{"code":0,"indent":2,"parameters":[]},{"code":412,"indent":1,"parameters":[]},{"code":0,"indent":1,"parameters":[]},{"code":412,"indent":0,"parameters":[]},{"code":111,"indent":0,"parameters":[0,401,0]},{"code":223,"indent":1,"parameters":[[-68,-68,0,68],1,false]},{"code":0,"indent":1,"parameters":[]},{"code":412,"indent":0,"parameters":[]},{"code":0,"indent":0,"parameters":[]}],"moveFrequency":3,"moveRoute":{"list":[{"code":0,"parameters":[]}],"repeat":true,"skippable":false,"wait":false},"moveSpeed":3,"moveType":0,"priorityType":0,"stepAnime":false,"through":false,"trigger":1,"walkAnime":true}],"x":7,"y":11},
{"id":2,"name":"八島","note":"","pages":[{"conditions":{"actorId":1,"actorValid":false,"itemId":60,"itemValid":true,"selfSwitchCh":"A","selfSwitchValid":false,"switch1Id":1,"switch1Valid":false,"switch2Id":1,"switch2Valid":false,"variableId":1,"variableValid":false,"variableValue":0},"directionFix":true,"image":{"tileId":0,"characterName":"SF_Actor3","direction":8,"pattern":1,"characterIndex":1},"list":[{"code":101,"indent":0,"parameters":["",0,0,2]},{"code":401,"indent":0,"parameters":["　Trooper"]},{"code":401,"indent":0,"parameters":["「あー, チクショウ!　何やってんだよ味方は, "]},{"code":401,"indent":0,"parameters":["　そこで落とされちゃダメでしょ!!?」"]},{"code":101,"indent":0,"parameters":["FaceH2",3,0,2]},{"code":401,"indent":0,"parameters":["「あのー, すみません……」"]},{"code":250,"indent":0,"parameters":[{"name":"Decision2","volume":90,"pitch":100,"pan":0}]},{"code":213,"indent":0,"parameters":[0,1,true]},{"code":205,"indent":0,"parameters":[0,{"list":[{"code":36,"indent":null},{"code":25,"indent":null},{"code":0}],"repeat":false,"skippable":false,"wait":true}]},{"code":505,"indent":0,"parameters":[{"code":36,"indent":null}]},{"code":505,"indent":0,"parameters":[{"code":25,"indent":null}]},{"code":101,"indent":0,"parameters":["",0,0,2]},{"code":401,"indent":0,"parameters":["　Trooper"]},{"code":401,"indent":0,"parameters":["「すいません, これはちょっとした息抜きで!"]},{"code":401,"indent":0,"parameters":["　報告だけは――って」"]},{"code":213,"indent":0,"parameters":[0,6,true]},{"code":101,"indent":0,"parameters":["",0,0,2]},{"code":401,"indent":0,"parameters":["　Trooper"]},{"code":401,"indent":0,"parameters":["「びっくりさせないでよー, 上官かと思って肝が冷えたよ」"]},{"code":101,"indent":0,"parameters":["FaceH2",4,0,2]},{"code":401,"indent":0,"parameters":["「オンラインゲームやってる……」"]},{"code":101,"indent":0,"parameters":["",0,0,2]},{"code":401,"indent":0,"parameters":["　Trooper"]},{"code":401,"indent":0,"parameters":["「シーっ!シーっ!　5分だけ, 5分だけだから!」"]},{"code":101,"indent":0,"parameters":["FaceH1",1,0,2]},{"code":401,"indent":0,"parameters":["「あなたが八島さんですか?"]},{"code":401,"indent":0,"parameters":["　この\\c[2]Flash Memory\\c[0]を預かってきたん"]},{"code":401,"indent":0,"parameters":["　ですけど」"]},{"code":101,"indent":0,"parameters":["",0,0,2]},{"code":401,"indent":0,"parameters":["　八島"]},{"code":401,"indent":0,"parameters":["「おー, ありがと!　取りに戻るの面倒だったんだよね」"]},{"code":250,"indent":0,"parameters":[{"name":"Chime2","volume":90,"pitch":100,"pan":0}]},{"code":101,"indent":0,"parameters":["",0,0,2]},{"code":401,"indent":0,"parameters":["八島Trooperに\\c[2]Flash Memory\\c[0]を渡した. "]},{"code":101,"indent":0,"parameters":["",0,0,2]},{"code":401,"indent":0,"parameters":["　八島"]},{"code":401,"indent":0,"parameters":["「いやー, 昔はここでずっと遊べてたんだけどねー"]},{"code":401,"indent":0,"parameters":["　世知辛い時代になったもんだよ」"]},{"code":101,"indent":0,"parameters":["FaceH2",5,0,2]},{"code":401,"indent":0,"parameters":["「こんなところで遊んでたら怒られない方が"]},{"code":401,"indent":0,"parameters":["　おかしいと思いますけど……」"]},{"code":101,"indent":0,"parameters":["",0,0,2]},{"code":401,"indent":0,"parameters":["　八島"]},{"code":401,"indent":0,"parameters":["「ノンノン, 夜中に当直をしてる時は誰もいないから"]},{"code":401,"indent":0,"parameters":["　やりたい放題だったのよ. みんな寝ちゃってるしね!」"]},{"code":250,"indent":0,"parameters":[{"name":"Decision2","volume":90,"pitch":100,"pan":0}]},{"code":213,"indent":0,"parameters":[-1,1,false]},{"code":101,"indent":0,"parameters":["FaceH2",3,0,2]},{"code":401,"indent":0,"parameters":["「――――!」"]},{"code":101,"indent":0,"parameters":["FaceM1",1,0,2]},{"code":401,"indent":0,"parameters":["\\c[4]「八島様, 以前ここで当直をしたご経験が?」"]},{"code":101,"indent":0,"parameters":["FaceH1",3,0,2]},{"code":401,"indent":0,"parameters":["「何か不審なこととかありませんでした?"]},{"code":401,"indent":0,"parameters":["　人影を見たり変な音が聞こえたり……」"]},{"code":101,"indent":0,"parameters":["",0,0,2]},{"code":401,"indent":0,"parameters":["　八島"]},{"code":401,"indent":0,"parameters":["「ええ?!　う, う～ん……"]},{"code":401,"indent":0,"parameters":["　それこそずっとゲームやってたからな～……」"]},{"code":101,"indent":0,"parameters":["FaceH2",4,0,2]},{"code":401,"indent":0,"parameters":["「ダメだこりゃ」"]},{"code":101,"indent":0,"parameters":["",0,0,2]},{"code":401,"indent":0,"parameters":["　八島"]},{"code":401,"indent":0,"parameters":["「その時は楽しかったんだよー. 6対6で戦うオンライン"]},{"code":401,"indent":0,"parameters":["　ゲームやっててね, フレンドの中にはアジア5位の"]},{"code":401,"indent":0,"parameters":["　ランカーもいたんだよ!」"]},{"code":101,"indent":0,"parameters":["FaceH2",5,0,2]},{"code":401,"indent":0,"parameters":[" (フレンド自慢が始まった……)"]},{"code":101,"indent":0,"parameters":["",0,0,2]},{"code":401,"indent":0,"parameters":["　八島"]},{"code":401,"indent":0,"parameters":["「それで毎晩パーティー組んで戦っててね, 僕みたいな低"]},{"code":401,"indent":0,"parameters":["　レートでもそこじゃあ活躍できてたんだから!」"]},{"code":101,"indent":0,"parameters":["FaceM1",1,0,2]},{"code":401,"indent":0,"parameters":["\\c[4]「毎晩……?」"]},{"code":101,"indent":0,"parameters":["",0,0,2]},{"code":401,"indent":0,"parameters":["　八島"]},{"code":401,"indent":0,"parameters":["「そうそう, その時ちょうどお気に入りのキャラクターの"]},{"code":401,"indent":0,"parameters":["　赤髪のスキンを使っててね, パーティーの皆で揃えて"]},{"code":401,"indent":0,"parameters":["　『\\c[2]赤毛軍団\\c[0]』だ!　って暴れまわってたんだよ」"]},{"code":101,"indent":0,"parameters":["",0,0,2]},{"code":401,"indent":0,"parameters":["　八島"]},{"code":401,"indent":0,"parameters":["「その人たちと知り合ったのも『一緒に赤毛キャラで"]},{"code":401,"indent":0,"parameters":["　パーティーを組みませんか?』って感じで招待が来た"]},{"code":401,"indent":0,"parameters":["　のがきっかけだったし」"]},{"code":213,"indent":0,"parameters":[-1,8,true]},{"code":101,"indent":0,"parameters":["FaceH2",3,0,2]},{"code":401,"indent":0,"parameters":["「そんな話をどこかで聞いたような……」"]},{"code":101,"indent":0,"parameters":["FaceM1",1,0,2]},{"code":401,"indent":0,"parameters":["\\c[4]「八島様, その方たちとは今も一緒に遊ばれて"]},{"code":401,"indent":0,"parameters":["　いるのですか?」"]},{"code":101,"indent":0,"parameters":["",0,0,2]},{"code":401,"indent":0,"parameters":["　八島"]},{"code":401,"indent":0,"parameters":["「いんやー, それがある時パタッと招待が来なくなったの"]},{"code":401,"indent":0,"parameters":["　よねー. 気付いたらフレンド登録も解除されてたし, "]},{"code":401,"indent":0,"parameters":["　地味にShockじゃない?」"]},{"code":101,"indent":0,"parameters":["FaceH2",5,0,2]},{"code":401,"indent":0,"parameters":["「ひとつ聞きたいんですけど, ちょうどその頃"]},{"code":401,"indent":0,"parameters":["　からこの基地に『Eye of Aquarius』の人間が出る"]},{"code":401,"indent":0,"parameters":["　ようになったんじゃありません?」"]},{"code":101,"indent":0,"parameters":["",0,0,2]},{"code":401,"indent":0,"parameters":["　八島"]},{"code":401,"indent":0,"parameters":["「んんー?"]},{"code":401,"indent":0,"parameters":["　言われてみればそんな時期かも……」"]},{"code":101,"indent":0,"parameters":["",0,0,2]},{"code":401,"indent":0,"parameters":["　八島"]},{"code":401,"indent":0,"parameters":["「あれ……でも何で?」"]},{"code":101,"indent":0,"parameters":["FaceH2",4,0,2]},{"code":401,"indent":0,"parameters":["「いや, よくわかりました」"]},{"code":101,"indent":0,"parameters":["FaceM1",1,0,2]},{"code":401,"indent":0,"parameters":["\\c[4]「八島様, 始末書のご用意をしておいた方が"]},{"code":401,"indent":0,"parameters":["　よろしいかもしれません」"]},{"code":101,"indent":0,"parameters":["",0,0,2]},{"code":401,"indent":0,"parameters":["　八島"]},{"code":401,"indent":0,"parameters":["「え?　え?　僕何かした?」"]},{"code":123,"indent":0,"parameters":["A",0]},{"code":121,"indent":0,"parameters":[255,255,0]},{"code":126,"indent":0,"parameters":[60,1,0,1]},{"code":205,"indent":0,"parameters":[0,{"list":[{"code":25,"indent":null},{"code":0}],"repeat":false,"skippable":false,"wait":true}]},{"code":505,"indent":0,"parameters":[{"code":25,"indent":null}]},{"code":0,"indent":0,"parameters":[]}],"moveFrequency":3,"moveRoute":{"list":[{"code":0,"parameters":[]}],"repeat":true,"skippable":false,"wait":false},"moveSpeed":3,"moveType":0,"priorityType":1,"stepAnime":false,"through":false,"trigger":0,"walkAnime":true},{"conditions":{"actorId":1,"actorValid":false,"itemId":1,"itemValid":false,"selfSwitchCh":"A","selfSwitchValid":true,"switch1Id":1,"switch1Valid":false,"switch2Id":1,"switch2Valid":false,"variableId":1,"variableValid":false,"variableValue":0},"directionFix":false,"image":{"tileId":0,"characterName":"SF_Actor3","direction":8,"pattern":1,"characterIndex":1},"list":[{"code":101,"indent":0,"parameters":["",0,0,2]},{"code":401,"indent":0,"parameters":["　八島"]},{"code":401,"indent":0,"parameters":["「ゲームの件は黙っておいてね, 頼むよ!」"]},{"code":0,"indent":0,"parameters":[]}],"moveFrequency":3,"moveRoute":{"list":[{"code":0,"parameters":[]}],"repeat":true,"skippable":false,"wait":false},"moveSpeed":3,"moveType":0,"priorityType":1,"stepAnime":false,"through":false,"trigger":0,"walkAnime":true},{"conditions":{"actorId":1,"actorValid":false,"itemId":1,"itemValid":false,"selfSwitchCh":"A","selfSwitchValid":false,"switch1Id":281,"switch1Valid":true,"switch2Id":1,"switch2Valid":false,"variableId":1,"variableValid":false,"variableValue":0},"directionFix":false,"image":{"characterIndex":0,"characterName":"","direction":2,"pattern":0,"tileId":0},"list":[{"code":0,"indent":0,"parameters":[]}],"moveFrequency":3,"moveRoute":{"list":[{"code":0,"parameters":[]}],"repeat":true,"skippable":false,"wait":false},"moveSpeed":3,"moveType":0,"priorityType":0,"stepAnime":false,"through":false,"trigger":0,"walkAnime":true}],"x":5,"y":5},
null
]
}