{
"autoplayBgm":false,"autoplayBgs":false,"battleback1Name":"DemonCastle1","battleback2Name":"DarkSpace","bgm":{"name":"","pan":0,"pitch":100,"volume":90},"bgs":{"name":"","pan":0,"pitch":100,"volume":90},"disableDashing":false,"displayName":"","encounterList":[],"encounterStep":30,"height":13,"note":"","parallaxLoopX":false,"parallaxLoopY":false,"parallaxName":"","parallaxShow":true,"parallaxSx":0,"parallaxSy":0,"scrollType":0,"specifyBattleback":true,"tilesetId":3,"width":17,
"data":[0,0,0,0,6242,6252,6252,6252,6252,6252,6252,6252,6249,0,0,0,0,0,0,6259,6257,6263,6610,6610,6610,6610,6610,6610,6610,6265,6257,6261,0,0,0,6259,6263,6610,6614,6616,6616,6616,6616,6616,6616,6616,6611,6610,6265,6261,0,0,6256,6614,6616,6620,4098,4084,4084,4084,4084,4084,4100,6617,6616,6611,6256,0,0,6256,6620,4098,4084,4065,4064,4064,4064,4064,4064,4066,4084,4100,6617,6256,0,0,6256,4098,4065,4064,4064,4064,4064,4064,4064,4064,4064,4064,4066,4100,6256,0,0,6256,4080,4064,4064,4064,4064,4064,4064,4064,4064,4064,4064,4064,4088,6256,0,0,6256,4080,4064,4064,4064,4064,4064,4064,4064,4064,4064,4064,4064,4088,6256,0,0,6256,4080,4064,4064,4064,4064,4064,4064,4064,4064,4064,4064,4064,4088,6256,0,0,6256,4080,4064,4064,4064,4064,4064,4064,4064,4064,4064,4064,4064,4088,6256,0,0,6256,4104,4072,4064,4064,4064,4064,4064,4064,4064,4064,4064,4068,4102,6256,0,0,6241,6260,4104,4092,4092,4092,4072,4064,4068,4092,4092,4092,4102,6258,6250,0,0,6240,6226,6244,6244,6244,6260,4080,4064,4088,6258,6244,6244,6244,6225,6248,0,0,0,0,0,0,0,0,0,0,0,0,0,0,0,0,0,0,0,0,0,0,0,0,0,0,0,0,0,0,0,0,0,0,0,0,0,0,0,0,0,0,0,0,0,0,0,0,0,0,0,0,0,0,0,0,0,0,0,0,0,0,0,0,0,0,0,0,0,0,0,0,0,0,0,0,0,0,0,0,0,0,0,0,0,0,0,0,0,0,0,0,0,0,0,0,0,0,0,0,0,0,0,0,0,0,0,0,0,0,0,0,0,0,0,0,0,0,0,0,0,0,0,4347,4337,4337,4349,0,0,0,4347,4337,4337,4349,0,0,0,0,0,0,0,0,0,0,0,0,0,0,0,0,0,0,0,0,0,0,0,0,0,0,0,0,0,0,0,0,0,0,0,0,0,0,0,0,0,0,0,0,0,0,0,0,0,0,0,0,0,0,0,0,0,0,0,0,0,0,0,0,0,0,0,0,0,0,0,0,0,0,0,0,0,0,0,0,0,0,0,0,0,0,0,0,0,0,0,0,0,0,0,0,0,0,0,0,0,0,0,0,0,0,0,0,0,0,0,0,0,0,0,0,0,0,0,0,0,0,0,0,0,0,0,0,0,0,0,0,0,0,0,0,0,0,0,0,0,0,0,0,0,0,0,0,0,0,0,0,0,0,0,0,0,0,0,0,0,0,0,0,0,0,0,0,0,0,0,0,0,0,0,0,0,0,0,0,0,0,0,0,0,0,0,0,0,0,0,0,0,0,0,0,0,0,0,0,0,0,0,0,0,0,0,0,0,0,0,0,0,0,0,0,0,0,0,0,0,0,0,0,0,0,0,0,0,0,0,0,0,0,0,0,0,0,0,0,0,0,0,0,0,0,0,0,0,0,0,0,0,0,0,0,0,0,0,0,0,0,0,0,0,0,0,0,0,0,0,0,0,0,0,0,0,0,0,0,0,0,0,0,0,0,0,0,0,0,0,0,0,0,0,0,0,0,0,0,0,0,0,0,0,0,0,0,0,0,0,0,0,0,0,0,0,0,0,0,0,0,0,0,0,0,0,0,0,0,0,0,0,0,0,0,0,0,0,0,0,0,0,0,0,0,0,0,0,0,0,424,0,0,0,0,0,0,0,0,0,0,0,0,0,0,427,0,432,0,427,0,0,0,0,0,0,0,0,0,0,0,0,435,0,0,0,435,0,0,0,0,0,0,0,0,0,0,0,0,0,0,0,0,0,0,0,0,0,0,0,0,0,480,481,481,481,482,0,0,0,480,481,481,481,482,0,0,0,0,0,0,0,0,0,0,0,0,0,0,0,0,0,0,0,0,0,0,0,105,105,105,0,0,0,105,105,105,0,0,0,0,0,0,0,0,0,0,0,0,0,0,0,0,0,0,0,0,0,0,0,0,0,105,105,105,0,0,0,105,105,105,0,0,0,0,0,0,0,0,0,0,0,0,0,0,0,0,0,0,0,0,0,0,0,0,0,0,0,0,0,0,0,0,0,0,0,0,0,0,0,0,0,0,0,0,0,0,0,0,0,0,0,0,0,0,0,0,0,0,0,0,0,0,0,0,0,0,0,0,0,0,0,0,0,0,0,0,0,0,0,0,0,0,0,0,0,0,0,0,0,0,0,0,0,0,5,0,0,0,0,0,0,0,0,0,0,0,0,0,0,5,0,0,0,0,0,0,0,0,0,0,0,0,0,0,0,5,0,0,0,0,0,0,0,0,0,0,0,0,0,0,0,0,5,0,0,0,0,0,0,0,0,0,0,0,0,0,0,0,0,5,0,0,0,0,0,0,0,0,0,0,0,0,0,0,0,0,5,0,0,0,0,0,0,0,0,0,0,0,0,0,0,0,0,5,0,0,0,0,0,0,0,0,0,0,0,0,0,0,0,0,5,0,0,0,0,0,0,0,0,0,0,0,0,0,0,0,0,0,0,0,0,0,0,0,0,0,0,0,0,0,0,0,0,0,0,0,0,0,0,0,0,0,0,0,0,0,0,0,0,0,0,0,0,0,0,0,0,0,0,0,0,0,0,0,0,0,0,0,0,0,0,0,0,0,0,0,0,0,0,0,0,0,0,0,0,0,0,0,0,0,0,0,0,0,0,0,0,0,0,0,0,0,0,0,0,0,0,0,0,0,0,0,0,0,0,0,0,0,0,0,0,0,0,0,0,0,0,0,0,0,0,0,0,0,0,0,0,0,0,0,0,0,0,0,0,0,0,0,0,0,0,0,0,0,0,0,0,0,0,0,0,0,0,0,0,0,0,0,0,0,0,0,0,0,0,0,0,0,0,0,0,0,0,0,0,0,0,0,0,0,0,0,0,0,0,0,0,0,0,0,0,0,0,0,0,0,0,0,0,0,0,0,0,0,0,0,0,0,0,0,0,0,0,0,0,0,0,0,0,0,0,0,0,0,0,0,0,0,0,0,0,0,0,0,0,0,0,0,0,0,0,0,0,0,0,0,0,0,0,0,0,0,0,0,0,0,0,0,0,0],
"events":[
null,
{"id":1,"name":"場所移動","note":"","pages":[{"conditions":{"actorId":1,"actorValid":false,"itemId":1,"itemValid":false,"selfSwitchCh":"A","selfSwitchValid":false,"switch1Id":1,"switch1Valid":false,"switch2Id":1,"switch2Valid":false,"variableId":1,"variableValid":false,"variableValue":0},"directionFix":false,"image":{"characterIndex":0,"characterName":"","direction":2,"pattern":0,"tileId":0},"list":[{"code":250,"indent":0,"parameters":[{"name":"Move1","pan":0,"pitch":100,"volume":90}]},{"code":201,"indent":0,"parameters":[0,134,18,4,0,0]},{"code":0,"indent":0,"parameters":[]}],"moveFrequency":3,"moveRoute":{"list":[{"code":0,"parameters":[]}],"repeat":true,"skippable":false,"wait":false},"moveSpeed":3,"moveType":0,"priorityType":0,"stepAnime":false,"through":false,"trigger":1,"walkAnime":true}],"x":9,"y":12},
{"id":2,"name":"場所移動","note":"","pages":[{"conditions":{"actorId":1,"actorValid":false,"itemId":1,"itemValid":false,"selfSwitchCh":"A","selfSwitchValid":false,"switch1Id":1,"switch1Valid":false,"switch2Id":1,"switch2Valid":false,"variableId":1,"variableValid":false,"variableValue":0},"directionFix":false,"image":{"characterIndex":0,"characterName":"","direction":2,"pattern":0,"tileId":0},"list":[{"code":250,"indent":0,"parameters":[{"name":"Move1","pan":0,"pitch":100,"volume":90}]},{"code":201,"indent":0,"parameters":[0,134,18,4,0,0]},{"code":0,"indent":0,"parameters":[]}],"moveFrequency":3,"moveRoute":{"list":[{"code":0,"parameters":[]}],"repeat":true,"skippable":false,"wait":false},"moveSpeed":3,"moveType":0,"priorityType":0,"stepAnime":false,"through":false,"trigger":1,"walkAnime":true}],"x":8,"y":12},
{"id":3,"name":"場所移動","note":"","pages":[{"conditions":{"actorId":1,"actorValid":false,"itemId":1,"itemValid":false,"selfSwitchCh":"A","selfSwitchValid":false,"switch1Id":1,"switch1Valid":false,"switch2Id":1,"switch2Valid":false,"variableId":1,"variableValid":false,"variableValue":0},"directionFix":false,"image":{"characterIndex":0,"characterName":"","direction":2,"pattern":0,"tileId":0},"list":[{"code":250,"indent":0,"parameters":[{"name":"Move1","pan":0,"pitch":100,"volume":90}]},{"code":201,"indent":0,"parameters":[0,134,18,4,0,0]},{"code":0,"indent":0,"parameters":[]}],"moveFrequency":3,"moveRoute":{"list":[{"code":0,"parameters":[]}],"repeat":true,"skippable":false,"wait":false},"moveSpeed":3,"moveType":0,"priorityType":0,"stepAnime":false,"through":false,"trigger":1,"walkAnime":true}],"x":7,"y":12},
{"id":4,"name":"ナイトメア","note":"","pages":[{"conditions":{"actorId":1,"actorValid":false,"itemId":1,"itemValid":false,"selfSwitchCh":"A","selfSwitchValid":false,"switch1Id":1,"switch1Valid":false,"switch2Id":1,"switch2Valid":false,"variableId":1,"variableValid":false,"variableValue":0},"directionFix":false,"image":{"tileId":0,"characterName":"People1","direction":2,"pattern":1,"characterIndex":1},"list":[{"code":0,"indent":0,"parameters":[]}],"moveFrequency":3,"moveRoute":{"list":[{"code":0,"parameters":[]}],"repeat":true,"skippable":false,"wait":false},"moveSpeed":3,"moveType":0,"priorityType":1,"stepAnime":false,"through":false,"trigger":0,"walkAnime":true},{"conditions":{"actorId":1,"actorValid":false,"itemId":1,"itemValid":false,"selfSwitchCh":"A","selfSwitchValid":false,"switch1Id":280,"switch1Valid":true,"switch2Id":1,"switch2Valid":false,"variableId":1,"variableValid":false,"variableValue":0},"directionFix":false,"image":{"characterIndex":0,"characterName":"","direction":2,"pattern":0,"tileId":0},"list":[{"code":0,"indent":0,"parameters":[]}],"moveFrequency":3,"moveRoute":{"list":[{"code":0,"parameters":[]}],"repeat":true,"skippable":false,"wait":false},"moveSpeed":3,"moveType":0,"priorityType":0,"stepAnime":false,"through":false,"trigger":0,"walkAnime":true}],"x":8,"y":5},
{"id":5,"name":"[AUTOev] ナイトメア戦2","note":"","pages":[{"conditions":{"actorId":1,"actorValid":false,"itemId":1,"itemValid":false,"selfSwitchCh":"A","selfSwitchValid":false,"switch1Id":1,"switch1Valid":false,"switch2Id":1,"switch2Valid":false,"variableId":1,"variableValid":false,"variableValue":0},"directionFix":false,"image":{"characterIndex":0,"characterName":"","direction":2,"pattern":0,"tileId":0},"list":[{"code":205,"indent":0,"parameters":[-1,{"list":[{"code":4,"indent":null},{"code":4,"indent":null},{"code":0}],"repeat":false,"skippable":false,"wait":true}]},{"code":505,"indent":0,"parameters":[{"code":4,"indent":null}]},{"code":505,"indent":0,"parameters":[{"code":4,"indent":null}]},{"code":111,"indent":0,"parameters":[0,54,0]},{"code":101,"indent":1,"parameters":["",3,0,2]},{"code":401,"indent":1,"parameters":["　???"]},{"code":401,"indent":1,"parameters":["「また遊びたくなったの?"]},{"code":401,"indent":1,"parameters":["　いいよ, 遊んであげる……」"]},{"code":0,"indent":1,"parameters":[]},{"code":411,"indent":0,"parameters":[]},{"code":250,"indent":1,"parameters":[{"name":"Decision2","volume":90,"pitch":100,"pan":0}]},{"code":213,"indent":1,"parameters":[-1,1,true]},{"code":101,"indent":1,"parameters":["FaceH1",3,0,2]},{"code":401,"indent":1,"parameters":["「……出たわね」"]},{"code":101,"indent":1,"parameters":["",3,0,2]},{"code":401,"indent":1,"parameters":["　???"]},{"code":401,"indent":1,"parameters":["「くすくす……どれだけ逃げても逃げられない. "]},{"code":401,"indent":1,"parameters":["　真実の鏡が映す姿からは……」"]},{"code":0,"indent":1,"parameters":[]},{"code":412,"indent":0,"parameters":[]},{"code":250,"indent":0,"parameters":[{"name":"Monster9","volume":90,"pitch":100,"pan":0}]},{"code":224,"indent":0,"parameters":[[221,68,255,255],60,true]},{"code":212,"indent":0,"parameters":[4,101,false]},{"code":230,"indent":0,"parameters":[60]},{"code":250,"indent":0,"parameters":[{"name":"Darkness5","volume":90,"pitch":100,"pan":0}]},{"code":224,"indent":0,"parameters":[[153,34,153,255],60,false]},{"code":205,"indent":0,"parameters":[4,{"list":[{"code":17,"indent":null},{"code":41,"parameters":["$BigMonster1",0],"indent":null},{"code":0}],"repeat":false,"skippable":false,"wait":true}]},{"code":505,"indent":0,"parameters":[{"code":17,"indent":null}]},{"code":505,"indent":0,"parameters":[{"code":41,"parameters":["$BigMonster1",0],"indent":null}]},{"code":230,"indent":0,"parameters":[50]},{"code":212,"indent":0,"parameters":[6,136,false]},{"code":230,"indent":0,"parameters":[15]},{"code":212,"indent":0,"parameters":[7,136,false]},{"code":230,"indent":0,"parameters":[15]},{"code":212,"indent":0,"parameters":[8,136,false]},{"code":230,"indent":0,"parameters":[15]},{"code":212,"indent":0,"parameters":[9,136,false]},{"code":230,"indent":0,"parameters":[15]},{"code":250,"indent":0,"parameters":[{"name":"Explosion3","volume":90,"pitch":100,"pan":0}]},{"code":224,"indent":0,"parameters":[[255,255,255,170],60,false]},{"code":225,"indent":0,"parameters":[6,7,80,true]},{"code":133,"indent":0,"parameters":[{"name":"Victory1","volume":85,"pitch":110,"pan":0}]},{"code":132,"indent":0,"parameters":[{"name":"SC_battle8","volume":40,"pitch":100,"pan":0}]},{"code":111,"indent":0,"parameters":[0,218,1]},{"code":301,"indent":1,"parameters":[0,68,false,true]},{"code":601,"indent":1,"parameters":[]},{"code":117,"indent":2,"parameters":[6]},{"code":250,"indent":2,"parameters":[{"name":"Collapse1","volume":90,"pitch":130,"pan":0}]},{"code":224,"indent":2,"parameters":[[255,255,255,221],30,false]},{"code":205,"indent":2,"parameters":[4,{"list":[{"code":37,"indent":null},{"code":39,"indent":null},{"code":0}],"repeat":false,"skippable":false,"wait":true}]},{"code":505,"indent":2,"parameters":[{"code":37,"indent":null}]},{"code":505,"indent":2,"parameters":[{"code":39,"indent":null}]},{"code":230,"indent":2,"parameters":[60]},{"code":101,"indent":2,"parameters":["FaceH2",7,0,2]},{"code":401,"indent":2,"parameters":["「はぁ……, はぁっ……か, 勝った――?」"]},{"code":101,"indent":2,"parameters":["FaceM1",1,0,2]},{"code":401,"indent":2,"parameters":["\\c[4]「やりました. "]},{"code":401,"indent":2,"parameters":["　Hasumi, 大丈夫ですか?」"]},{"code":205,"indent":2,"parameters":[-1,{"list":[{"code":29,"parameters":[2],"indent":null},{"code":13,"indent":null},{"code":29,"parameters":[4],"indent":null},{"code":0}],"repeat":false,"skippable":false,"wait":true}]},{"code":505,"indent":2,"parameters":[{"code":29,"parameters":[2],"indent":null}]},{"code":505,"indent":2,"parameters":[{"code":13,"indent":null}]},{"code":505,"indent":2,"parameters":[{"code":29,"parameters":[4],"indent":null}]},{"code":213,"indent":2,"parameters":[-1,7,true]},{"code":101,"indent":2,"parameters":["FaceH3",4,0,2]},{"code":401,"indent":2,"parameters":["「なんとかね……"]},{"code":401,"indent":2,"parameters":["　結局なんだったのかしら, 今の敵は――」"]},{"code":101,"indent":2,"parameters":["FaceM1",1,0,2]},{"code":401,"indent":2,"parameters":["\\c[4]「もともとこのゲームには存在しない敵のよう"]},{"code":401,"indent":2,"parameters":["　です. 星外生物がRAGの筐体の中に入り込"]},{"code":401,"indent":2,"parameters":["　んでいたのかもしれません」"]},{"code":101,"indent":2,"parameters":["FaceH1",1,0,2]},{"code":401,"indent":2,"parameters":["「なるほど?"]},{"code":401,"indent":2,"parameters":["　通りでいやーな攻撃ばかりしてくるわけね」"]},{"code":213,"indent":2,"parameters":[-1,8,true]},{"code":241,"indent":2,"parameters":[{"name":"afterBattle","volume":20,"pitch":100,"pan":0}]},{"code":101,"indent":2,"parameters":["FaceH2",3,0,2]},{"code":401,"indent":2,"parameters":["「そうだ……\\c[2]鍵\\c[0]は?!」"]},{"code":101,"indent":2,"parameters":["FaceM1",1,0,2]},{"code":401,"indent":2,"parameters":["\\c[4]「反応はこの部屋の中です. "]},{"code":401,"indent":2,"parameters":["　どこかにあるはずですが……」"]},{"code":250,"indent":2,"parameters":[{"name":"Decision2","volume":90,"pitch":100,"pan":0}]},{"code":213,"indent":2,"parameters":[-1,1,true]},{"code":205,"indent":2,"parameters":[-1,{"list":[{"code":4,"indent":null},{"code":4,"indent":null},{"code":4,"indent":null},{"code":4,"indent":null},{"code":4,"indent":null},{"code":4,"indent":null},{"code":0}],"repeat":false,"skippable":false,"wait":true}]},{"code":505,"indent":2,"parameters":[{"code":4,"indent":null}]},{"code":505,"indent":2,"parameters":[{"code":4,"indent":null}]},{"code":505,"indent":2,"parameters":[{"code":4,"indent":null}]},{"code":505,"indent":2,"parameters":[{"code":4,"indent":null}]},{"code":505,"indent":2,"parameters":[{"code":4,"indent":null}]},{"code":505,"indent":2,"parameters":[{"code":4,"indent":null}]},{"code":101,"indent":2,"parameters":["FaceH1",0,0,2]},{"code":401,"indent":2,"parameters":["「さすがね, これで間違いないかしら」"]},{"code":250,"indent":2,"parameters":[{"name":"Chime2","volume":90,"pitch":100,"pan":0}]},{"code":126,"indent":2,"parameters":[70,0,0,1]},{"code":101,"indent":2,"parameters":["",0,0,2]},{"code":401,"indent":2,"parameters":["Found a \\c[2]Relay base gate key\\c[0] !"]},{"code":101,"indent":2,"parameters":["FaceH1",3,0,2]},{"code":401,"indent":2,"parameters":["「………………」"]},{"code":101,"indent":2,"parameters":["FaceM1",1,0,2]},{"code":401,"indent":2,"parameters":["\\c[4]「Hasumi, 何か気がかりなことでも?」"]},{"code":101,"indent":2,"parameters":["FaceH2",3,0,2]},{"code":401,"indent":2,"parameters":["「ううん, そうじゃなくて. "]},{"code":401,"indent":2,"parameters":["　なんか今日はMarkoにいっぱいお世話になっ"]},{"code":401,"indent":2,"parameters":["　ちゃったし……」"]},{"code":101,"indent":2,"parameters":["FaceM1",1,0,2]},{"code":401,"indent":2,"parameters":["\\c[4]「全然気にすることはございません. "]},{"code":401,"indent":2,"parameters":["　疲れている時は気張らず早めに休むのが"]},{"code":401,"indent":2,"parameters":["　一番です」"]},{"code":101,"indent":2,"parameters":["FaceH1",0,0,2]},{"code":401,"indent":2,"parameters":["「……そうね. "]},{"code":401,"indent":2,"parameters":["　Markoがそう言うなら今日はこの辺で"]},{"code":401,"indent":2,"parameters":["　切り上げようかしら」"]},{"code":101,"indent":2,"parameters":["FaceM1",1,0,2]},{"code":401,"indent":2,"parameters":["\\c[4]「今日の食堂の献立はブリ大根だそうです」"]},{"code":101,"indent":2,"parameters":["FaceH2",3,0,2]},{"code":401,"indent":2,"parameters":["「どうして兎月さんは私がちょうど食べたいと"]},{"code":401,"indent":2,"parameters":["　思ってた献立が分かるのかしら……」"]},{"code":242,"indent":2,"parameters":[5]},{"code":230,"indent":2,"parameters":[30]},{"code":205,"indent":2,"parameters":[-1,{"list":[{"code":1,"indent":null},{"code":1,"indent":null},{"code":1,"indent":null},{"code":1,"indent":null},{"code":0}],"repeat":false,"skippable":true,"wait":false}]},{"code":505,"indent":2,"parameters":[{"code":1,"indent":null}]},{"code":505,"indent":2,"parameters":[{"code":1,"indent":null}]},{"code":505,"indent":2,"parameters":[{"code":1,"indent":null}]},{"code":505,"indent":2,"parameters":[{"code":1,"indent":null}]},{"code":230,"indent":2,"parameters":[30]},{"code":221,"indent":2,"parameters":[]},{"code":230,"indent":2,"parameters":[120]},{"code":101,"indent":2,"parameters":["",0,0,2]},{"code":401,"indent":2,"parameters":[""]},{"code":401,"indent":2,"parameters":["　　　　　　　2100年12月29日 (水)PM 10時12分"]},{"code":401,"indent":2,"parameters":["　　　　　　　　　Ground Defence Force, Gotemba East Base"]},{"code":201,"indent":2,"parameters":[0,5,16,2,2,0]},{"code":121,"indent":2,"parameters":[258,258,0]},{"code":121,"indent":2,"parameters":[276,276,0]},{"code":121,"indent":2,"parameters":[280,280,0]},{"code":123,"indent":2,"parameters":["A",0]},{"code":0,"indent":2,"parameters":[]},{"code":603,"indent":1,"parameters":[]},{"code":108,"indent":2,"parameters":["▼△▼　　敗北時に変身中か否かで分岐　　▼△▼"]},{"code":111,"indent":2,"parameters":[0,3,0]},{"code":117,"indent":3,"parameters":[6]},{"code":243,"indent":3,"parameters":[]},{"code":242,"indent":3,"parameters":[1]},{"code":117,"indent":3,"parameters":[170]},{"code":353,"indent":3,"parameters":[]},{"code":0,"indent":3,"parameters":[]},{"code":411,"indent":2,"parameters":[]},{"code":117,"indent":3,"parameters":[6]},{"code":250,"indent":3,"parameters":[{"name":"Monster2","volume":90,"pitch":100,"pan":0}]},{"code":212,"indent":3,"parameters":[-1,136,false]},{"code":205,"indent":3,"parameters":[-1,{"list":[{"code":29,"parameters":[5],"indent":null},{"code":13,"indent":null},{"code":29,"parameters":[4],"indent":null},{"code":0}],"repeat":false,"skippable":false,"wait":true}]},{"code":505,"indent":3,"parameters":[{"code":29,"parameters":[5],"indent":null}]},{"code":505,"indent":3,"parameters":[{"code":13,"indent":null}]},{"code":505,"indent":3,"parameters":[{"code":29,"parameters":[4],"indent":null}]},{"code":230,"indent":3,"parameters":[30]},{"code":221,"indent":3,"parameters":[]},{"code":201,"indent":3,"parameters":[0,134,18,5,8,0]},{"code":223,"indent":3,"parameters":[[0,-17,-17,0],1,false]},{"code":230,"indent":3,"parameters":[60]},{"code":222,"indent":3,"parameters":[]},{"code":212,"indent":3,"parameters":[-1,45,false]},{"code":0,"indent":3,"parameters":[]},{"code":412,"indent":2,"parameters":[]},{"code":0,"indent":2,"parameters":[]},{"code":604,"indent":1,"parameters":[]},{"code":0,"indent":1,"parameters":[]},{"code":411,"indent":0,"parameters":[]},{"code":301,"indent":1,"parameters":[0,236,false,true]},{"code":601,"indent":1,"parameters":[]},{"code":117,"indent":2,"parameters":[6]},{"code":250,"indent":2,"parameters":[{"name":"Collapse1","volume":90,"pitch":130,"pan":0}]},{"code":224,"indent":2,"parameters":[[255,255,255,221],30,false]},{"code":205,"indent":2,"parameters":[4,{"list":[{"code":37,"indent":null},{"code":39,"indent":null},{"code":0}],"repeat":false,"skippable":false,"wait":true}]},{"code":505,"indent":2,"parameters":[{"code":37,"indent":null}]},{"code":505,"indent":2,"parameters":[{"code":39,"indent":null}]},{"code":230,"indent":2,"parameters":[60]},{"code":101,"indent":2,"parameters":["FaceH2",7,0,2]},{"code":401,"indent":2,"parameters":["「はぁ……, はぁっ……か, 勝った――?」"]},{"code":101,"indent":2,"parameters":["FaceM1",1,0,2]},{"code":401,"indent":2,"parameters":["\\c[4]「やりました. "]},{"code":401,"indent":2,"parameters":["　Hasumi, 大丈夫ですか?」"]},{"code":205,"indent":2,"parameters":[-1,{"list":[{"code":29,"parameters":[2],"indent":null},{"code":13,"indent":null},{"code":29,"parameters":[4],"indent":null},{"code":0}],"repeat":false,"skippable":false,"wait":true}]},{"code":505,"indent":2,"parameters":[{"code":29,"parameters":[2],"indent":null}]},{"code":505,"indent":2,"parameters":[{"code":13,"indent":null}]},{"code":505,"indent":2,"parameters":[{"code":29,"parameters":[4],"indent":null}]},{"code":213,"indent":2,"parameters":[-1,7,true]},{"code":101,"indent":2,"parameters":["FaceH3",4,0,2]},{"code":401,"indent":2,"parameters":["「なんとかね……"]},{"code":401,"indent":2,"parameters":["　結局なんだったのかしら, 今の敵は――」"]},{"code":101,"indent":2,"parameters":["FaceM1",1,0,2]},{"code":401,"indent":2,"parameters":["\\c[4]「もともとこのゲームには存在しない敵のよう"]},{"code":401,"indent":2,"parameters":["　です. 星外生物がRAGの筐体の中に入り込"]},{"code":401,"indent":2,"parameters":["　んでいたのかもしれません」"]},{"code":101,"indent":2,"parameters":["FaceH1",1,0,2]},{"code":401,"indent":2,"parameters":["「なるほど?"]},{"code":401,"indent":2,"parameters":["　通りでいやーな攻撃ばかりしてくるわけね」"]},{"code":213,"indent":2,"parameters":[-1,8,true]},{"code":241,"indent":2,"parameters":[{"name":"afterBattle","volume":20,"pitch":100,"pan":0}]},{"code":101,"indent":2,"parameters":["FaceH2",3,0,2]},{"code":401,"indent":2,"parameters":["「そうだ……\\c[2]鍵\\c[0]は?!」"]},{"code":101,"indent":2,"parameters":["FaceM1",1,0,2]},{"code":401,"indent":2,"parameters":["\\c[4]「反応はこの部屋の中です. "]},{"code":401,"indent":2,"parameters":["　どこかにあるはずですが……」"]},{"code":250,"indent":2,"parameters":[{"name":"Decision2","volume":90,"pitch":100,"pan":0}]},{"code":213,"indent":2,"parameters":[-1,1,true]},{"code":205,"indent":2,"parameters":[-1,{"list":[{"code":4,"indent":null},{"code":4,"indent":null},{"code":4,"indent":null},{"code":4,"indent":null},{"code":4,"indent":null},{"code":4,"indent":null},{"code":0}],"repeat":false,"skippable":false,"wait":true}]},{"code":505,"indent":2,"parameters":[{"code":4,"indent":null}]},{"code":505,"indent":2,"parameters":[{"code":4,"indent":null}]},{"code":505,"indent":2,"parameters":[{"code":4,"indent":null}]},{"code":505,"indent":2,"parameters":[{"code":4,"indent":null}]},{"code":505,"indent":2,"parameters":[{"code":4,"indent":null}]},{"code":505,"indent":2,"parameters":[{"code":4,"indent":null}]},{"code":101,"indent":2,"parameters":["FaceH1",0,0,2]},{"code":401,"indent":2,"parameters":["「さすがね, これで間違いないかしら」"]},{"code":250,"indent":2,"parameters":[{"name":"Chime2","volume":90,"pitch":100,"pan":0}]},{"code":126,"indent":2,"parameters":[70,0,0,1]},{"code":101,"indent":2,"parameters":["",0,0,2]},{"code":401,"indent":2,"parameters":["Found a \\c[2]Relay base gate key\\c[0] !"]},{"code":101,"indent":2,"parameters":["FaceH1",3,0,2]},{"code":401,"indent":2,"parameters":["「………………」"]},{"code":101,"indent":2,"parameters":["FaceM1",1,0,2]},{"code":401,"indent":2,"parameters":["\\c[4]「Hasumi, 何か気がかりなことでも?」"]},{"code":101,"indent":2,"parameters":["FaceH2",3,0,2]},{"code":401,"indent":2,"parameters":["「ううん, そうじゃなくて. "]},{"code":401,"indent":2,"parameters":["　なんか今日はMarkoにいっぱいお世話になっ"]},{"code":401,"indent":2,"parameters":["　ちゃったし……」"]},{"code":101,"indent":2,"parameters":["FaceM1",1,0,2]},{"code":401,"indent":2,"parameters":["\\c[4]「全然気にすることはございません. "]},{"code":401,"indent":2,"parameters":["　疲れている時は気張らず早めに休むのが"]},{"code":401,"indent":2,"parameters":["　一番です」"]},{"code":101,"indent":2,"parameters":["FaceH1",0,0,2]},{"code":401,"indent":2,"parameters":["「……そうね. "]},{"code":401,"indent":2,"parameters":["　Markoがそう言うなら今日はこの辺で"]},{"code":401,"indent":2,"parameters":["　切り上げようかしら」"]},{"code":101,"indent":2,"parameters":["FaceM1",1,0,2]},{"code":401,"indent":2,"parameters":["\\c[4]「今日の食堂の献立はブリ大根だそうです」"]},{"code":101,"indent":2,"parameters":["FaceH2",3,0,2]},{"code":401,"indent":2,"parameters":["「どうして兎月さんは私がちょうど食べたいと"]},{"code":401,"indent":2,"parameters":["　思ってた献立が分かるのかしら……」"]},{"code":242,"indent":2,"parameters":[5]},{"code":230,"indent":2,"parameters":[30]},{"code":205,"indent":2,"parameters":[-1,{"list":[{"code":1,"indent":null},{"code":1,"indent":null},{"code":1,"indent":null},{"code":1,"indent":null},{"code":0}],"repeat":false,"skippable":true,"wait":false}]},{"code":505,"indent":2,"parameters":[{"code":1,"indent":null}]},{"code":505,"indent":2,"parameters":[{"code":1,"indent":null}]},{"code":505,"indent":2,"parameters":[{"code":1,"indent":null}]},{"code":505,"indent":2,"parameters":[{"code":1,"indent":null}]},{"code":230,"indent":2,"parameters":[30]},{"code":221,"indent":2,"parameters":[]},{"code":230,"indent":2,"parameters":[120]},{"code":101,"indent":2,"parameters":["",0,0,2]},{"code":401,"indent":2,"parameters":[""]},{"code":401,"indent":2,"parameters":["　　　　　　　2100年12月29日 (水)PM 10時12分"]},{"code":401,"indent":2,"parameters":["　　　　　　　　　Ground Defence Force, Gotemba East Base"]},{"code":201,"indent":2,"parameters":[0,5,16,2,2,0]},{"code":121,"indent":2,"parameters":[258,258,0]},{"code":121,"indent":2,"parameters":[276,276,0]},{"code":121,"indent":2,"parameters":[280,280,0]},{"code":123,"indent":2,"parameters":["A",0]},{"code":0,"indent":2,"parameters":[]},{"code":603,"indent":1,"parameters":[]},{"code":108,"indent":2,"parameters":["▼△▼　　敗北時に変身中か否かで分岐　　▼△▼"]},{"code":111,"indent":2,"parameters":[0,3,0]},{"code":117,"indent":3,"parameters":[6]},{"code":243,"indent":3,"parameters":[]},{"code":242,"indent":3,"parameters":[1]},{"code":117,"indent":3,"parameters":[170]},{"code":353,"indent":3,"parameters":[]},{"code":0,"indent":3,"parameters":[]},{"code":411,"indent":2,"parameters":[]},{"code":117,"indent":3,"parameters":[6]},{"code":250,"indent":3,"parameters":[{"name":"Monster2","volume":90,"pitch":100,"pan":0}]},{"code":212,"indent":3,"parameters":[-1,136,false]},{"code":205,"indent":3,"parameters":[-1,{"list":[{"code":29,"parameters":[5],"indent":null},{"code":13,"indent":null},{"code":29,"parameters":[4],"indent":null},{"code":0}],"repeat":false,"skippable":false,"wait":true}]},{"code":505,"indent":3,"parameters":[{"code":29,"parameters":[5],"indent":null}]},{"code":505,"indent":3,"parameters":[{"code":13,"indent":null}]},{"code":505,"indent":3,"parameters":[{"code":29,"parameters":[4],"indent":null}]},{"code":230,"indent":3,"parameters":[30]},{"code":221,"indent":3,"parameters":[]},{"code":201,"indent":3,"parameters":[0,134,18,5,8,0]},{"code":223,"indent":3,"parameters":[[0,-17,-17,0],1,false]},{"code":230,"indent":3,"parameters":[60]},{"code":222,"indent":3,"parameters":[]},{"code":212,"indent":3,"parameters":[-1,45,false]},{"code":0,"indent":3,"parameters":[]},{"code":412,"indent":2,"parameters":[]},{"code":0,"indent":2,"parameters":[]},{"code":604,"indent":1,"parameters":[]},{"code":0,"indent":1,"parameters":[]},{"code":412,"indent":0,"parameters":[]},{"code":132,"indent":0,"parameters":[{"name":"SC_battle2","volume":40,"pitch":100,"pan":0}]},{"code":133,"indent":0,"parameters":[{"name":"Victory2","volume":85,"pitch":110,"pan":0}]},{"code":214,"indent":0,"parameters":[]},{"code":121,"indent":0,"parameters":[54,54,0]},{"code":0,"indent":0,"parameters":[]}],"moveFrequency":3,"moveRoute":{"list":[{"code":0,"parameters":[]}],"repeat":true,"skippable":false,"wait":false},"moveSpeed":3,"moveType":0,"priorityType":0,"stepAnime":false,"through":false,"trigger":3,"walkAnime":true},{"conditions":{"actorId":1,"actorValid":false,"itemId":1,"itemValid":false,"selfSwitchCh":"A","selfSwitchValid":true,"switch1Id":1,"switch1Valid":false,"switch2Id":1,"switch2Valid":false,"variableId":1,"variableValid":false,"variableValue":0},"directionFix":false,"image":{"characterIndex":0,"characterName":"","direction":2,"pattern":0,"tileId":0},"list":[{"code":0,"indent":0,"parameters":[]}],"moveFrequency":3,"moveRoute":{"list":[{"code":0,"parameters":[]}],"repeat":true,"skippable":false,"wait":false},"moveSpeed":3,"moveType":0,"priorityType":0,"stepAnime":false,"through":false,"trigger":0,"walkAnime":true}],"x":0,"y":0},
{"id":6,"name":"雷着弾点1","note":"","pages":[{"conditions":{"actorId":1,"actorValid":false,"itemId":1,"itemValid":false,"selfSwitchCh":"A","selfSwitchValid":false,"switch1Id":1,"switch1Valid":false,"switch2Id":1,"switch2Valid":false,"variableId":1,"variableValid":false,"variableValue":0},"directionFix":false,"image":{"characterIndex":0,"characterName":"","direction":2,"pattern":0,"tileId":0},"list":[{"code":0,"indent":0,"parameters":[]}],"moveFrequency":3,"moveRoute":{"list":[{"code":0,"parameters":[]}],"repeat":true,"skippable":false,"wait":false},"moveSpeed":3,"moveType":0,"priorityType":0,"stepAnime":false,"through":false,"trigger":0,"walkAnime":true}],"x":3,"y":9},
{"id":7,"name":"雷着弾点2","note":"","pages":[{"conditions":{"actorId":1,"actorValid":false,"itemId":1,"itemValid":false,"selfSwitchCh":"A","selfSwitchValid":false,"switch1Id":1,"switch1Valid":false,"switch2Id":1,"switch2Valid":false,"variableId":1,"variableValid":false,"variableValue":0},"directionFix":false,"image":{"characterIndex":0,"characterName":"","direction":2,"pattern":0,"tileId":0},"list":[{"code":0,"indent":0,"parameters":[]}],"moveFrequency":3,"moveRoute":{"list":[{"code":0,"parameters":[]}],"repeat":true,"skippable":false,"wait":false},"moveSpeed":3,"moveType":0,"priorityType":0,"stepAnime":false,"through":false,"trigger":0,"walkAnime":true}],"x":5,"y":6},
{"id":8,"name":"雷着弾点3","note":"","pages":[{"conditions":{"actorId":1,"actorValid":false,"itemId":1,"itemValid":false,"selfSwitchCh":"A","selfSwitchValid":false,"switch1Id":1,"switch1Valid":false,"switch2Id":1,"switch2Valid":false,"variableId":1,"variableValid":false,"variableValue":0},"directionFix":false,"image":{"characterIndex":0,"characterName":"","direction":2,"pattern":0,"tileId":0},"list":[{"code":0,"indent":0,"parameters":[]}],"moveFrequency":3,"moveRoute":{"list":[{"code":0,"parameters":[]}],"repeat":true,"skippable":false,"wait":false},"moveSpeed":3,"moveType":0,"priorityType":0,"stepAnime":false,"through":false,"trigger":0,"walkAnime":true}],"x":9,"y":7},
{"id":9,"name":"雷着弾点4","note":"","pages":[{"conditions":{"actorId":1,"actorValid":false,"itemId":1,"itemValid":false,"selfSwitchCh":"A","selfSwitchValid":false,"switch1Id":1,"switch1Valid":false,"switch2Id":1,"switch2Valid":false,"variableId":1,"variableValid":false,"variableValue":0},"directionFix":false,"image":{"characterIndex":0,"characterName":"","direction":2,"pattern":0,"tileId":0},"list":[{"code":0,"indent":0,"parameters":[]}],"moveFrequency":3,"moveRoute":{"list":[{"code":0,"parameters":[]}],"repeat":true,"skippable":false,"wait":false},"moveSpeed":3,"moveType":0,"priorityType":0,"stepAnime":false,"through":false,"trigger":0,"walkAnime":true}],"x":12,"y":5}
]
}