{
  "autoplayBgm": false,
  "autoplayBgs": false,
  "battleback1Name": "",
  "battleback2Name": "",
  "bgm": {
    "name": "",
    "pan": 0,
    "pitch": 100,
    "volume": 90
  },
  "bgs": {
    "name": "",
    "pan": 0,
    "pitch": 100,
    "volume": 90
  },
  "disableDashing": false,
  "displayName": "",
  "encounterList": [],
  "encounterStep": 30,
  "height": 13,
  "note": "",
  "parallaxLoopX": false,
  "parallaxLoopY": false,
  "parallaxName": "",
  "parallaxShow": true,
  "parallaxSx": 0,
  "parallaxSy": 0,
  "scrollType": 0,
  "specifyBattleback": false,
  "tilesetId": 4,
  "width": 17,
  "data": [
    1536,
    1536,
    1536,
    1536,
    1536,
    1536,
    1536,
    1536,
    1536,
    1536,
    1536,
    1536,
    1536,
    1536,
    1536,
    1536,
    1536,
    1536,
    1536,
    1536,
    1536,
    1536,
    1536,
    1536,
    1536,
    1536,
    1536,
    1536,
    1536,
    1536,
    1536,
    1536,
    1536,
    1536,
    1536,
    1536,
    1536,
    1536,
    1536,
    1536,
    1536,
    1536,
    1536,
    1536,
    1536,
    1536,
    1536,
    1536,
    1536,
    1536,
    1536,
    1536,
    1536,
    1536,
    1536,
    1536,
    1536,
    1536,
    1536,
    1536,
    1536,
    1536,
    1536,
    1536,
    1536,
    1536,
    1536,
    1536,
    1536,
    1536,
    1536,
    1536,
    1536,
    1536,
    1536,
    1536,
    1536,
    1536,
    1536,
    1536,
    1536,
    1536,
    1536,
    1536,
    1536,
    1536,
    1536,
    1536,
    1536,
    1536,
    1536,
    1536,
    1536,
    1536,
    1536,
    1536,
    1536,
    1536,
    1536,
    1536,
    1536,
    1536,
    1536,
    1536,
    1536,
    1536,
    1536,
    1536,
    1536,
    1536,
    1536,
    1536,
    1536,
    1536,
    1536,
    1536,
    1536,
    1536,
    1536,
    1536,
    1536,
    1536,
    1536,
    1536,
    1536,
    1536,
    1536,
    1536,
    1536,
    1536,
    1536,
    1536,
    1536,
    1536,
    1536,
    1536,
    1536,
    1536,
    1536,
    1536,
    1536,
    1536,
    1536,
    1536,
    1536,
    1536,
    1536,
    1536,
    1536,
    1536,
    1536,
    1536,
    1536,
    1536,
    1536,
    1536,
    1536,
    1536,
    1536,
    1536,
    1536,
    1536,
    1536,
    1536,
    1536,
    1536,
    1536,
    1536,
    1536,
    1536,
    1536,
    1536,
    1536,
    1536,
    1536,
    1536,
    1536,
    1536,
    1536,
    1536,
    1536,
    1536,
    1536,
    1536,
    1536,
    1536,
    1536,
    1536,
    1536,
    1536,
    1536,
    1536,
    1536,
    1536,
    1536,
    1536,
    1536,
    1536,
    1536,
    1536,
    1536,
    1536,
    1536,
    1536,
    1536,
    1536,
    1536,
    1536,
    1536,
    1536,
    1536,
    1536,
    1536,
    1536,
    1536,
    1536,
    1536,
    1536,
    1536,
    1536,
    1536,
    0,
    0,
    0,
    0,
    0,
    0,
    0,
    0,
    0,
    0,
    0,
    0,
    0,
    0,
    0,
    0,
    0,
    0,
    0,
    0,
    0,
    0,
    0,
    0,
    0,
    0,
    0,
    0,
    0,
    0,
    0,
    0,
    0,
    0,
    0,
    0,
    0,
    0,
    0,
    0,
    0,
    0,
    0,
    0,
    0,
    0,
    0,
    0,
    0,
    0,
    0,
    0,
    0,
    0,
    0,
    0,
    0,
    0,
    0,
    0,
    0,
    0,
    0,
    0,
    0,
    0,
    0,
    0,
    0,
    0,
    0,
    0,
    0,
    0,
    0,
    0,
    0,
    0,
    0,
    0,
    0,
    0,
    0,
    0,
    0,
    0,
    0,
    0,
    0,
    0,
    0,
    0,
    0,
    0,
    0,
    0,
    0,
    0,
    0,
    0,
    0,
    0,
    0,
    0,
    0,
    0,
    0,
    0,
    0,
    0,
    0,
    0,
    0,
    0,
    0,
    0,
    0,
    0,
    0,
    0,
    0,
    0,
    0,
    0,
    0,
    0,
    0,
    0,
    0,
    0,
    0,
    0,
    0,
    0,
    0,
    0,
    0,
    0,
    0,
    0,
    0,
    0,
    0,
    0,
    0,
    0,
    0,
    0,
    0,
    0,
    0,
    0,
    0,
    0,
    0,
    0,
    0,
    0,
    0,
    0,
    0,
    0,
    0,
    0,
    0,
    0,
    0,
    0,
    0,
    0,
    0,
    0,
    0,
    0,
    0,
    0,
    0,
    0,
    0,
    0,
    0,
    0,
    0,
    0,
    0,
    0,
    0,
    0,
    0,
    0,
    0,
    0,
    0,
    0,
    0,
    0,
    0,
    0,
    0,
    0,
    0,
    0,
    0,
    0,
    0,
    0,
    0,
    0,
    0,
    0,
    0,
    0,
    0,
    0,
    0,
    0,
    0,
    0,
    0,
    0,
    0,
    0,
    0,
    0,
    0,
    0,
    0,
    0,
    0,
    0,
    0,
    0,
    0,
    0,
    0,
    0,
    0,
    0,
    0,
    0,
    0,
    0,
    0,
    0,
    0,
    0,
    0,
    0,
    0,
    0,
    0,
    0,
    0,
    0,
    0,
    0,
    0,
    0,
    0,
    0,
    0,
    0,
    0,
    0,
    0,
    0,
    0,
    0,
    0,
    0,
    0,
    0,
    0,
    0,
    0,
    0,
    0,
    0,
    0,
    0,
    0,
    0,
    0,
    0,
    0,
    0,
    0,
    0,
    0,
    0,
    0,
    0,
    0,
    0,
    0,
    0,
    0,
    0,
    0,
    0,
    0,
    0,
    0,
    0,
    0,
    0,
    0,
    0,
    0,
    0,
    0,
    0,
    0,
    0,
    0,
    0,
    0,
    0,
    0,
    0,
    0,
    0,
    0,
    0,
    0,
    0,
    0,
    0,
    0,
    0,
    0,
    0,
    0,
    0,
    0,
    0,
    0,
    0,
    0,
    0,
    0,
    0,
    0,
    0,
    0,
    0,
    0,
    0,
    0,
    0,
    0,
    0,
    0,
    0,
    0,
    0,
    0,
    0,
    0,
    0,
    0,
    0,
    0,
    0,
    0,
    0,
    0,
    0,
    0,
    0,
    0,
    0,
    0,
    0,
    0,
    0,
    0,
    0,
    0,
    0,
    0,
    0,
    0,
    0,
    0,
    0,
    0,
    0,
    0,
    0,
    0,
    0,
    0,
    0,
    0,
    0,
    0,
    0,
    0,
    0,
    0,
    0,
    0,
    0,
    0,
    0,
    0,
    0,
    0,
    0,
    0,
    0,
    0,
    0,
    0,
    0,
    0,
    0,
    0,
    0,
    0,
    0,
    0,
    0,
    0,
    0,
    0,
    0,
    0,
    0,
    0,
    0,
    0,
    0,
    0,
    0,
    0,
    0,
    0,
    0,
    0,
    0,
    0,
    0,
    0,
    0,
    0,
    0,
    0,
    0,
    0,
    0,
    0,
    0,
    0,
    0,
    0,
    0,
    0,
    0,
    0,
    0,
    0,
    0,
    0,
    0,
    0,
    0,
    0,
    0,
    0,
    0,
    0,
    0,
    0,
    0,
    0,
    0,
    0,
    0,
    0,
    0,
    0,
    0,
    0,
    0,
    0,
    0,
    0,
    0,
    0,
    0,
    0,
    0,
    0,
    0,
    0,
    0,
    0,
    0,
    0,
    0,
    0,
    0,
    0,
    0,
    0,
    0,
    0,
    0,
    0,
    0,
    0,
    0,
    0,
    0,
    0,
    0,
    0,
    0,
    0,
    0,
    0,
    0,
    0,
    0,
    0,
    0,
    0,
    0,
    0,
    0,
    0,
    0,
    0,
    0,
    0,
    0,
    0,
    0,
    0,
    0,
    0,
    0,
    0,
    0,
    0,
    0,
    0,
    0,
    0,
    0,
    0,
    0,
    0,
    0,
    0,
    0,
    0,
    0,
    0,
    0,
    0,
    0,
    0,
    0,
    0,
    0,
    0,
    0,
    0,
    0,
    0,
    0,
    0,
    0,
    0,
    0,
    0,
    0,
    0,
    0,
    0,
    0,
    0,
    0,
    0,
    0,
    0,
    0,
    0,
    0,
    0,
    0,
    0,
    0,
    0,
    0,
    0,
    0,
    0,
    0,
    0,
    0,
    0,
    0,
    0,
    0,
    0,
    0,
    0,
    0,
    0,
    0,
    0,
    0,
    0,
    0,
    0,
    0,
    0,
    0,
    0,
    0,
    0,
    0,
    0,
    0,
    0,
    0,
    0,
    0,
    0,
    0,
    0,
    0,
    0,
    0,
    0,
    0,
    0,
    0,
    0,
    0,
    0,
    0,
    0,
    0,
    0,
    0,
    0,
    0,
    0,
    0,
    0,
    0,
    0,
    0,
    0,
    0,
    0,
    0,
    0,
    0,
    0,
    0,
    0,
    0,
    0,
    0,
    0,
    0,
    0,
    0,
    0,
    0,
    0,
    0,
    0,
    0,
    0,
    0,
    0,
    0,
    0,
    0,
    0,
    0,
    0,
    0,
    0,
    0,
    0,
    0,
    0,
    0,
    0,
    0,
    0,
    0,
    0,
    0,
    0,
    0,
    0,
    0,
    0,
    0,
    0,
    0,
    0,
    0,
    0,
    0,
    0,
    0,
    0,
    0,
    0,
    0,
    0,
    0,
    0,
    0,
    0,
    0,
    0,
    0,
    0,
    0,
    0,
    0,
    0,
    0,
    0,
    0,
    0,
    0,
    0,
    0,
    0,
    0,
    0,
    0,
    0,
    0,
    0,
    0,
    0,
    0,
    0,
    0,
    0,
    0,
    0,
    0,
    0,
    0,
    0,
    0,
    0,
    0,
    0,
    0,
    0,
    0,
    0,
    0,
    0,
    0,
    0,
    0,
    0,
    0,
    0,
    0,
    0,
    0,
    0,
    0,
    0,
    0,
    0,
    0,
    0,
    0,
    0,
    0,
    0,
    0,
    0,
    0,
    0,
    0,
    0,
    0,
    0,
    0,
    0,
    0,
    0,
    0,
    0,
    0,
    0,
    0,
    0,
    0,
    0,
    0,
    0,
    0,
    0,
    0,
    0,
    0,
    0,
    0,
    0,
    0,
    0,
    0,
    0,
    0,
    0,
    0,
    0,
    0,
    0,
    0,
    0,
    0,
    0,
    0,
    0,
    0,
    0,
    0,
    0,
    0,
    0,
    0,
    0,
    0,
    0,
    0,
    0,
    0,
    0,
    0,
    0,
    0,
    0,
    0,
    0,
    0,
    0,
    0,
    0,
    0,
    0,
    0,
    0,
    0,
    0,
    0,
    0,
    0,
    0,
    0,
    0,
    0,
    0,
    0,
    0,
    0,
    0,
    0,
    0,
    0,
    0,
    0,
    0,
    0,
    0,
    0,
    0,
    0,
    0,
    0,
    0,
    0,
    0,
    0,
    0,
    0,
    0,
    0,
    0,
    0,
    0,
    0,
    0,
    0,
    0,
    0,
    0,
    0,
    0,
    0,
    0,
    0,
    0,
    0,
    0,
    0,
    0,
    0,
    0,
    0,
    0,
    0,
    0,
    0,
    0,
    0,
    0,
    0,
    0,
    0,
    0,
    0,
    0,
    0,
    0,
    0,
    0,
    0,
    0,
    0,
    0,
    0,
    0,
    0,
    0,
    0,
    0,
    0,
    0,
    0,
    0,
    0,
    0,
    0,
    0,
    0,
    0,
    0,
    0,
    0,
    0,
    0,
    0,
    0,
    0,
    0,
    0,
    0,
    0,
    0,
    0,
    0,
    0,
    0,
    0,
    0,
    0,
    0,
    0,
    0,
    0,
    0,
    0,
    0,
    0,
    0,
    0,
    0,
    0,
    0,
    0,
    0,
    0,
    0,
    0,
    0,
    0,
    0,
    0,
    0,
    0,
    0,
    0,
    0,
    0,
    0,
    0,
    0,
    0,
    0,
    0,
    0,
    0,
    0,
    0,
    0,
    0,
    0,
    0,
    0,
    0,
    0,
    0,
    0,
    0,
    0,
    0,
    0,
    0,
    0,
    0,
    0,
    0,
    0,
    0,
    0,
    0,
    0,
    0,
    0,
    0,
    0,
    0,
    0,
    0,
    0,
    0,
    0,
    0,
    0,
    0,
    0,
    0,
    0,
    0,
    0,
    0,
    0,
    0,
    0,
    0,
    0,
    0,
    0,
    0,
    0,
    0,
    0,
    0,
    0,
    0,
    0,
    0,
    0,
    0,
    0,
    0,
    0,
    0,
    0,
    0,
    0,
    0,
    0,
    0,
    0,
    0,
    0,
    0,
    0,
    0,
    0,
    0,
    0,
    0,
    0,
    0,
    0,
    0,
    0,
    0,
    0,
    0,
    0,
    0
  ],
  "events": [
    null,
    {
      "id": 1,
      "name": "[AUTOev]Opening",
      "note": "",
      "pages": [
        {
          "conditions": {
            "actorId": 1,
            "actorValid": false,
            "itemId": 1,
            "itemValid": false,
            "selfSwitchCh": "A",
            "selfSwitchValid": false,
            "switch1Id": 1,
            "switch1Valid": false,
            "switch2Id": 1,
            "switch2Valid": false,
            "variableId": 1,
            "variableValid": false,
            "variableValue": 0
          },
          "directionFix": false,
          "image": {
            "characterIndex": 0,
            "characterName": "",
            "direction": 2,
            "pattern": 0,
            "tileId": 0
          },
          "list": [
            {
              "code": 108,
              "indent": 0,
              "parameters": [
                "▼△▼　Default flag processing at game start　▼△▼"
              ]
            },
            {
              "code": 408,
              "indent": 0,
              "parameters": [
                "　■ Turn on battle cut-in"
              ]
            },
            {
              "code": 408,
              "indent": 0,
              "parameters": [
                "　■ Initial item acquisition"
              ]
            },
            {
              "code": 408,
              "indent": 0,
              "parameters": [
                "　■ level 1 Jewel"
              ]
            },
            {
              "code": 121,
              "indent": 0,
              "parameters": [
                87,
                87,
                0
              ]
            },
            {
              "code": 121,
              "indent": 0,
              "parameters": [
                16,
                16,
                0
              ]
            },
            {
              "code": 122,
              "indent": 0,
              "parameters": [
                3,
                3,
                0,
                0,
                1
              ]
            },
            {
              "code": 122,
              "indent": 0,
              "parameters": [
                4,
                4,
                0,
                0,
                1
              ]
            },
            {
              "code": 122,
              "indent": 0,
              "parameters": [
                5,
                5,
                0,
                0,
                1
              ]
            },
            {
              "code": 122,
              "indent": 0,
              "parameters": [
                6,
                6,
                0,
                0,
                1
              ]
            },
            {
              "code": 122,
              "indent": 0,
              "parameters": [
                7,
                7,
                0,
                0,
                1
              ]
            },
            {
              "code": 126,
              "indent": 0,
              "parameters": [
                51,
                0,
                0,
                1
              ]
            },
            {
              "code": 108,
              "indent": 0,
              "parameters": [
                "■■　Initialization of propensity map　■■"
              ]
            },
            {
              "code": 122,
              "indent": 0,
              "parameters": [
                101,
                101,
                0,
                2,
                0,
                255
              ]
            },
            {
              "code": 122,
              "indent": 0,
              "parameters": [
                102,
                102,
                0,
                2,
                0,
                255
              ]
            },
            {
              "code": 122,
              "indent": 0,
              "parameters": [
                103,
                103,
                0,
                2,
                0,
                255
              ]
            },
            {
              "code": 122,
              "indent": 0,
              "parameters": [
                104,
                104,
                0,
                2,
                0,
                255
              ]
            },
            {
              "code": 122,
              "indent": 0,
              "parameters": [
                105,
                105,
                0,
                2,
                0,
                255
              ]
            },
            {
              "code": 122,
              "indent": 0,
              "parameters": [
                106,
                106,
                0,
                2,
                0,
                255
              ]
            },
            {
              "code": 122,
              "indent": 0,
              "parameters": [
                107,
                107,
                0,
                2,
                0,
                255
              ]
            },
            {
              "code": 122,
              "indent": 0,
              "parameters": [
                108,
                108,
                0,
                2,
                0,
                255
              ]
            },
            {
              "code": 122,
              "indent": 0,
              "parameters": [
                109,
                109,
                0,
                2,
                0,
                255
              ]
            },
            {
              "code": 122,
              "indent": 0,
              "parameters": [
                110,
                110,
                0,
                2,
                0,
                255
              ]
            },
            {
              "code": 122,
              "indent": 0,
              "parameters": [
                111,
                111,
                0,
                2,
                0,
                255
              ]
            },
            {
              "code": 122,
              "indent": 0,
              "parameters": [
                112,
                112,
                0,
                2,
                0,
                255
              ]
            },
            {
              "code": 122,
              "indent": 0,
              "parameters": [
                113,
                113,
                0,
                2,
                0,
                255
              ]
            },
            {
              "code": 122,
              "indent": 0,
              "parameters": [
                114,
                114,
                0,
                2,
                0,
                255
              ]
            },
            {
              "code": 122,
              "indent": 0,
              "parameters": [
                115,
                115,
                0,
                2,
                0,
                255
              ]
            },
            {
              "code": 122,
              "indent": 0,
              "parameters": [
                116,
                116,
                0,
                2,
                0,
                255
              ]
            },
            {
              "code": 122,
              "indent": 0,
              "parameters": [
                117,
                117,
                0,
                2,
                0,
                255
              ]
            },
            {
              "code": 122,
              "indent": 0,
              "parameters": [
                118,
                118,
                0,
                2,
                0,
                255
              ]
            },
            {
              "code": 122,
              "indent": 0,
              "parameters": [
                119,
                119,
                0,
                2,
                0,
                255
              ]
            },
            {
              "code": 122,
              "indent": 0,
              "parameters": [
                120,
                120,
                0,
                2,
                0,
                255
              ]
            },
            {
              "code": 122,
              "indent": 0,
              "parameters": [
                121,
                121,
                0,
                2,
                0,
                255
              ]
            },
            {
              "code": 122,
              "indent": 0,
              "parameters": [
                122,
                122,
                0,
                2,
                0,
                255
              ]
            },
            {
              "code": 122,
              "indent": 0,
              "parameters": [
                123,
                123,
                0,
                2,
                0,
                255
              ]
            },
            {
              "code": 122,
              "indent": 0,
              "parameters": [
                124,
                124,
                0,
                2,
                0,
                255
              ]
            },
            {
              "code": 122,
              "indent": 0,
              "parameters": [
                125,
                125,
                0,
                2,
                0,
                255
              ]
            },
            {
              "code": 122,
              "indent": 0,
              "parameters": [
                126,
                126,
                0,
                2,
                0,
                255
              ]
            },
            {
              "code": 122,
              "indent": 0,
              "parameters": [
                127,
                127,
                0,
                2,
                0,
                255
              ]
            },
            {
              "code": 122,
              "indent": 0,
              "parameters": [
                128,
                128,
                0,
                2,
                0,
                255
              ]
            },
            {
              "code": 122,
              "indent": 0,
              "parameters": [
                129,
                129,
                0,
                2,
                0,
                255
              ]
            },
            {
              "code": 122,
              "indent": 0,
              "parameters": [
                130,
                130,
                0,
                2,
                0,
                255
              ]
            },
            {
              "code": 122,
              "indent": 0,
              "parameters": [
                131,
                131,
                0,
                2,
                0,
                255
              ]
            },
            {
              "code": 122,
              "indent": 0,
              "parameters": [
                132,
                132,
                0,
                2,
                0,
                255
              ]
            },
            {
              "code": 122,
              "indent": 0,
              "parameters": [
                133,
                133,
                0,
                2,
                0,
                255
              ]
            },
            {
              "code": 122,
              "indent": 0,
              "parameters": [
                134,
                134,
                0,
                2,
                0,
                255
              ]
            },
            {
              "code": 122,
              "indent": 0,
              "parameters": [
                135,
                135,
                0,
                2,
                0,
                255
              ]
            },
            {
              "code": 122,
              "indent": 0,
              "parameters": [
                136,
                136,
                0,
                2,
                0,
                255
              ]
            },
            {
              "code": 122,
              "indent": 0,
              "parameters": [
                137,
                137,
                0,
                2,
                0,
                255
              ]
            },
            {
              "code": 122,
              "indent": 0,
              "parameters": [
                138,
                138,
                0,
                2,
                0,
                255
              ]
            },
            {
              "code": 122,
              "indent": 0,
              "parameters": [
                139,
                139,
                0,
                2,
                0,
                255
              ]
            },
            {
              "code": 122,
              "indent": 0,
              "parameters": [
                140,
                140,
                0,
                2,
                0,
                255
              ]
            },
            {
              "code": 122,
              "indent": 0,
              "parameters": [
                141,
                141,
                0,
                2,
                0,
                255
              ]
            },
            {
              "code": 122,
              "indent": 0,
              "parameters": [
                142,
                142,
                0,
                2,
                0,
                255
              ]
            },
            {
              "code": 122,
              "indent": 0,
              "parameters": [
                143,
                143,
                0,
                2,
                0,
                255
              ]
            },
            {
              "code": 122,
              "indent": 0,
              "parameters": [
                144,
                144,
                0,
                2,
                0,
                255
              ]
            },
            {
              "code": 122,
              "indent": 0,
              "parameters": [
                145,
                145,
                0,
                2,
                0,
                255
              ]
            },
            {
              "code": 122,
              "indent": 0,
              "parameters": [
                146,
                146,
                0,
                2,
                0,
                255
              ]
            },
            {
              "code": 122,
              "indent": 0,
              "parameters": [
                147,
                147,
                0,
                2,
                0,
                255
              ]
            },
            {
              "code": 122,
              "indent": 0,
              "parameters": [
                148,
                148,
                0,
                2,
                0,
                255
              ]
            },
            {
              "code": 122,
              "indent": 0,
              "parameters": [
                149,
                149,
                0,
                2,
                0,
                255
              ]
            },
            {
              "code": 122,
              "indent": 0,
              "parameters": [
                150,
                150,
                0,
                2,
                0,
                255
              ]
            },
            {
              "code": 122,
              "indent": 0,
              "parameters": [
                151,
                151,
                0,
                2,
                0,
                255
              ]
            },
            {
              "code": 122,
              "indent": 0,
              "parameters": [
                152,
                152,
                0,
                2,
                0,
                255
              ]
            },
            {
              "code": 122,
              "indent": 0,
              "parameters": [
                153,
                153,
                0,
                2,
                0,
                255
              ]
            },
            {
              "code": 122,
              "indent": 0,
              "parameters": [
                154,
                154,
                0,
                2,
                0,
                255
              ]
            },
            {
              "code": 122,
              "indent": 0,
              "parameters": [
                155,
                155,
                0,
                2,
                0,
                255
              ]
            },
            {
              "code": 122,
              "indent": 0,
              "parameters": [
                156,
                156,
                0,
                2,
                0,
                255
              ]
            },
            {
              "code": 122,
              "indent": 0,
              "parameters": [
                157,
                157,
                0,
                2,
                0,
                255
              ]
            },
            {
              "code": 122,
              "indent": 0,
              "parameters": [
                158,
                158,
                0,
                2,
                0,
                255
              ]
            },
            {
              "code": 122,
              "indent": 0,
              "parameters": [
                159,
                159,
                0,
                2,
                0,
                255
              ]
            },
            {
              "code": 122,
              "indent": 0,
              "parameters": [
                160,
                160,
                0,
                2,
                0,
                255
              ]
            },
            {
              "code": 122,
              "indent": 0,
              "parameters": [
                161,
                161,
                0,
                2,
                0,
                255
              ]
            },
            {
              "code": 122,
              "indent": 0,
              "parameters": [
                162,
                162,
                0,
                2,
                0,
                255
              ]
            },
            {
              "code": 122,
              "indent": 0,
              "parameters": [
                163,
                163,
                0,
                2,
                0,
                255
              ]
            },
            {
              "code": 122,
              "indent": 0,
              "parameters": [
                164,
                164,
                0,
                2,
                0,
                255
              ]
            },
            {
              "code": 122,
              "indent": 0,
              "parameters": [
                165,
                165,
                0,
                2,
                0,
                255
              ]
            },
            {
              "code": 122,
              "indent": 0,
              "parameters": [
                166,
                166,
                0,
                2,
                0,
                255
              ]
            },
            {
              "code": 122,
              "indent": 0,
              "parameters": [
                167,
                167,
                0,
                2,
                0,
                255
              ]
            },
            {
              "code": 122,
              "indent": 0,
              "parameters": [
                168,
                168,
                0,
                2,
                0,
                255
              ]
            },
            {
              "code": 122,
              "indent": 0,
              "parameters": [
                169,
                169,
                0,
                2,
                0,
                255
              ]
            },
            {
              "code": 122,
              "indent": 0,
              "parameters": [
                170,
                170,
                0,
                2,
                0,
                255
              ]
            },
            {
              "code": 108,
              "indent": 0,
              "parameters": [
                "▼△▼　　Attention　　▼△▼"
              ]
            },
            {
              "code": 231,
              "indent": 0,
              "parameters": [
                4,
                "ss1",
                0,
                0,
                0,
                0,
                100,
                100,
                0,
                0
              ]
            },
            {
              "code": 232,
              "indent": 0,
              "parameters": [
                4,
                0,
                0,
                0,
                0,
                0,
                100,
                100,
                255,
                0,
                60,
                true
              ]
            },
            {
              "code": 101,
              "indent": 0,
              "parameters": [
                "",
                0,
                2,
                2
              ]
            },
            {
              "code": 401,
              "indent": 0,
              "parameters": [
                ""
              ]
            },
            {
              "code": 231,
              "indent": 0,
              "parameters": [
                5,
                "ss2",
                0,
                0,
                0,
                0,
                100,
                100,
                0,
                0
              ]
            },
            {
              "code": 232,
              "indent": 0,
              "parameters": [
                5,
                0,
                0,
                0,
                0,
                0,
                100,
                100,
                255,
                0,
                60,
                false
              ]
            },
            {
              "code": 232,
              "indent": 0,
              "parameters": [
                4,
                0,
                0,
                0,
                0,
                0,
                100,
                100,
                0,
                0,
                60,
                true
              ]
            },
            {
              "code": 101,
              "indent": 0,
              "parameters": [
                "",
                0,
                2,
                2
              ]
            },
            {
              "code": 401,
              "indent": 0,
              "parameters": [
                ""
              ]
            },
            {
              "code": 232,
              "indent": 0,
              "parameters": [
                5,
                0,
                0,
                0,
                0,
                0,
                100,
                100,
                0,
                0,
                60,
                true
              ]
            },
            {
              "code": 117,
              "indent": 0,
              "parameters": [
                1
              ]
            },
            {
              "code": 108,
              "indent": 0,
              "parameters": [
                "▼△▼　　　 Select Difficulty  　　▼△▼"
              ]
            },
            {
              "code": 408,
              "indent": 0,
              "parameters": [
                "▼△▼　Selecting the opening skip　▼△▼"
              ]
            },
            {
              "code": 408,
              "indent": 0,
              "parameters": [
                "　■ When skipping, start at the Gotemba base"
              ]
            },
            {
              "code": 101,
              "indent": 0,
              "parameters": [
                "",
                0,
                0,
                2
              ]
            },
            {
              "code": 401,
              "indent": 0,
              "parameters": [
                "Select the difficulty level of battles."
              ]
            },
            {
              "code": 401,
              "indent": 0,
              "parameters": [
                "　\\c[6]◆ Easy (enemy weakened by 50%)"
              ]
            },
            {
              "code": 401,
              "indent": 0,
              "parameters": [
                "　\\c[14]◆ Normal (Combat H easy to enjoy)\\c[0]"
              ]
            },
            {
              "code": 401,
              "indent": 0,
              "parameters": [
                "※ You can change the difficulty in-game."
              ]
            },
            {
              "code": 102,
              "indent": 0,
              "parameters": [
                [
                  "Easy",
                  "Normal"
                ],
                -1,
                0,
                2,
                0
              ]
            },
            {
              "code": 402,
              "indent": 0,
              "parameters": [
                0,
                "◆Easy"
              ]
            },
            {
              "code": 250,
              "indent": 1,
              "parameters": [
                {
                  "name": "Chime2",
                  "volume": 90,
                  "pitch": 100,
                  "pan": 0
                }
              ]
            },
            {
              "code": 121,
              "indent": 1,
              "parameters": [
                218,
                218,
                0
              ]
            },
            {
              "code": 101,
              "indent": 1,
              "parameters": [
                "",
                0,
                0,
                2
              ]
            },
            {
              "code": 401,
              "indent": 1,
              "parameters": [
                "\\c[6]◆Easy\\c[0] was selected."
              ]
            },
            {
              "code": 0,
              "indent": 1,
              "parameters": []
            },
            {
              "code": 402,
              "indent": 0,
              "parameters": [
                1,
                "◆Normal"
              ]
            },
            {
              "code": 250,
              "indent": 1,
              "parameters": [
                {
                  "name": "Chime2",
                  "volume": 90,
                  "pitch": 100,
                  "pan": 0
                }
              ]
            },
            {
              "code": 101,
              "indent": 1,
              "parameters": [
                "",
                0,
                0,
                2
              ]
            },
            {
              "code": 401,
              "indent": 1,
              "parameters": [
                "\\c[14]◆Normal\\c[0] was selected."
              ]
            },
            {
              "code": 0,
              "indent": 1,
              "parameters": []
            },
            {
              "code": 404,
              "indent": 0,
              "parameters": []
            },
            {
              "code": 101,
              "indent": 0,
              "parameters": [
                "",
                0,
                0,
                2
              ]
            },
            {
              "code": 401,
              "indent": 0,
              "parameters": [
                "Do you want to skip the opening?"
              ]
            },
            {
              "code": 401,
              "indent": 0,
              "parameters": [
                "　● Includes one H event scene."
              ]
            },
            {
              "code": 401,
              "indent": 0,
              "parameters": [
                "　● Recollection is possible after skipping."
              ]
            },
            {
              "code": 102,
              "indent": 0,
              "parameters": [
                [
                  "Skip",
                  "Don't skip (Recommanded)"
                ],
                -1,
                1,
                2,
                0
              ]
            },
            {
              "code": 402,
              "indent": 0,
              "parameters": [
                0,
                "Skip"
              ]
            },
            {
              "code": 250,
              "indent": 1,
              "parameters": [
                {
                  "name": "Chime2",
                  "volume": 90,
                  "pitch": 100,
                  "pan": 0
                }
              ]
            },
            {
              "code": 221,
              "indent": 1,
              "parameters": []
            },
            {
              "code": 101,
              "indent": 1,
              "parameters": [
                "",
                0,
                0,
                2
              ]
            },
            {
              "code": 401,
              "indent": 1,
              "parameters": [
                "Synopsis"
              ]
            },
            {
              "code": 401,
              "indent": 1,
              "parameters": [
                "　○ A meteorite fell on Fuji Gotemba 18 years ago."
              ]
            },
            {
              "code": 401,
              "indent": 1,
              "parameters": [
                "　○ A girl, Hasumi, runs away and encounters Marco."
              ]
            },
            {
              "code": 401,
              "indent": 1,
              "parameters": [
                "　○ After troubles, they to head to the meteorite..."
              ]
            },
            {
              "code": 126,
              "indent": 1,
              "parameters": [
                51,
                1,
                0,
                1
              ]
            },
            {
              "code": 127,
              "indent": 1,
              "parameters": [
                2,
                0,
                0,
                1,
                false
              ]
            },
            {
              "code": 125,
              "indent": 1,
              "parameters": [
                0,
                0,
                1000
              ]
            },
            {
              "code": 121,
              "indent": 1,
              "parameters": [
                111,
                111,
                0
              ]
            },
            {
              "code": 201,
              "indent": 1,
              "parameters": [
                0,
                5,
                32,
                1,
                2,
                0
              ]
            },
            {
              "code": 205,
              "indent": 1,
              "parameters": [
                -1,
                {
                  "list": [
                    {
                      "code": 40,
                      "indent": null
                    },
                    {
                      "code": 0
                    }
                  ],
                  "repeat": false,
                  "skippable": false,
                  "wait": true
                }
              ]
            },
            {
              "code": 505,
              "indent": 1,
              "parameters": [
                {
                  "code": 40,
                  "indent": null
                }
              ]
            },
            {
              "code": 241,
              "indent": 1,
              "parameters": [
                {
                  "name": "",
                  "volume": 90,
                  "pitch": 100,
                  "pan": 0
                }
              ]
            },
            {
              "code": 222,
              "indent": 1,
              "parameters": []
            },
            {
              "code": 245,
              "indent": 1,
              "parameters": [
                {
                  "name": "Wind",
                  "volume": 25,
                  "pitch": 100,
                  "pan": 0
                }
              ]
            },
            {
              "code": 0,
              "indent": 1,
              "parameters": []
            },
            {
              "code": 402,
              "indent": 0,
              "parameters": [
                1,
                "Don't skip (Recommanded)"
              ]
            },
            {
              "code": 250,
              "indent": 1,
              "parameters": [
                {
                  "name": "Chime2",
                  "volume": 90,
                  "pitch": 100,
                  "pan": 0
                }
              ]
            },
            {
              "code": 221,
              "indent": 1,
              "parameters": []
            },
            {
              "code": 230,
              "indent": 1,
              "parameters": [
                120
              ]
            },
            {
              "code": 245,
              "indent": 1,
              "parameters": [
                {
                  "name": "Drips",
                  "volume": 35,
                  "pitch": 100,
                  "pan": 0
                }
              ]
            },
            {
              "code": 101,
              "indent": 1,
              "parameters": [
                "",
                0,
                2,
                1
              ]
            },
            {
              "code": 401,
              "indent": 1,
              "parameters": [
                ""
              ]
            },
            {
              "code": 401,
              "indent": 1,
              "parameters": [
                "      \\c[9]A world that can only be seen by those\n      Who walk the deepest parts of the earth."
              ]
            },
            {
              "code": 101,
              "indent": 1,
              "parameters": [
                "",
                0,
                2,
                1
              ]
            },
            {
              "code": 401,
              "indent": 1,
              "parameters": [
                ""
              ]
            },
            {
              "code": 401,
              "indent": 1,
              "parameters": [
                "\\c[9]In that place, nature is the greatest sculptor."
              ]
            },
            {
              "code": 401,
              "indent": 1,
              "parameters": [
                "　　　　　　　　It appears before us."
              ]
            },
            {
              "code": 230,
              "indent": 1,
              "parameters": [
                90
              ]
            },
            {
              "code": 231,
              "indent": 1,
              "parameters": [
                4,
                "doukutu_b2",
                0,
                0,
                -163,
                0,
                100,
                100,
                255,
                0
              ]
            },
            {
              "code": 234,
              "indent": 1,
              "parameters": [
                4,
                [
                  -187,
                  -68,
                  -34,
                  51
                ],
                1,
                true
              ]
            },
            {
              "code": 232,
              "indent": 1,
              "parameters": [
                4,
                0,
                0,
                0,
                0,
                -125,
                100,
                100,
                255,
                0,
                999,
                false
              ]
            },
            {
              "code": 222,
              "indent": 1,
              "parameters": []
            },
            {
              "code": 101,
              "indent": 1,
              "parameters": [
                "",
                0,
                1,
                1
              ]
            },
            {
              "code": 401,
              "indent": 1,
              "parameters": [
                ""
              ]
            },
            {
              "code": 401,
              "indent": 1,
              "parameters": [
                "　　　　　　　\\c[9]Ryusendo Cave, Shimohi-gun, Iwate"
              ]
            },
            {
              "code": 101,
              "indent": 1,
              "parameters": [
                "",
                0,
                1,
                1
              ]
            },
            {
              "code": 401,
              "indent": 1,
              "parameters": [
                "\\c[9]A beautiful and huge cave as if God lives there\\!"
              ]
            },
            {
              "code": 401,
              "indent": 1,
              "parameters": [
                "　　Its total length exceeds 3,000 meters."
              ]
            },
            {
              "code": 401,
              "indent": 1,
              "parameters": [
                " 　　That no one has ever seen the depths of it yet."
              ]
            },
            {
              "code": 101,
              "indent": 1,
              "parameters": [
                "",
                0,
                1,
                1
              ]
            },
            {
              "code": 401,
              "indent": 1,
              "parameters": [
                "\\c[9]The seven underground lakes have crystal clear water"
              ]
            },
            {
              "code": 401,
              "indent": 1,
              "parameters": [
                "The further you go, the more intricate it gets."
              ]
            },
            {
              "code": 401,
              "indent": 1,
              "parameters": [
                "Even for veteran divers, it is considered difficult."
              ]
            },
            {
              "code": 221,
              "indent": 1,
              "parameters": []
            },
            {
              "code": 230,
              "indent": 1,
              "parameters": [
                90
              ]
            },
            {
              "code": 235,
              "indent": 1,
              "parameters": [
                4
              ]
            },
            {
              "code": 231,
              "indent": 1,
              "parameters": [
                4,
                "doukutu_a",
                0,
                0,
                -163,
                -125,
                100,
                100,
                255,
                0
              ]
            },
            {
              "code": 234,
              "indent": 1,
              "parameters": [
                4,
                [
                  -17,
                  17,
                  17,
                  17
                ],
                1,
                true
              ]
            },
            {
              "code": 236,
              "indent": 1,
              "parameters": [
                "snow",
                7,
                1,
                true
              ]
            },
            {
              "code": 232,
              "indent": 1,
              "parameters": [
                4,
                0,
                0,
                0,
                0,
                0,
                100,
                100,
                255,
                0,
                999,
                false
              ]
            },
            {
              "code": 222,
              "indent": 1,
              "parameters": []
            },
            {
              "code": 101,
              "indent": 1,
              "parameters": [
                "",
                0,
                1,
                1
              ]
            },
            {
              "code": 401,
              "indent": 1,
              "parameters": [
                ""
              ]
            },
            {
              "code": 401,
              "indent": 1,
              "parameters": [
                "　　　\\c[9]Son Dong Cave, Quang Binh Province, Vietnam"
              ]
            },
            {
              "code": 101,
              "indent": 1,
              "parameters": [
                "",
                0,
                1,
                1
              ]
            },
            {
              "code": 401,
              "indent": 1,
              "parameters": [
                "   \\c[9]The world's largest cave, over 200 meters deep"
              ]
            },
            {
              "code": 401,
              "indent": 1,
              "parameters": [
                "This cave, with haze, underground rivers and grasses"
              ]
            },
            {
              "code": 401,
              "indent": 1,
              "parameters": [
                "  Was one world, cut off from the rest of the world"
              ]
            },
            {
              "code": 401,
              "indent": 1,
              "parameters": [
                " Until explorers stepped in at the end of the 20th."
              ]
            },
            {
              "code": 101,
              "indent": 1,
              "parameters": [
                "",
                0,
                1,
                1
              ]
            },
            {
              "code": 401,
              "indent": 1,
              "parameters": [
                "　　\\c[9]Plants, insects, birds, animals and fungi\\!"
              ]
            },
            {
              "code": 401,
              "indent": 1,
              "parameters": [
                "Creatures that live in these caves are very different."
              ]
            },
            {
              "code": 401,
              "indent": 1,
              "parameters": [
                "　　　   They say they have a unique ecosystem."
              ]
            },
            {
              "code": 221,
              "indent": 1,
              "parameters": []
            },
            {
              "code": 230,
              "indent": 1,
              "parameters": [
                90
              ]
            },
            {
              "code": 236,
              "indent": 1,
              "parameters": [
                "none",
                5,
                1,
                true
              ]
            },
            {
              "code": 235,
              "indent": 1,
              "parameters": [
                4
              ]
            },
            {
              "code": 101,
              "indent": 1,
              "parameters": [
                "",
                0,
                2,
                1
              ]
            },
            {
              "code": 401,
              "indent": 1,
              "parameters": [
                ""
              ]
            },
            {
              "code": 401,
              "indent": 1,
              "parameters": [
                "　　　　\\c[9]What lies beneath this world we live in?"
              ]
            },
            {
              "code": 101,
              "indent": 1,
              "parameters": [
                "",
                0,
                2,
                1
              ]
            },
            {
              "code": 401,
              "indent": 1,
              "parameters": [
                ""
              ]
            },
            {
              "code": 401,
              "indent": 1,
              "parameters": [
                "　　　\\c[9]Most of them have not been revealed,"
              ]
            },
            {
              "code": 401,
              "indent": 1,
              "parameters": [
                "　　 even by the excellent research of today."
              ]
            },
            {
              "code": 101,
              "indent": 1,
              "parameters": [
                "",
                0,
                2,
                1
              ]
            },
            {
              "code": 401,
              "indent": 1,
              "parameters": [
                ""
              ]
            },
            {
              "code": 401,
              "indent": 1,
              "parameters": [
                "　　　\\c[9]Even the thin crust of the Earth's surface"
              ]
            },
            {
              "code": 401,
              "indent": 1,
              "parameters": [
                "　　　　  　 Is only partially understood."
              ]
            },
            {
              "code": 222,
              "indent": 1,
              "parameters": []
            },
            {
              "code": 230,
              "indent": 1,
              "parameters": [
                60
              ]
            },
            {
              "code": 101,
              "indent": 1,
              "parameters": [
                "",
                0,
                2,
                1
              ]
            },
            {
              "code": 401,
              "indent": 1,
              "parameters": [
                ""
              ]
            },
            {
              "code": 401,
              "indent": 1,
              "parameters": [
              "If a meteorite had not fallen in Fuji in \\|\\c[2]2082"
              ]
            },
            {
              "code": 101,
              "indent": 1,
              "parameters": [
                "",
                0,
                2,
                1
              ]
            },
            {
              "code": 401,
              "indent": 1,
              "parameters": [
                ""
              ]
            },
            {
              "code": 401,
              "indent": 1,
              "parameters": [
                "\\c[9]And if the girl did not reach this huge sinkhole,"
              ]
            },
            {
              "code": 101,
              "indent": 1,
              "parameters": [
                "",
                0,
                2,
                1
              ]
            },
            {
              "code": 401,
              "indent": 1,
              "parameters": [
                ""
              ]
            },
            {
              "code": 401,
              "indent": 1,
              "parameters": [
                "  \\c[9]The mystery of the myriad lava tubes under Mt. Fuji"
              ]
            },
            {
              "code": 401,
              "indent": 1,
              "parameters": [
                "　　　　　    Wouldn't have been discovered."
              ]
            },
            {
              "code": 246,
              "indent": 1,
              "parameters": [
                1
              ]
            },
            {
              "code": 250,
              "indent": 1,
              "parameters": [
                {
                  "name": "revCyn",
                  "volume": 90,
                  "pitch": 50,
                  "pan": 0
                }
              ]
            },
            {
              "code": 231,
              "indent": 1,
              "parameters": [
                4,
                "title3",
                1,
                0,
                408,
                312,
                80,
                80,
                0,
                0
              ]
            },
            {
              "code": 232,
              "indent": 1,
              "parameters": [
                4,
                0,
                1,
                0,
                408,
                312,
                85,
                85,
                255,
                0,
                120,
                false
              ]
            },
            {
              "code": 230,
              "indent": 1,
              "parameters": [
                75
              ]
            },
            {
              "code": 234,
              "indent": 1,
              "parameters": [
                4,
                [
                  255,
                  255,
                  255,
                  0
                ],
                15,
                true
              ]
            },
            {
              "code": 224,
              "indent": 1,
              "parameters": [
                [
                  255,
                  255,
                  255,
                  170
                ],
                60,
                false
              ]
            },
            {
              "code": 234,
              "indent": 1,
              "parameters": [
                4,
                [
                  0,
                  0,
                  0,
                  0
                ],
                10,
                true
              ]
            },
            {
              "code": 230,
              "indent": 1,
              "parameters": [
                20
              ]
            },
            {
              "code": 232,
              "indent": 1,
              "parameters": [
                4,
                0,
                1,
                0,
                408,
                312,
                90,
                90,
                0,
                0,
                120,
                true
              ]
            },
            {
              "code": 235,
              "indent": 1,
              "parameters": [
                4
              ]
            },
            {
              "code": 230,
              "indent": 1,
              "parameters": [
                45
              ]
            },
            {
              "code": 250,
              "indent": 1,
              "parameters": [
                {
                  "name": "Electrocardiogram",
                  "volume": 70,
                  "pitch": 110,
                  "pan": 0
                }
              ]
            },
            {
              "code": 230,
              "indent": 1,
              "parameters": [
                5
              ]
            },
            {
              "code": 250,
              "indent": 1,
              "parameters": [
                {
                  "name": "Electrocardiogram",
                  "volume": 70,
                  "pitch": 60,
                  "pan": 0
                }
              ]
            },
            {
              "code": 230,
              "indent": 1,
              "parameters": [
                15
              ]
            },
            {
              "code": 250,
              "indent": 1,
              "parameters": [
                {
                  "name": "Electrocardiogram",
                  "volume": 70,
                  "pitch": 110,
                  "pan": 0
                }
              ]
            },
            {
              "code": 230,
              "indent": 1,
              "parameters": [
                13
              ]
            },
            {
              "code": 250,
              "indent": 1,
              "parameters": [
                {
                  "name": "Electrocardiogram",
                  "volume": 70,
                  "pitch": 110,
                  "pan": 0
                }
              ]
            },
            {
              "code": 230,
              "indent": 1,
              "parameters": [
                13
              ]
            },
            {
              "code": 250,
              "indent": 1,
              "parameters": [
                {
                  "name": "Electrocardiogram",
                  "volume": 70,
                  "pitch": 110,
                  "pan": 0
                }
              ]
            },
            {
              "code": 230,
              "indent": 1,
              "parameters": [
                13
              ]
            },
            {
              "code": 250,
              "indent": 1,
              "parameters": [
                {
                  "name": "Electrocardiogram",
                  "volume": 70,
                  "pitch": 110,
                  "pan": 0
                }
              ]
            },
            {
              "code": 230,
              "indent": 1,
              "parameters": [
                13
              ]
            },
            {
              "code": 250,
              "indent": 1,
              "parameters": [
                {
                  "name": "Electrocardiogram",
                  "volume": 70,
                  "pitch": 110,
                  "pan": 0
                }
              ]
            },
            {
              "code": 230,
              "indent": 1,
              "parameters": [
                13
              ]
            },
            {
              "code": 250,
              "indent": 1,
              "parameters": [
                {
                  "name": "Electrocardiogram",
                  "volume": 70,
                  "pitch": 60,
                  "pan": 0
                }
              ]
            },
            {
              "code": 230,
              "indent": 1,
              "parameters": [
                5
              ]
            },
            {
              "code": 250,
              "indent": 1,
              "parameters": [
                {
                  "name": "Electrocardiogram",
                  "volume": 70,
                  "pitch": 110,
                  "pan": 0
                }
              ]
            },
            {
              "code": 230,
              "indent": 1,
              "parameters": [
                5
              ]
            },
            {
              "code": 250,
              "indent": 1,
              "parameters": [
                {
                  "name": "Electrocardiogram",
                  "volume": 70,
                  "pitch": 150,
                  "pan": 0
                }
              ]
            },
            {
              "code": 230,
              "indent": 1,
              "parameters": [
                60
              ]
            },
            {
              "code": 101,
              "indent": 1,
              "parameters": [
                "",
                0,
                2,
                1
              ]
            },
            {
              "code": 401,
              "indent": 1,
              "parameters": [
                ""
              ]
            },
            {
              "code": 401,
              "indent": 1,
              "parameters": [
                "　\\c[10]<> \\c[29]Personality data has been installed completely"
              ]
            },
            {
              "code": 401,
              "indent": 1,
              "parameters": [
                "　\\c[10]<> \\c[29]Booting MARCO system　    Please wait\\..\\..\\..\\|"
              ]
            },
            {
              "code": 230,
              "indent": 1,
              "parameters": [
                15
              ]
            },
            {
              "code": 250,
              "indent": 1,
              "parameters": [
                {
                  "name": "SE_long on_FSPC",
                  "volume": 70,
                  "pitch": 100,
                  "pan": 0
                }
              ]
            },
            {
              "code": 230,
              "indent": 1,
              "parameters": [
                45
              ]
            },
            {
              "code": 251,
              "indent": 1,
              "parameters": []
            },
            {
              "code": 250,
              "indent": 1,
              "parameters": [
                {
                  "name": "SE_se02_FSPC",
                  "volume": 70,
                  "pitch": 100,
                  "pan": 0
                }
              ]
            },
            {
              "code": 230,
              "indent": 1,
              "parameters": [
                120
              ]
            },
            {
              "code": 201,
              "indent": 1,
              "parameters": [
                0,
                4,
                4,
                10,
                2,
                0
              ]
            },
            {
              "code": 205,
              "indent": 1,
              "parameters": [
                -1,
                {
                  "list": [
                    {
                      "code": 41,
                      "parameters": [
                        "mainCharacter",
                        7
                      ],
                      "indent": null
                    },
                    {
                      "code": 40,
                      "indent": null
                    },
                    {
                      "code": 0
                    }
                  ],
                  "repeat": false,
                  "skippable": false,
                  "wait": true
                }
              ]
            },
            {
              "code": 505,
              "indent": 1,
              "parameters": [
                {
                  "code": 41,
                  "parameters": [
                    "mainCharacter",
                    7
                  ],
                  "indent": null
                }
              ]
            },
            {
              "code": 505,
              "indent": 1,
              "parameters": [
                {
                  "code": 40,
                  "indent": null
                }
              ]
            },
            {
              "code": 123,
              "indent": 1,
              "parameters": [
                "A",
                0
              ]
            },
            {
              "code": 0,
              "indent": 1,
              "parameters": []
            },
            {
              "code": 404,
              "indent": 0,
              "parameters": []
            },
            {
              "code": 214,
              "indent": 0,
              "parameters": []
            },
            {
              "code": 0,
              "indent": 0,
              "parameters": []
            }
          ],
          "moveFrequency": 5,
          "moveRoute": {
            "list": [
              {
                "code": 0,
                "parameters": []
              }
            ],
            "repeat": true,
            "skippable": false,
            "wait": false
          },
          "moveSpeed": 3,
          "moveType": 0,
          "priorityType": 0,
          "stepAnime": false,
          "through": false,
          "trigger": 3,
          "walkAnime": true
        },
        {
          "conditions": {
            "actorId": 1,
            "actorValid": false,
            "itemId": 1,
            "itemValid": false,
            "selfSwitchCh": "A",
            "selfSwitchValid": true,
            "switch1Id": 1,
            "switch1Valid": false,
            "switch2Id": 1,
            "switch2Valid": false,
            "variableId": 1,
            "variableValid": false,
            "variableValue": 0
          },
          "directionFix": false,
          "image": {
            "characterIndex": 0,
            "characterName": "",
            "direction": 2,
            "pattern": 0,
            "tileId": 0
          },
          "list": [
            {
              "code": 0,
              "indent": 0,
              "parameters": []
            }
          ],
          "moveFrequency": 3,
          "moveRoute": {
            "list": [
              {
                "code": 0,
                "parameters": []
              }
            ],
            "repeat": true,
            "skippable": false,
            "wait": false
          },
          "moveSpeed": 3,
          "moveType": 0,
          "priorityType": 0,
          "stepAnime": false,
          "through": false,
          "trigger": 0,
          "walkAnime": true
        }
      ],
      "x": 0,
      "y": 0
    }
  ]
}
