{
"autoplayBgm":true,"autoplayBgs":false,"battleback1Name":"","battleback2Name":"","bgm":{"name":"","pan":0,"pitch":100,"volume":90},"bgs":{"name":"","pan":0,"pitch":100,"volume":90},"disableDashing":false,"displayName":"","encounterList":[],"encounterStep":30,"height":40,"note":"","parallaxLoopX":false,"parallaxLoopY":false,"parallaxName":"","parallaxShow":true,"parallaxSx":0,"parallaxSy":0,"scrollType":0,"specifyBattleback":false,"tilesetId":7,"width":30,
"data":[1558,1558,1558,1558,1558,1558,1558,1554,2448,2432,2432,2432,2432,2456,1552,2448,2432,2432,2432,2432,2432,2432,2432,2432,2432,2432,2432,2432,2432,2432,1558,1558,1558,1558,1558,1558,1558,1554,2448,2432,2432,2432,2432,2456,1552,2472,2440,2432,2432,2432,2432,2432,2432,2432,2432,2432,2432,2432,2432,2432,1558,1558,1558,1558,1558,1558,1558,1554,2448,2432,2432,2432,2432,2456,1552,1553,2472,2460,2440,2432,2432,2432,2432,2432,2432,2432,2432,2432,2432,2432,1558,1558,1558,1558,1558,2862,1628,1554,2448,2432,2432,2432,2432,2456,1552,1566,1630,1590,2472,2444,2460,2460,2460,2460,2460,2440,2432,2432,2432,2432,1558,1558,2862,1566,1566,1567,1636,1554,2448,2432,2432,2432,2432,2456,1552,1584,1638,1552,1590,2476,1630,1566,1566,1566,1590,2472,2460,2440,2432,2432,1558,2862,1567,1585,1586,1570,1577,1554,2448,2432,2432,2432,2432,2456,1552,1592,1577,1552,1552,1567,1638,1601,1602,1603,1552,1566,1590,2472,2440,2432,1558,1559,1570,1593,1594,1578,3246,1554,2448,2432,2432,2432,2432,2456,1560,1563,3242,1552,1552,1570,1577,1609,1610,1611,1552,1584,1552,1590,2448,2432,1558,1559,1578,3235,3233,3245,2858,1554,2448,2432,2432,2432,2432,2456,1568,1552,3241,3245,1552,1578,3246,1553,1553,1553,1552,1592,1552,1557,2472,2440,1558,1559,3234,3226,2862,2910,2848,1554,2448,2432,2432,2432,2432,2434,2468,1552,1553,1553,3235,3245,1553,1553,2910,1553,1553,1553,1552,1552,1590,2448,1558,1559,3218,3238,4106,2859,2855,1562,2448,2432,2432,2432,2432,2432,2456,1552,4146,4148,3244,1553,1553,1553,1553,2910,1553,3234,3236,1552,1557,2448,1558,1559,3244,2858,4081,4100,1554,1570,2448,2432,2432,2432,2432,2432,2456,1560,4152,4137,1553,1553,1553,1553,4098,4100,3243,3209,3224,1552,1557,2448,1558,1559,2850,2842,4104,4089,1554,2466,2433,2432,2432,2432,2432,2432,2456,1568,1552,4156,1553,3234,3220,3236,4080,4088,1553,3240,3210,3236,1557,2448,1558,1559,2856,2846,2861,4108,1554,2448,2432,2432,2432,2432,2432,2432,2434,2468,1552,1553,2910,3240,3208,3224,4080,4066,4100,1553,3240,3238,1557,2448,1558,1559,2910,3246,4154,2862,1554,2448,2432,2432,2432,2432,2432,2432,2432,2456,1552,1553,1553,1553,3240,3238,4104,4092,4102,1553,1553,1553,1557,2448,1558,1559,2859,2861,4156,2910,3246,2472,2440,2432,2432,2432,2432,2432,2432,2456,1552,1553,1553,1553,1553,1553,3242,1553,1553,1553,1553,1553,1557,2448,1558,1559,3234,3236,2851,2861,1564,1562,2448,2432,2432,2432,2432,2432,2432,2456,1552,3234,3236,1553,4154,3234,3203,3236,4158,1553,2910,1553,1557,2448,1558,1559,3240,3238,2860,3246,1554,1570,2448,2432,2432,2432,2432,2432,2432,2456,1552,3240,3238,4146,4138,3216,3204,3238,1553,1553,3234,3236,1557,2448,1558,1559,2859,2853,2910,2858,1554,2466,2433,2432,2432,2432,2432,2432,2432,2456,1552,1553,1553,4152,4150,3240,3238,1553,1553,1553,3216,3224,1557,2448,1558,1559,2910,2857,2839,2855,1554,2448,2432,2432,2432,2432,2432,2432,2432,2456,1552,1553,1553,1553,1553,1553,1553,1553,2910,1553,3240,3225,1557,2448,1558,1559,2862,3246,2848,3246,1554,2448,2432,2432,2432,2432,2432,2432,2436,2470,1555,2910,1553,3234,3236,1553,1553,1553,1553,1553,2910,3244,1557,2448,1558,1559,3242,2851,2847,2853,1554,2448,2432,2432,2432,2432,2432,2432,2456,1552,1553,1553,3234,3205,3238,1553,1553,3246,1553,1553,1553,1553,1557,2448,1558,1559,3232,2848,3246,2848,1554,2448,2432,2432,2432,2432,2432,2436,2470,1555,4146,4148,3240,3238,1553,1553,4146,4148,2910,1553,1553,1553,1557,2448,1558,1559,3232,2860,4106,2860,1554,2448,2432,2432,2432,2432,2432,2456,1552,1553,4152,4150,1553,1553,1553,1553,4152,4150,1553,1553,3234,3236,1557,2448,1558,1559,3244,4098,4090,2910,1554,2448,2432,2432,2432,2432,2432,2456,1552,1553,1553,1553,1553,1553,4098,4100,1553,1553,1553,3243,3229,3225,1557,2448,1558,1559,2862,4104,4102,2862,1554,2448,2432,2432,2432,2432,2432,2456,1552,1553,2910,1553,3242,1553,4080,4066,4100,1553,1553,1553,1553,3244,1557,2448,1558,1559,3234,3236,2858,1564,1562,2448,2432,2432,2432,2432,2432,2456,1552,1553,1553,3243,3239,1553,4080,4064,4088,1553,1553,1553,1553,1553,1557,2448,1558,1559,3218,3238,2848,1554,1570,2448,2432,2432,2432,2432,2432,2456,1552,1553,1553,1553,1553,1553,4104,4092,4102,3242,1553,2910,1553,1553,1557,2448,1558,1559,3232,2851,2855,1554,2466,2433,2432,2432,2432,2432,2436,2470,1555,3234,3220,3236,1553,1553,1553,1553,3234,3226,1553,1553,3234,3236,1557,2472,1566,1567,3244,2848,2910,1554,2448,2432,2432,2432,2432,2432,2456,1552,1553,3240,3208,3224,1553,1553,1553,1553,3240,3238,1553,1553,3216,3224,1565,1566,1569,1570,2859,2855,3246,1554,2448,2432,2432,2432,2432,2432,2456,1552,1553,1553,3240,3238,1553,1553,2910,4098,4084,4100,1553,3234,3205,3238,1568,1569,1595,1578,1561,1561,1561,1562,2448,2432,2432,2432,2432,2432,2456,1560,1561,1553,1553,1553,1553,1553,1553,4104,4092,4102,1553,3240,3238,1561,1569,1569,1569,1569,1569,1569,1569,1570,2448,2432,2432,2432,2432,2432,2456,1568,1569,1560,1553,4146,4148,1553,3234,3236,1553,1553,3246,1553,1554,1569,1569,1584,1569,1569,1569,1569,1569,1570,2289,2288,2288,2288,2288,2288,2290,1568,1569,1568,1560,4152,4150,3243,3229,3238,1553,1561,1561,1561,1562,1569,1569,1592,2852,2910,3246,2862,1554,1570,2289,2288,2288,2288,2288,2288,2290,1568,1569,1568,1568,1560,1561,1561,1561,1561,1562,1569,1569,1569,1570,1569,1569,1569,2854,3246,1564,1561,1562,1570,2289,2288,2288,2288,2288,2288,2290,1568,1584,1568,1568,1568,1569,1569,1569,1569,1570,1569,1569,1569,1570,1569,1569,1569,1561,1561,1562,1569,1570,1570,2289,2288,2288,2288,2288,2288,2290,1568,1592,1568,1568,1568,1569,1569,1569,1595,1570,1569,1569,1569,1570,1569,1569,1595,1569,1569,1570,1595,1570,1570,2289,2288,2288,2288,2288,2288,2290,1568,1569,1568,1568,1568,1569,1569,1569,1569,1570,1584,1569,1569,1570,1569,1569,1569,1569,1569,1570,1569,1570,1570,2289,2288,2288,2288,2288,2288,2290,1568,1569,1568,1568,1568,1569,1569,1569,1569,1570,1592,1569,1569,1570,1584,1569,1569,1569,1569,1570,1584,1570,1570,2289,2288,2288,2288,2288,2288,2290,1568,1595,1568,1568,1568,1569,1584,1569,1569,1570,1569,1595,1584,1570,1592,1569,1569,1569,1595,1570,1592,1570,1570,2289,2288,2288,2288,2288,2288,2290,1568,1569,1568,1568,1568,1595,1592,1569,1569,1570,1569,1569,1592,1570,1569,1595,1569,0,0,0,0,0,0,0,0,0,0,0,0,0,0,0,0,0,0,0,0,0,0,0,0,0,0,0,0,0,0,0,0,0,0,0,0,0,0,0,0,0,0,0,0,0,0,0,0,0,0,0,0,0,0,0,0,0,0,0,0,0,0,0,0,0,0,0,0,0,0,0,0,0,0,0,0,0,0,0,0,0,0,0,0,0,0,0,0,0,0,0,0,0,0,0,0,0,0,0,0,0,0,0,0,0,0,0,0,0,0,0,0,0,0,0,0,0,0,0,0,0,0,0,0,0,0,0,0,0,0,0,0,0,0,0,0,0,0,0,0,0,0,0,0,0,0,0,0,0,0,0,0,0,0,0,0,0,0,0,0,0,0,0,0,0,0,0,0,0,0,0,0,0,0,0,0,0,0,0,0,0,0,0,0,0,0,0,0,0,0,0,0,0,0,0,0,0,0,0,0,0,0,0,0,0,0,0,0,0,0,0,0,0,0,0,0,0,0,0,0,0,0,0,0,0,0,0,0,0,0,0,0,0,0,0,0,0,0,0,0,0,0,0,0,0,0,0,0,0,0,0,0,0,0,0,0,0,0,0,0,0,0,0,0,3819,3821,0,0,0,0,0,0,0,0,0,0,0,0,0,0,0,0,0,0,0,0,0,0,0,0,0,0,0,0,0,0,0,0,0,0,0,0,0,0,0,0,0,0,0,0,0,0,0,0,0,0,0,0,0,0,0,0,0,0,0,0,0,0,0,0,0,0,3818,0,0,0,0,0,0,0,0,0,0,0,0,0,0,0,0,0,0,0,0,0,0,0,0,0,0,0,0,0,3808,0,0,0,0,0,0,0,0,0,0,0,0,0,0,0,0,0,0,0,0,0,0,0,0,0,0,0,0,0,3820,0,0,0,0,0,0,0,0,0,0,0,0,0,0,0,0,0,0,0,0,0,0,0,0,3818,0,0,0,0,0,0,0,0,0,0,0,0,0,0,0,0,0,0,0,0,0,0,0,0,0,0,0,0,0,3808,0,0,0,0,0,0,0,0,0,0,0,0,0,0,0,0,0,0,0,0,0,0,0,0,0,0,0,0,0,3820,0,0,0,0,0,0,0,0,0,0,0,0,0,0,0,0,0,0,0,0,0,0,0,0,0,0,0,0,0,0,0,0,0,0,0,0,0,0,0,0,0,0,0,0,0,0,0,0,0,0,0,0,0,0,0,0,0,0,0,0,0,0,0,0,0,0,0,0,0,0,0,0,0,0,0,0,0,0,0,0,0,0,0,0,0,0,0,0,0,0,0,0,0,0,0,0,0,0,0,0,0,0,0,0,0,0,0,0,0,0,0,0,0,0,0,0,0,0,0,0,0,0,0,0,0,0,0,0,0,0,0,0,0,0,0,0,0,0,0,0,0,0,0,0,0,0,0,0,0,3818,0,0,0,0,0,0,0,0,0,0,0,0,0,0,0,0,0,0,0,0,0,0,0,0,0,0,0,0,0,3820,0,0,0,0,0,0,0,0,0,0,0,0,0,0,0,0,0,0,0,0,0,0,0,0,0,0,0,0,0,0,0,0,0,0,0,0,0,0,0,0,0,0,0,0,0,0,0,0,0,0,0,0,0,0,0,0,0,0,0,0,0,0,0,0,0,0,0,0,0,0,0,0,0,0,0,0,0,0,0,0,0,0,0,0,0,0,0,0,0,0,0,0,0,0,0,0,0,0,0,0,0,0,0,0,0,0,0,0,0,0,0,0,0,0,0,0,0,0,0,0,0,0,0,0,0,0,0,0,0,0,0,0,0,0,0,0,0,0,0,0,0,0,0,0,0,0,0,0,0,0,0,0,0,0,0,0,0,0,0,0,0,0,0,0,0,0,0,0,0,0,0,0,0,0,0,0,0,0,0,0,0,0,0,0,0,0,0,0,0,0,0,0,0,0,0,0,0,0,0,0,0,0,0,0,0,0,0,0,0,0,0,0,0,0,0,0,0,0,0,0,0,0,0,0,0,0,0,0,0,0,0,0,0,0,0,0,0,0,0,0,0,0,0,0,0,0,0,0,0,0,0,0,0,0,0,0,0,0,0,0,0,0,0,0,0,0,0,0,0,0,0,0,0,0,0,0,0,0,0,0,0,0,0,0,0,0,0,0,0,0,0,0,0,0,0,0,0,0,0,0,0,0,0,0,0,0,0,0,0,0,0,0,0,0,0,0,0,0,0,0,0,0,0,0,0,0,3819,3809,3821,0,0,0,0,0,0,0,0,0,0,0,0,0,0,0,0,0,0,0,0,0,0,0,0,0,0,0,0,0,0,0,0,0,0,0,0,0,0,0,0,0,0,0,0,0,0,0,0,0,0,0,0,0,0,0,0,0,0,0,0,0,0,0,0,0,0,0,0,0,0,0,0,0,0,0,0,0,0,0,0,0,0,0,0,0,0,0,0,0,0,0,0,0,0,0,0,0,0,0,0,0,0,0,0,0,0,0,0,0,0,0,0,0,0,0,0,0,0,0,0,0,0,0,0,0,0,0,0,0,0,0,0,0,0,0,0,0,0,0,0,0,0,0,0,0,0,0,0,0,0,0,0,0,0,0,0,0,0,0,0,0,0,0,0,0,0,0,0,0,0,0,0,0,0,0,0,0,0,0,0,0,0,0,0,0,0,0,0,0,0,0,0,0,0,0,0,0,0,0,0,0,0,0,0,0,0,0,0,0,0,0,0,0,0,0,0,0,0,0,0,0,0,0,0,0,0,0,0,0,0,0,0,0,0,0,0,0,0,0,0,0,0,0,0,0,0,0,0,0,0,0,0,0,0,0,0,0,0,0,0,0,0,0,0,0,0,0,0,0,0,0,0,0,0,0,0,0,0,0,0,0,0,0,0,0,0,0,0,0,0,0,0,0,0,0,0,0,0,0,0,0,0,0,0,0,0,0,0,0,0,0,0,0,0,0,0,0,0,0,0,0,0,0,0,0,0,0,0,0,0,0,0,0,0,0,0,0,0,0,0,0,0,0,0,0,0,0,0,0,0,0,0,0,0,0,0,0,0,0,0,0,0,0,0,0,0,0,0,0,0,82,0,0,0,0,0,0,0,0,0,0,0,0,0,0,0,0,0,0,0,0,0,0,0,0,0,0,0,0,0,0,0,0,0,0,0,0,0,0,0,0,0,0,0,0,0,0,0,0,0,0,0,0,0,0,0,0,0,0,0,0,0,0,0,0,0,0,0,0,0,0,80,0,0,0,0,0,0,0,0,0,0,0,0,0,0,0,0,0,0,0,0,0,0,0,0,0,0,0,0,17,0,0,0,0,0,0,0,0,80,0,0,0,0,0,0,0,0,0,0,0,0,0,0,0,0,0,0,0,0,0,0,0,0,0,0,0,0,0,20,0,0,0,0,0,0,0,0,0,0,0,0,0,0,0,0,0,0,0,0,0,0,0,0,0,0,0,0,0,0,0,0,0,0,0,0,0,0,0,0,0,0,0,0,0,0,0,0,0,0,0,0,0,0,0,0,0,0,0,0,0,0,0,0,0,0,0,0,0,0,0,0,0,0,0,0,0,0,0,0,0,0,0,0,0,0,0,0,0,0,0,0,0,0,0,0,0,0,0,0,0,0,0,0,0,0,0,0,0,0,0,0,0,0,0,0,0,0,0,0,0,0,0,0,0,0,0,0,0,0,26,0,0,0,0,0,0,0,0,0,0,0,0,0,0,0,0,0,18,0,0,0,0,0,0,0,0,0,0,0,0,0,0,0,0,0,0,0,0,0,0,17,0,0,0,0,0,0,0,0,0,0,0,0,0,0,0,0,0,0,0,0,0,0,0,0,0,0,0,0,0,0,0,0,0,0,0,0,0,0,0,0,0,0,0,0,0,0,18,0,0,0,0,0,0,0,0,0,0,0,0,0,0,0,0,0,0,0,0,0,0,0,0,0,0,0,0,0,0,0,0,0,0,0,0,0,0,0,0,0,0,0,0,0,0,0,0,0,0,0,0,0,0,0,0,0,0,0,0,0,0,0,0,0,0,0,0,0,24,0,0,0,0,0,0,0,0,0,0,0,0,0,0,0,0,0,0,0,0,0,0,0,0,0,0,0,0,0,0,0,0,0,0,0,0,0,0,0,0,0,0,0,0,0,0,0,0,0,0,0,0,0,0,0,0,0,0,24,0,0,0,0,0,0,0,0,0,0,0,0,0,0,0,0,0,0,0,0,0,0,0,0,0,0,0,0,0,0,0,0,0,0,0,0,0,0,0,0,0,0,0,0,0,0,0,0,0,0,0,568,569,569,569,569,569,569,569,570,0,0,0,0,0,0,0,0,0,0,0,0,0,0,0,0,0,0,0,0,0,0,0,0,0,0,0,0,0,0,0,0,0,0,0,0,0,0,0,0,0,0,0,0,0,0,0,0,0,0,0,0,0,0,0,0,0,0,0,0,0,0,0,0,0,0,0,0,0,0,0,0,0,0,0,0,0,0,0,0,0,0,0,0,0,0,0,0,0,0,0,0,0,0,0,0,0,0,0,0,0,19,0,0,0,0,0,0,0,0,0,0,0,0,0,0,0,0,0,0,0,0,0,0,0,0,0,0,0,0,0,0,0,0,0,0,0,0,0,0,0,0,0,0,0,0,0,0,0,0,0,0,0,0,0,0,0,0,0,0,0,0,0,0,0,0,0,0,0,0,0,0,0,0,0,0,0,0,0,0,0,0,0,0,0,0,0,0,0,0,0,0,0,0,0,0,0,0,0,0,0,0,0,0,0,0,0,0,0,0,0,0,0,0,0,0,0,0,0,0,0,0,0,0,0,0,0,0,0,0,0,0,0,0,0,0,0,0,0,0,0,0,0,0,0,0,0,0,0,0,0,0,0,0,0,0,0,0,0,0,0,0,0,0,0,0,0,0,0,0,0,0,0,0,0,0,0,0,0,0,0,0,0,0,0,0,0,0,0,0,0,0,0,0,0,0,0,0,0,0,0,0,0,0,0,0,0,0,0,0,0,0,0,0,0,0,0,0,0,0,0,0,0,0,0,0,0,0,0,0,0,0,0,0,0,0,0,0,0,0,0,0,0,0,0,0,0,0,0,0,0,0,0,0,0,0,0,0,0,0,0,0,0,0,0,0,0,0,0,0,0,0,0,0,0,0,0,0,0,0,0,0,0,0,0,0,0,0,0,0,0,0,0,0,0,0,0,0,0,0,0,0,0,0,0,0,0,0,0,0,0,0,0,0,0,0,0,0,0,0,0,0,0,0,0,0,0,0,0,0,0,0,0,0,0,0,0,0,0,0,0,0,0,0,0,0,0,0,0,0,0,0,0,0,0,0,0,0,0,0,0,0,0,0,0,0,0,0,0,0,0,0,0,0,0,0,0,0,0,0,0,0,0,0,0,0,0,0,0,0,0,0,0,0,0,0,0,0,0,0,0,0,57,57,57,57,57,57,57,57,57,57,57,57,57,57,57,57,57,57,57,57,57,57,57,0,0,0,0,0,0,0,57,57,57,57,57,57,57,57,57,57,57,57,57,57,57,57,57,57,57,57,57,57,57,0,0,0,0,0,0,0,112,113,114,114,114,114,115,116,57,57,57,57,57,57,57,57,57,57,57,57,57,57,57,0,0,0,0,0,60,0,66,121,122,122,122,122,123,64,0,0,0,57,57,57,57,57,57,57,57,57,57,57,57,0,0,60,0,0,0,0,74,0,0,0,0,0,0,72,0,0,64,0,57,0,0,0,0,0,57,57,57,57,57,0,60,0,0,0,0,0,5,0,0,0,0,0,0,80,0,5,72,64,0,0,0,0,0,64,0,0,57,57,57,0,0,0,0,0,9,10,13,0,0,0,0,0,0,0,0,13,80,72,0,0,0,0,0,72,0,64,0,57,57,0,0,11,12,3,17,18,0,0,0,0,0,0,0,0,0,21,9,10,5,4,109,110,111,80,0,72,0,57,57,0,0,19,20,5,0,4,0,0,0,0,0,0,0,40,0,1,5,18,13,0,1,0,5,0,11,12,64,0,57,0,0,4,0,13,1,0,0,0,0,0,0,0,0,0,0,0,13,11,12,3,0,0,13,0,19,5,72,0,57,0,0,0,0,0,0,0,0,0,0,0,0,0,0,0,0,0,3,19,20,0,0,0,0,0,21,13,80,0,57,0,0,0,2,0,0,0,42,0,0,0,0,0,0,0,0,0,0,0,4,0,0,0,0,1,0,11,12,0,57,0,0,0,1,0,0,0,0,0,0,0,0,0,0,0,40,5,0,0,0,0,0,0,0,0,21,19,20,0,57,0,0,0,5,0,0,0,5,0,0,0,0,0,0,0,0,13,0,0,0,0,0,0,0,9,10,4,0,0,57,0,0,0,13,0,0,0,13,0,0,0,0,0,0,0,0,0,4,9,10,0,0,0,0,17,5,0,0,0,57,0,0,0,0,0,0,4,0,0,0,0,0,0,0,0,0,0,11,12,18,0,0,0,3,0,13,0,0,0,57,0,0,21,0,9,10,3,0,0,0,0,0,0,0,0,0,0,19,20,0,5,0,0,0,0,1,0,0,0,57,0,0,0,0,17,11,12,42,0,0,0,0,0,0,0,0,0,5,0,3,13,0,0,0,0,0,0,0,0,57,0,0,5,0,1,19,20,0,0,0,0,0,0,0,0,5,0,13,1,0,0,0,0,0,0,0,0,0,0,57,0,0,13,0,0,4,5,0,0,0,0,0,0,0,0,13,0,0,0,0,0,0,0,0,0,0,0,0,0,57,0,0,0,0,0,0,13,0,0,0,0,0,0,0,0,0,0,0,0,0,0,0,0,0,0,0,0,0,0,57,0,0,0,0,0,0,552,553,553,553,553,553,553,553,554,0,0,0,0,0,0,0,0,0,5,0,4,0,0,57,0,0,0,2,0,0,560,561,561,561,561,561,561,561,562,0,0,0,0,0,0,0,0,0,13,9,10,0,0,57,0,0,0,0,0,0,576,577,577,577,577,577,577,577,578,0,0,0,0,0,0,0,0,0,0,17,18,3,0,57,0,0,0,0,0,0,584,585,585,585,585,585,585,585,586,0,0,0,0,0,0,0,0,0,1,4,0,21,0,57,0,0,0,0,1,0,0,0,0,0,0,0,0,0,0,1,0,0,0,0,0,0,0,0,0,0,11,12,0,57,0,0,21,0,0,0,0,0,0,0,0,0,0,0,21,0,4,0,0,0,0,0,0,0,0,0,5,20,0,57,0,0,5,0,0,0,42,0,0,0,0,0,0,24,11,12,0,0,0,0,0,0,0,0,0,0,13,0,0,57,0,0,13,0,0,0,0,0,0,0,0,0,0,0,19,20,5,0,0,0,0,0,0,0,0,0,0,5,0,0,0,0,0,0,0,0,0,0,0,0,0,0,0,0,5,4,13,0,0,0,0,0,0,0,0,0,0,13,0,0,0,0,0,199,1,0,0,0,0,0,0,0,0,0,13,1,0,0,0,0,0,0,0,0,0,0,0,0,0,0,0,0,0,207,0,0,0,0,0,0,0,0,0,0,0,0,0,0,0,0,0,0,0,0,0,0,0,0,0,0,0,0,0,215,5,0,0,0,0,0,0,0,0,0,0,0,0,0,0,0,0,0,5,0,0,0,0,0,0,0,0,0,0,0,13,0,0,0,0,0,0,0,0,0,0,0,0,0,0,0,0,0,13,0,0,0,0,0,0,0,0,0,5,0,0,0,0,0,0,0,0,0,0,0,0,0,0,0,0,0,0,0,0,0,0,0,0,0,0,0,0,0,13,0,0,0,0,0,0,0,0,0,0,0,0,0,0,0,0,0,0,0,0,0,0,0,0,0,0,0,0,0,0,0,0,0,0,0,0,0,0,0,0,0,0,0,0,0,0,0,0,0,0,0,0,0,0,0,0,0,0,0,0,0,0,0,0,0,0,0,0,0,0,0,0,0,0,0,0,0,0,0,0,0,0,0,0,0,0,0,0,0,0,0,0,0,0,0,0,0,0,0,0,0,0,0,0,0,0,0,0,0,0,0,0,0,0,0,0,0,0,0,0,0,0,0,0,0,0,0,0,0,0,0,0,0,0,0,0,0,0,0,0,0,0,0,0,0,0,0,0,0,0,0,0,0,0,0,0,0,0,0,0,0,0,0,0,0,0,0,0,0,0,0,0,0,0,0,0,0,0,0,0,0,0,0,0,0,0,0,0,0,0,0,0,0,0,0,0,0,0,0,0,0,0,0,0,0,0,0,0,0,0,0,0,0,0,0,0,0,0,0,0,0,0,0,0,0,0,0,0,0,0,0,0,0,0,0,0,0,0,0,0,0,0,0,0,0,0,0,0,0,0,0,0,0,0,0,0,0,0,0,0,0,0,0,0,0,0,0,0,0,0,0,0,0,0,0,0,0,0,0,0,0,0,0,0,0,0,0,0,0,0,0,0,0,0,0,0,0,0,0,0,0,0,0,0,0,0,0,0,0,0,0,0,0,0,0,0,0,0,0,0,0,0,0,0,0,0,0,0,0,0,0,0,0,0,0,0,0,0,0,0,0,0,0,0,0,0,0,0,0,0,0,0,0,0,0,0,0,0,0,0,0,0,0,0,0,0,0,0,0,0,0,0,0,0,0,0,0,0,0,0,0,0,0,0,0,0,0,0,0,0,0,0,0,0,0,0,0,0,0,0,0,0,0,0,0,0,0,0,0,0,0,0,0,0,0,0,0,0,0,0,0,0,0,0,0,0,0,0,0,0,0,0,0,0,0,0,0,0,0,0,0,0,0,0,0,0,0,0,0,0,0,0,0,0,0,0,0,0,0,0,0,0,0,0,0,0,0,0,0,0,0,0,0,0,0,0,0,0,0,0,0,0,0,0,0,0,0,0,0,0,0,0,0,0,0,0,0,0,0,0,0,0,0,0,0,0,0,0,0,0,0,0,0,0,0,0,0,0,0,0,0,0,0,0,0,0,0,0,0,0,0,0,0,0,0,0,0,0,0,0,0,0,0,0,0,0,0,0,0,0,0,0,0,0,0,0,0,0,0,0,0,0,0,0,0,0,0,0,0,0,0,0,0,0,0,0,0,0,0,0,0,0,0,0,0,0,0,0,0,0,0,0,0,0,0,0,0,0,0,0,0,0,0,0,0,0,0,0,0,0,0,0,0,0,0,0,0,0,0,0,0,0,0,0,0,0,0,0,0,0,0,0,0,0,0,0,0,0,0,0,0,0,0,0,0,0,0,0,0,0,0,0,0,0,0,0,0,0,0,0,0,0,0,0,0,0,0,0,0,0,0,0,0,0,0,0,0,0,0,0,0,0,0,0,0,0,0,0,0,0,0,0,0,0,0,0,0,0,0,0,0,0,0,0,0,0,0,0,0,0,0,0,0,0,0,0,0,0,0,0,0,0,0,0,0,0,0,0,0,0,0,0,0,0,0,0,0,0,0,0,0,0,0,0,0,0,0,0,0,0,0,0,0,0,0,0,0,0,0,0,0,0,0,0,0,0,0,0,0,0,0,0,0,0,0,0,0,0,0,0,0,0,0,0,0,0,0,0,0,0,0,0,0,0,0,0,0,0,0,0,0,0,0,0,0,0,0,0,0,0,0,0,0,0,0,0,0,0,0,0,0,0,0,0,0,0,0,0,0,0,0,0,0,0,0,0,0,0,0,0,0,0,0,0,0,0,0,0,0,0,0,0,0,0,0,0,0,0,0,0,0,0,0,0,0,0,0,0,0,0,0,0,0,0,0,0,0,0,0,0,0,0,0,0,0,0,0,0,0,0,0,0,0,0,0,0,0,0,0,0,0,0,0,0,0,0,0,0,0,0,0,0,0,0,0,0,0,0,0,0,0,0,0,0,0,0,0,0,0,0,0,0,0,0,0,0,0,0,0,0,0,0,0,0,0,0,0,0,0,0,0,0,0,0,0,0,0,0,0,0,0,0,0,0,0,0,0,0,0,0,0,0,0,0,0,0,0,0,0,0,0,0,0,0,0,0,0,0,0,0,0,0,0,0,0,0,0,0,0,0,0,0,0,0,0,0,0,0,0,0,0,0,0,0,0,0,0,0,0,0,0,0,0,0,0,0,0,0,0,0,0,0,0,0,0,0,0,0,0,0,0,0,0,0,0,0,0,0,0,0,0,0,0,0,0,0,0,0,0,0,0,0,0,0,0,0,0,0,0,0,0,0,0,0,0,0,0,0,0,0,0,0,0,0,0,0,0,0,0,0,0,0,0,0,0,0,0,0,0,0,0,0,0,0,0,0,0,0,0,0,0,0,0,0,0,0,0,0,0,0,0,0,0,0,0,0,0,0,0,0,0,0,0,0,0,0,0,0,0,0,0,0,0,0,0,0,0,0,0,0,0,0,0,0,0,0,0,0,0,0,0,0,0,0,0,0,0,0,0,0,0,0,0,0,0,0,0,0,0,0,0,0,0,0,0,0,0,0,0,0,0,0,0,0,0,0,0,0,0,0,0,0,0,0,0,0,0,0,0,0,0,0,0,0,0,0,0,0,0,0,0,0,0,0,0,0,0,0,0,0,0,0,0,0,0,0,0,0,0,0,0,0,0,0,0,0,0,0,0,0,0,0,0,0,0,0,0,0,0,0,0,0,0,0,0,0,0,0,0,0,0,0,0,0,0,0,0,0,0,0,0,0,0,0,0,0,0,0,0,0,0,0,0,0,0,0,0,0,0,0,0,0,0,0,0,0,0,0,0,0,0,0,0,0,0,0,0,0,0,0,0,0,0,0,0,0,0,0,0,0,0,0,0,0,0,0,0,0,0,0,0,0,0,0,0,0,0,0,0,0,0,0,0,0,0,0,0,0,0,0,0,0,0,0,0,0,0,0,0,0,0,0,0,0,0,0,0,0,0,0,0,0,0,0,0,0,0,0,0,0,0,0,0,0,0,0,0,0,0,0,0,0,0,0,0,0,0,0,0,0,0,0,0,0,0,0,0,0,0,0,0,0,0,0,0,0,0,0,0,0,0,0,0,0,0,0,0,0,0,0,0,0,0,0,0,0,0,0,0,0,0,0,0,0,0,0,0,0,0,0,0,0,0,0,0,0,0,0,0,0,0,0,0,0,0,0,0,0,0,0,0,0,0,0,0,0,0,0,0,0,0,0,0,0,0,0,0,0,0,0,0,0,0,0,0,0,0,0,0,0,0,0,0,0,0,0,0,0,0,0,0,0,0,0,0,0,0,0,0,0,0,0,0,0,0,0,0,0,0,0,0,0,0,0,0,0,0,0,0,0,0,0,0,0,0,0,0,0,0,0,0,0,0,0,0,0,0,0,0,0,0,0,0,0,0,0,0,0,0,0,0,0,0,0,0,0,0,0,0,0,0,0,0,0,0,0,0,0,0,0,0,0,0,0,0,0,0,0,0,0,0,0,0,0,0,0,0,0,0,0,0,0,0,0,0,0,0,0,0,0,0,0,0,0,0,0,0,0,0,0,0,0,0,0,0,0,0,0,0,0,0,0,0,0,0,0,0,0,0,0,0,0,0,0,0,0,0,0,0,0,0,0,0,0,0,0,0,0,0,0,0,0,0,0,0,0,0,0,0,0,0,0,0,0,0,0,0,0,0,0,0,0,0,0,0,0,0,0,0,0,0,0,0,0,0,0,0,0,0,0,0,0,0,0,0,0,0,0,0,0,0,0,0,0,0,0,0,0,0,0,0,0,0,0,0,0,0,0,0,0,0,0,0,0,0,0,0,0,0,0,0,0,0,0,0,0,0,0,0,0,0,0,0,0,0,0,0,0,0,0,0,0,0,0,0,0,0,0,0,0,0,0,0,0,0,0,0,0,0,0,0,0,0,0,0,0,0,0,0,0,0,0,0,0,0,0,0,0,0,0,0,0,0,0,0,0,0,0,0,0,0,0,0,0,0,0,0,0,0,0,0,0,0,0,0,0,0,0,0,0,0,0,0,0,0,0,0,0,0,0,0,0,0,0,0,0,0,0,0,0,0,0,0,0,0,0,0,0,0,0,0,0,0,0,0,0,0,0,0,0,0,0,0,0,0,0,0,0,0,0,0,0,0,0,0,0,0,0,0,0,0,0,0,0,0,0,0,0,0,0,0,0,0,0,0,0,0,0,0,0,0,0,0,0,0,0,0,0,0,0,0,0,0,0,0,0,0,0,0,0,0,0,0,0,0,0,0,0,0,0,0,0,0,0,0,0,0,0,0,0,0,0,0,0,0,0,0,0,0,0,0,0,0,0,0,0,0,0,0,0,0,0,0,0,0,0,0,0,0,0,0,0,0,0,0,0,0,0,0,0,0,0,0,0,0,0,0,0,0,0,0,0,0,0,0,0,0,0,0,0,0,0,0,0,0,0,0,0,0,0,0,0,0,0,0,0,0,0,0,0,0,0,0,0,0,0,0,0,0,0,0,0,0,0,0,0,0,0,0,0,0,0,0,0,0,0,0,0,0,0,0,0,0,0,0,0,0,0,0,0,0,0,0,0,0,0,0,0,0,0,0,0,0,0,0,0,0,0,0,0,0,0,0,0,0,0,0,0,0,0,0,0,0,0,0,0,0,0,0,0,0,0,0,0,0,0,0,0,0,0,0,0,0,0,0,0,0,0,0,0,0,0,0,0,0,0,0,0,0,0,0,0,0,0,0,0,0,0,0,0,0,0,0,0,0,0,0,0,0,0,0,0,0,0,0,0,0,0,0,0,0,0,0,0,0,0,0,0,0,0,0,0,0,0,0,0,0,0,0,0,0,0,0,0,0,0,0,0,0,0,0,0,0,0,0,0,0,0,0,0,0,0,0,0,0,0,0,0,0,0,0,0,0,0,0,0,0,0,0,0,0,0,0,0,0,0,0,0,0,0,0,0,0,0,0,0,0,0,0,0,0,0,0,0,0,0,0,0,0,0,0,0,0,0,0,0,0,0,0,0,0,0,0,0,0,0,0,0,0,0,0,0,0,0,0,0,0,0,0,0,0,0,0,0,0,0,0,0,0,0,0,0,0,0,0,0,0,0,0,0,0,0,0,0,0,0,0,0,0,0,0,0,0,0,0,0,0,0,0,0,0,0,0,0,0,0,0,0,0,0,0,0,0,0,0,0,0,0,0,0,0,0,0,0,0,0,0,0,0,0,0,0,0,0,0,0,0,0,0,0,0,0,0,0,0,0,0,0,0,0,0,0,0,0,0,0,0,0,0,0,0,0,0,0,0,0,0,0,0,0,0,0,0,0,0,0,0,0,0,0,0,0,0,0,0,0,0,0,0,0,0,0,0,0,0,0,0,0,0,0,0,0,0,0,0,0,0,0,0,0,0,0,0,0,0,0,0,0,0,0,0,0,0,0,0,0,0,0,0,0,0,0,0,0,0,0,0,0,0,0,0,0,0,0,0,0,0,0,0,0,0,0,0,0,0,0,0,0,0,0,0,0,0,0,0,0,0,0,0,0,0,0,0,0,0,0,0,0,0,0,0,0,0,0,0,0,0,0,0,0,0,0,0,0,0,0,0],
"events":[
null,
{"id":1,"name":"Admission process","note":"","pages":[{"conditions":{"actorId":1,"actorValid":false,"itemId":1,"itemValid":false,"selfSwitchCh":"A","selfSwitchValid":false,"switch1Id":1,"switch1Valid":false,"switch2Id":1,"switch2Valid":false,"variableId":1,"variableValid":false,"variableValue":0},"directionFix":false,"image":{"characterIndex":0,"characterName":"","direction":2,"pattern":0,"tileId":0},"list":[{"code":245,"indent":0,"parameters":[{"name":"Waterfall1","volume":90,"pitch":100,"pan":0}]},{"code":214,"indent":0,"parameters":[]},{"code":0,"indent":0,"parameters":[]}],"moveFrequency":3,"moveRoute":{"list":[{"code":0,"parameters":[]}],"repeat":true,"skippable":false,"wait":false},"moveSpeed":3,"moveType":0,"priorityType":0,"stepAnime":false,"through":false,"trigger":3,"walkAnime":true}],"x":0,"y":27},
{"id":2,"name":"場所移動","note":"","pages":[{"conditions":{"actorId":1,"actorValid":false,"itemId":1,"itemValid":false,"selfSwitchCh":"A","selfSwitchValid":false,"switch1Id":1,"switch1Valid":false,"switch2Id":1,"switch2Valid":false,"variableId":1,"variableValid":false,"variableValue":0},"directionFix":false,"image":{"characterIndex":0,"characterName":"","direction":2,"pattern":0,"tileId":0},"list":[{"code":250,"indent":0,"parameters":[{"name":"Move1","pan":0,"pitch":100,"volume":90}]},{"code":201,"indent":0,"parameters":[0,3,11,5,0,0]},{"code":223,"indent":0,"parameters":[[0,0,0,0],1,false]},{"code":0,"indent":0,"parameters":[]}],"moveFrequency":3,"moveRoute":{"list":[{"code":0,"parameters":[]}],"repeat":true,"skippable":false,"wait":false},"moveSpeed":3,"moveType":0,"priorityType":0,"stepAnime":false,"through":false,"trigger":1,"walkAnime":true}],"x":0,"y":33},
{"id":3,"name":"場所移動","note":"","pages":[{"conditions":{"actorId":1,"actorValid":false,"itemId":1,"itemValid":false,"selfSwitchCh":"A","selfSwitchValid":false,"switch1Id":1,"switch1Valid":false,"switch2Id":1,"switch2Valid":false,"variableId":1,"variableValid":false,"variableValue":0},"directionFix":false,"image":{"characterIndex":0,"characterName":"","direction":2,"pattern":0,"tileId":0},"list":[{"code":250,"indent":0,"parameters":[{"name":"Move1","pan":0,"pitch":100,"volume":90}]},{"code":201,"indent":0,"parameters":[0,3,11,5,0,0]},{"code":223,"indent":0,"parameters":[[0,0,0,0],1,false]},{"code":0,"indent":0,"parameters":[]}],"moveFrequency":3,"moveRoute":{"list":[{"code":0,"parameters":[]}],"repeat":true,"skippable":false,"wait":false},"moveSpeed":3,"moveType":0,"priorityType":0,"stepAnime":false,"through":false,"trigger":1,"walkAnime":true}],"x":0,"y":34},
{"id":4,"name":"場所移動","note":"","pages":[{"conditions":{"actorId":1,"actorValid":false,"itemId":1,"itemValid":false,"selfSwitchCh":"A","selfSwitchValid":false,"switch1Id":1,"switch1Valid":false,"switch2Id":1,"switch2Valid":false,"variableId":1,"variableValid":false,"variableValue":0},"directionFix":false,"image":{"characterIndex":0,"characterName":"","direction":2,"pattern":0,"tileId":0},"list":[{"code":250,"indent":0,"parameters":[{"name":"Move1","pan":0,"pitch":100,"volume":90}]},{"code":201,"indent":0,"parameters":[0,3,11,5,0,0]},{"code":223,"indent":0,"parameters":[[0,0,0,0],1,false]},{"code":0,"indent":0,"parameters":[]}],"moveFrequency":3,"moveRoute":{"list":[{"code":0,"parameters":[]}],"repeat":true,"skippable":false,"wait":false},"moveSpeed":3,"moveType":0,"priorityType":0,"stepAnime":false,"through":false,"trigger":1,"walkAnime":true}],"x":0,"y":35},
{"id":5,"name":"●手塚 (Day 7)","note":"","pages":[{"conditions":{"actorId":1,"actorValid":false,"itemId":1,"itemValid":false,"selfSwitchCh":"A","selfSwitchValid":false,"switch1Id":401,"switch1Valid":true,"switch2Id":1,"switch2Valid":false,"variableId":1,"variableValid":false,"variableValue":0},"directionFix":false,"image":{"tileId":0,"characterName":"others","direction":2,"pattern":1,"characterIndex":3},"list":[{"code":101,"indent":0,"parameters":["",0,0,2]},{"code":401,"indent":0,"parameters":["　手塚"]},{"code":401,"indent":0,"parameters":["「ご期待に沿える最高の舟が出来たよ!"]},{"code":401,"indent":0,"parameters":["　と言っても, ほとんど兒玉さんのおかげなんだけどね」"]},{"code":101,"indent":0,"parameters":["",0,0,2]},{"code":401,"indent":0,"parameters":["　手塚"]},{"code":401,"indent":0,"parameters":["「ここの紐を引くと中のスプリングが伸びて一気に空気が"]},{"code":401,"indent":0,"parameters":["　入るようになってるから1,000メートルを過ぎたあたりで"]},{"code":401,"indent":0,"parameters":["　……って, これは出発の時に説明した方が良いかな」"]},{"code":0,"indent":0,"parameters":[]}],"moveFrequency":3,"moveRoute":{"list":[{"code":0,"parameters":[]}],"repeat":true,"skippable":false,"wait":false},"moveSpeed":3,"moveType":0,"priorityType":1,"stepAnime":false,"through":false,"trigger":0,"walkAnime":true}],"x":24,"y":27},
{"id":6,"name":"●兒玉 (Day 7)","note":"","pages":[{"conditions":{"actorId":1,"actorValid":false,"itemId":1,"itemValid":false,"selfSwitchCh":"A","selfSwitchValid":false,"switch1Id":401,"switch1Valid":true,"switch2Id":1,"switch2Valid":false,"variableId":1,"variableValid":false,"variableValue":0},"directionFix":false,"image":{"tileId":0,"characterName":"others","direction":8,"pattern":1,"characterIndex":2},"list":[{"code":101,"indent":0,"parameters":["",0,0,2]},{"code":401,"indent":0,"parameters":["　兒玉"]},{"code":401,"indent":0,"parameters":["「手塚君を見てみろ, 若いのに目の隈が酷いったらない. "]},{"code":401,"indent":0,"parameters":["　私が若かった頃は……なに, 私の隈も酷いって?」"]},{"code":101,"indent":0,"parameters":["",0,0,2]},{"code":401,"indent":0,"parameters":["　兒玉"]},{"code":401,"indent":0,"parameters":["「こんなに1つのことに心血を注いだのは久しぶりだ. "]},{"code":401,"indent":0,"parameters":["　Dr. Ishidoもあとで聞いたら悔しがるだろう, はははっ」"]},{"code":0,"indent":0,"parameters":[]}],"moveFrequency":3,"moveRoute":{"list":[{"code":0,"parameters":[]}],"repeat":true,"skippable":false,"wait":false},"moveSpeed":3,"moveType":0,"priorityType":1,"stepAnime":false,"through":false,"trigger":0,"walkAnime":true}],"x":24,"y":28},
{"id":7,"name":"●愛 (Day 7)","note":"","pages":[{"conditions":{"actorId":1,"actorValid":false,"itemId":1,"itemValid":false,"selfSwitchCh":"A","selfSwitchValid":false,"switch1Id":401,"switch1Valid":true,"switch2Id":1,"switch2Valid":false,"variableId":1,"variableValid":false,"variableValue":0},"directionFix":false,"image":{"tileId":0,"characterName":"mainCharacter","direction":4,"pattern":1,"characterIndex":2},"list":[{"code":101,"indent":0,"parameters":["FaceA1",0,0,2]},{"code":401,"indent":0,"parameters":["「Hasumiにはいろいろ話を聞いてもらっちゃっ"]},{"code":401,"indent":0,"parameters":["　たわね」"]},{"code":101,"indent":0,"parameters":["FaceA1",6,0,2]},{"code":401,"indent":0,"parameters":["「Hasumiがここに来ることになったのも偶然"]},{"code":401,"indent":0,"parameters":["　って気がしない……なんでかしらね」"]},{"code":101,"indent":0,"parameters":["FaceA1",0,0,2]},{"code":401,"indent":0,"parameters":["「必ず, 無事に帰って来て頂戴」"]},{"code":0,"indent":0,"parameters":[]}],"moveFrequency":3,"moveRoute":{"list":[{"code":0,"parameters":[]}],"repeat":true,"skippable":false,"wait":false},"moveSpeed":3,"moveType":0,"priorityType":1,"stepAnime":false,"through":false,"trigger":0,"walkAnime":true}],"x":22,"y":25},
{"id":8,"name":"●Minegishi (Day 7)","note":"","pages":[{"conditions":{"actorId":1,"actorValid":false,"itemId":1,"itemValid":false,"selfSwitchCh":"A","selfSwitchValid":false,"switch1Id":401,"switch1Valid":true,"switch2Id":1,"switch2Valid":false,"variableId":1,"variableValid":false,"variableValue":0},"directionFix":false,"image":{"tileId":0,"characterName":"others","direction":8,"pattern":1,"characterIndex":5},"list":[{"code":111,"indent":0,"parameters":[2,"A",1]},{"code":101,"indent":1,"parameters":["",0,0,2]},{"code":401,"indent":1,"parameters":["　Minegishi"]},{"code":401,"indent":1,"parameters":["「まさかこんなところで旦那に会えると思わなかったけど, "]},{"code":401,"indent":1,"parameters":["　よりによって大晦日とはねー……」"]},{"code":101,"indent":1,"parameters":["",0,0,2]},{"code":401,"indent":1,"parameters":["　Minegishi"]},{"code":401,"indent":1,"parameters":["「今から休みもらえないかしら?」"]},{"code":123,"indent":1,"parameters":["A",0]},{"code":0,"indent":1,"parameters":[]},{"code":411,"indent":0,"parameters":[]},{"code":111,"indent":1,"parameters":[2,"B",1]},{"code":101,"indent":2,"parameters":["",0,0,2]},{"code":401,"indent":2,"parameters":["　Minegishi"]},{"code":401,"indent":2,"parameters":["「あ, そう言えばチップの用は足りてる?"]},{"code":401,"indent":2,"parameters":["　もしJunk Chipがあればここでちょちょっと作るけど」"]},{"code":123,"indent":2,"parameters":["B",0]},{"code":0,"indent":2,"parameters":[]},{"code":411,"indent":1,"parameters":[]},{"code":101,"indent":2,"parameters":["",0,0,2]},{"code":401,"indent":2,"parameters":["　Minegishi"]},{"code":401,"indent":2,"parameters":["「もしJunk ChipがあればBoost tipに作り"]},{"code":401,"indent":2,"parameters":["　直すけど. 持ってる?」"]},{"code":0,"indent":2,"parameters":[]},{"code":412,"indent":1,"parameters":[]},{"code":122,"indent":1,"parameters":[29,29,0,3,0,43,0]},{"code":111,"indent":1,"parameters":[1,29,0,5,1]},{"code":112,"indent":2,"parameters":[]},{"code":122,"indent":3,"parameters":[29,29,0,3,0,43,0]},{"code":111,"indent":3,"parameters":[1,29,0,5,1]},{"code":102,"indent":4,"parameters":[["Boost tip<ATK+1>","Boost tip<DEF+1>","Boost tip<SP-ATK+1>","Boost tip<SP-DEF+1>","Boost tip<HP+1>","Boost tip<MP+1>"],-2,0,2,0]},{"code":402,"indent":4,"parameters":[0,"Boost tip<ATK+1>"]},{"code":250,"indent":5,"parameters":[{"name":"Up4","volume":90,"pitch":100,"pan":0}]},{"code":126,"indent":5,"parameters":[43,1,0,5]},{"code":126,"indent":5,"parameters":[25,0,0,1]},{"code":101,"indent":5,"parameters":["",0,0,2]},{"code":401,"indent":5,"parameters":["Found a \\c[2]Boost tip<ATK+1>\\c[0] !"]},{"code":0,"indent":5,"parameters":[]},{"code":402,"indent":4,"parameters":[1,"Boost tip<DEF+1>"]},{"code":250,"indent":5,"parameters":[{"name":"Up4","volume":90,"pitch":100,"pan":0}]},{"code":126,"indent":5,"parameters":[43,1,0,5]},{"code":126,"indent":5,"parameters":[28,0,0,1]},{"code":101,"indent":5,"parameters":["",0,0,2]},{"code":401,"indent":5,"parameters":["Got a \\c[2]Boost tip<DEF+1>\\c[0]!"]},{"code":0,"indent":5,"parameters":[]},{"code":402,"indent":4,"parameters":[2,"Boost tip<SP-ATK+1>"]},{"code":250,"indent":5,"parameters":[{"name":"Up4","volume":90,"pitch":100,"pan":0}]},{"code":126,"indent":5,"parameters":[43,1,0,5]},{"code":126,"indent":5,"parameters":[31,0,0,1]},{"code":101,"indent":5,"parameters":["",0,0,2]},{"code":401,"indent":5,"parameters":["Got a \\c[2]Boost tip<SP-ATK+1>\\c[0]!"]},{"code":0,"indent":5,"parameters":[]},{"code":402,"indent":4,"parameters":[3,"Boost tip<SP-DEF+1>"]},{"code":250,"indent":5,"parameters":[{"name":"Up4","volume":90,"pitch":100,"pan":0}]},{"code":126,"indent":5,"parameters":[43,1,0,5]},{"code":126,"indent":5,"parameters":[34,0,0,1]},{"code":101,"indent":5,"parameters":["",0,0,2]},{"code":401,"indent":5,"parameters":["Got a \\c[2]Boost tip<SP-DEF+1>\\c[0]!"]},{"code":0,"indent":5,"parameters":[]},{"code":402,"indent":4,"parameters":[4,"Boost tip<HP+1>"]},{"code":250,"indent":5,"parameters":[{"name":"Up4","volume":90,"pitch":100,"pan":0}]},{"code":126,"indent":5,"parameters":[43,1,0,5]},{"code":126,"indent":5,"parameters":[37,0,0,1]},{"code":101,"indent":5,"parameters":["",0,0,2]},{"code":401,"indent":5,"parameters":["Got a \\c[2]Boost tip<HP+1>\\c[0]!"]},{"code":0,"indent":5,"parameters":[]},{"code":402,"indent":4,"parameters":[5,"Boost tip<MP+1>"]},{"code":250,"indent":5,"parameters":[{"name":"Up4","volume":90,"pitch":100,"pan":0}]},{"code":126,"indent":5,"parameters":[43,1,0,5]},{"code":126,"indent":5,"parameters":[40,0,0,1]},{"code":101,"indent":5,"parameters":["",0,0,2]},{"code":401,"indent":5,"parameters":["Found a \\c[2]Boost tip<MP+1>\\c[0] !"]},{"code":0,"indent":5,"parameters":[]},{"code":403,"indent":4,"parameters":[6,null]},{"code":101,"indent":5,"parameters":["",0,0,2]},{"code":401,"indent":5,"parameters":["　Minegishi"]},{"code":401,"indent":5,"parameters":["「うん. まあじっくり考えてね!」"]},{"code":113,"indent":5,"parameters":[]},{"code":0,"indent":5,"parameters":[]},{"code":404,"indent":4,"parameters":[]},{"code":0,"indent":4,"parameters":[]},{"code":411,"indent":3,"parameters":[]},{"code":101,"indent":4,"parameters":["",0,0,2]},{"code":401,"indent":4,"parameters":["　Minegishi"]},{"code":401,"indent":4,"parameters":["「これくらいね. "]},{"code":401,"indent":4,"parameters":["　大変だと思うけど, 頑張って!」"]},{"code":113,"indent":4,"parameters":[]},{"code":0,"indent":4,"parameters":[]},{"code":412,"indent":3,"parameters":[]},{"code":0,"indent":3,"parameters":[]},{"code":413,"indent":2,"parameters":[]},{"code":0,"indent":2,"parameters":[]},{"code":411,"indent":1,"parameters":[]},{"code":101,"indent":2,"parameters":["",0,0,2]},{"code":401,"indent":2,"parameters":["　Minegishi"]},{"code":401,"indent":2,"parameters":["「あら?　ちょっと数が足りないみたいね. "]},{"code":401,"indent":2,"parameters":["　Junk Chipが5つ集まったらまた持ってきて頂戴!」"]},{"code":0,"indent":2,"parameters":[]},{"code":412,"indent":1,"parameters":[]},{"code":0,"indent":1,"parameters":[]},{"code":412,"indent":0,"parameters":[]},{"code":0,"indent":0,"parameters":[]}],"moveFrequency":3,"moveRoute":{"list":[{"code":0,"parameters":[]}],"repeat":true,"skippable":false,"wait":false},"moveSpeed":3,"moveType":0,"priorityType":1,"stepAnime":false,"through":false,"trigger":0,"walkAnime":true}],"x":21,"y":26},
{"id":9,"name":"●Minegishi (旦那) (Day 7)","note":"","pages":[{"conditions":{"actorId":1,"actorValid":false,"itemId":1,"itemValid":false,"selfSwitchCh":"A","selfSwitchValid":false,"switch1Id":401,"switch1Valid":true,"switch2Id":1,"switch2Valid":false,"variableId":1,"variableValid":false,"variableValue":0},"directionFix":false,"image":{"tileId":0,"characterName":"SF_Actor3","direction":2,"pattern":1,"characterIndex":0},"list":[{"code":101,"indent":0,"parameters":["",0,0,2]},{"code":401,"indent":0,"parameters":["　Lt. Minegishi"]},{"code":401,"indent":0,"parameters":["「話は聞いている. この前とは比べ物にならないほど"]},{"code":401,"indent":0,"parameters":["　危険な任務だ」"]},{"code":101,"indent":0,"parameters":["",0,0,2]},{"code":401,"indent":0,"parameters":["　Lt. Minegishi"]},{"code":401,"indent":0,"parameters":["「どんな時も冷静に, そして帰りを待つ者がいることを　"]},{"code":401,"indent":0,"parameters":["　忘れずに, 任務を全うするんだ」"]},{"code":0,"indent":0,"parameters":[]}],"moveFrequency":3,"moveRoute":{"list":[{"code":0,"parameters":[]}],"repeat":true,"skippable":false,"wait":false},"moveSpeed":3,"moveType":0,"priorityType":1,"stepAnime":false,"through":false,"trigger":0,"walkAnime":true}],"x":21,"y":24},
{"id":10,"name":"●Trooper A (Day 7)","note":"","pages":[{"conditions":{"actorId":1,"actorValid":false,"itemId":1,"itemValid":false,"selfSwitchCh":"A","selfSwitchValid":false,"switch1Id":401,"switch1Valid":true,"switch2Id":1,"switch2Valid":false,"variableId":1,"variableValid":false,"variableValue":0},"directionFix":false,"image":{"tileId":0,"characterName":"SF_People3","direction":2,"pattern":1,"characterIndex":0},"list":[{"code":101,"indent":0,"parameters":["",0,0,2]},{"code":401,"indent":0,"parameters":["　Trooper"]},{"code":401,"indent":0,"parameters":["「いよいよだな. "]},{"code":401,"indent":0,"parameters":["　訓練で学んだことを忘れずに, がんばれよ!」"]},{"code":101,"indent":0,"parameters":["",0,0,2]},{"code":401,"indent":0,"parameters":["　Trooper"]},{"code":401,"indent":0,"parameters":["「GODSPEED! (幸運を!)」"]},{"code":0,"indent":0,"parameters":[]}],"moveFrequency":3,"moveRoute":{"list":[{"code":0,"parameters":[]}],"repeat":true,"skippable":false,"wait":false},"moveSpeed":3,"moveType":0,"priorityType":1,"stepAnime":false,"through":false,"trigger":0,"walkAnime":true}],"x":20,"y":22},
{"id":11,"name":"●Trooper B (Day 7)","note":"","pages":[{"conditions":{"actorId":1,"actorValid":false,"itemId":1,"itemValid":false,"selfSwitchCh":"A","selfSwitchValid":false,"switch1Id":401,"switch1Valid":true,"switch2Id":1,"switch2Valid":false,"variableId":1,"variableValid":false,"variableValue":0},"directionFix":false,"image":{"tileId":0,"characterName":"SF_Actor3","direction":2,"pattern":1,"characterIndex":1},"list":[{"code":101,"indent":0,"parameters":["",0,0,2]},{"code":401,"indent":0,"parameters":["　Trooper"]},{"code":401,"indent":0,"parameters":["「穴の底がどうなっているかは俺たちも知らないんだ. "]},{"code":401,"indent":0,"parameters":["　ともあれ, 無茶はするなよ!」"]},{"code":0,"indent":0,"parameters":[]}],"moveFrequency":3,"moveRoute":{"list":[{"code":0,"parameters":[]}],"repeat":true,"skippable":false,"wait":false},"moveSpeed":3,"moveType":0,"priorityType":1,"stepAnime":false,"through":false,"trigger":0,"walkAnime":true}],"x":19,"y":23},
{"id":12,"name":"●Trooper C (Day 7)","note":"","pages":[{"conditions":{"actorId":1,"actorValid":false,"itemId":1,"itemValid":false,"selfSwitchCh":"A","selfSwitchValid":false,"switch1Id":401,"switch1Valid":true,"switch2Id":1,"switch2Valid":false,"variableId":1,"variableValid":false,"variableValue":0},"directionFix":false,"image":{"tileId":0,"characterName":"SF_People3","direction":8,"pattern":1,"characterIndex":0},"list":[{"code":101,"indent":0,"parameters":["",0,0,2]},{"code":401,"indent":0,"parameters":["　Trooper"]},{"code":401,"indent":0,"parameters":["「本当にここから飛び降りるのか?"]},{"code":401,"indent":0,"parameters":["　考えただけでブルっちまうぜ……」"]},{"code":0,"indent":0,"parameters":[]}],"moveFrequency":3,"moveRoute":{"list":[{"code":0,"parameters":[]}],"repeat":true,"skippable":false,"wait":false},"moveSpeed":3,"moveType":0,"priorityType":1,"stepAnime":false,"through":false,"trigger":0,"walkAnime":true}],"x":19,"y":27},
{"id":13,"name":"●Master Srg. Kumoi (Day 7)","note":"","pages":[{"conditions":{"actorId":1,"actorValid":false,"itemId":1,"itemValid":false,"selfSwitchCh":"A","selfSwitchValid":false,"switch1Id":401,"switch1Valid":true,"switch2Id":1,"switch2Valid":false,"variableId":1,"variableValid":false,"variableValue":0},"directionFix":false,"image":{"tileId":0,"characterName":"SF_People3","direction":8,"pattern":1,"characterIndex":1},"list":[{"code":111,"indent":0,"parameters":[2,"A",1]},{"code":101,"indent":1,"parameters":["",0,0,2]},{"code":401,"indent":1,"parameters":["　Master Srg. Kumoi"]},{"code":401,"indent":1,"parameters":["「お待たせ. "]},{"code":401,"indent":1,"parameters":["　昨日はよく眠れた?」"]},{"code":101,"indent":1,"parameters":["FaceH1",0,0,2]},{"code":401,"indent":1,"parameters":["「はい, おかげさまで」"]},{"code":101,"indent":1,"parameters":["",0,0,2]},{"code":401,"indent":1,"parameters":["　Master Srg. Kumoi"]},{"code":401,"indent":1,"parameters":["「思ったより遅くなっちゃってごめんなさい. "]},{"code":401,"indent":1,"parameters":["　これが降下に使うパラシュートね」"]},{"code":101,"indent":1,"parameters":["FaceH1",0,0,2]},{"code":401,"indent":1,"parameters":["Thank you."]},{"code":101,"indent":1,"parameters":["",0,0,2]},{"code":401,"indent":1,"parameters":["　Master Srg. Kumoi"]},{"code":401,"indent":1,"parameters":["「一度降りるともう私たちにできることは無くなっちゃう"]},{"code":401,"indent":1,"parameters":["　けど, 準備はいい?」"]},{"code":123,"indent":1,"parameters":["A",0]},{"code":0,"indent":1,"parameters":[]},{"code":412,"indent":0,"parameters":[]},{"code":101,"indent":0,"parameters":["",0,0,2]},{"code":401,"indent":0,"parameters":["\\c[3] (これ以降は拠点に戻ることが出来なくなります. "]},{"code":401,"indent":0,"parameters":["　準備はよろしいですか?)"]},{"code":102,"indent":0,"parameters":[["Yes","No"],1,0,2,0]},{"code":402,"indent":0,"parameters":[0,"Yes"]},{"code":117,"indent":1,"parameters":[78]},{"code":230,"indent":1,"parameters":[60]},{"code":201,"indent":1,"parameters":[0,21,19,31,6,0]},{"code":203,"indent":1,"parameters":[7,0,19,29,2]},{"code":203,"indent":1,"parameters":[5,0,20,28,2]},{"code":203,"indent":1,"parameters":[6,0,21,28,2]},{"code":203,"indent":1,"parameters":[8,0,17,28,2]},{"code":203,"indent":1,"parameters":[9,0,18,27,2]},{"code":203,"indent":1,"parameters":[13,0,20,31,4]},{"code":203,"indent":1,"parameters":[10,0,21,30,4]},{"code":203,"indent":1,"parameters":[11,0,22,31,4]},{"code":203,"indent":1,"parameters":[12,0,19,27,2]},{"code":205,"indent":1,"parameters":[-1,{"list":[{"code":41,"parameters":["mainCharacter",5],"indent":null},{"code":0}],"repeat":false,"skippable":false,"wait":true}]},{"code":505,"indent":1,"parameters":[{"code":41,"parameters":["mainCharacter",5],"indent":null}]},{"code":117,"indent":1,"parameters":[79]},{"code":101,"indent":1,"parameters":["",0,0,2]},{"code":401,"indent":1,"parameters":["　Master Srg. Kumoi"]},{"code":401,"indent":1,"parameters":["「この肩の後ろから伸びてる紐を握ってみて……そう, "]},{"code":401,"indent":1,"parameters":["　これを引くとパラシュートが開くから」"]},{"code":205,"indent":1,"parameters":[-1,{"list":[{"code":16,"indent":null},{"code":0}],"repeat":false,"skippable":false,"wait":false}]},{"code":505,"indent":1,"parameters":[{"code":16,"indent":null}]},{"code":205,"indent":1,"parameters":[13,{"list":[{"code":16,"indent":null},{"code":0}],"repeat":false,"skippable":false,"wait":false}]},{"code":505,"indent":1,"parameters":[{"code":16,"indent":null}]},{"code":101,"indent":1,"parameters":["",0,0,2]},{"code":401,"indent":1,"parameters":["　Master Srg. Kumoi"]},{"code":401,"indent":1,"parameters":["「深度1,000メートルはちょうどあの大きな岩場を越えた"]},{"code":401,"indent":1,"parameters":["　あたりね. あそこを過ぎたらパラシュートを開いても"]},{"code":401,"indent":1,"parameters":["　大丈夫」"]},{"code":101,"indent":1,"parameters":["",0,0,2]},{"code":401,"indent":1,"parameters":["　Master Srg. Kumoi"]},{"code":401,"indent":1,"parameters":["「穴の底まではスカイツリー9本分の高さがあるからかなり"]},{"code":401,"indent":1,"parameters":["　時間がかかると思うけど, 焦らずゆっくり降りてね」"]},{"code":205,"indent":1,"parameters":[-1,{"list":[{"code":18,"indent":null},{"code":0}],"repeat":false,"skippable":false,"wait":false}]},{"code":505,"indent":1,"parameters":[{"code":18,"indent":null}]},{"code":205,"indent":1,"parameters":[13,{"list":[{"code":17,"indent":null},{"code":0}],"repeat":false,"skippable":false,"wait":false}]},{"code":505,"indent":1,"parameters":[{"code":17,"indent":null}]},{"code":101,"indent":1,"parameters":["",0,0,2]},{"code":401,"indent":1,"parameters":["　Master Srg. Kumoi"]},{"code":401,"indent":1,"parameters":["「底の方は光が届かないから必ずライトを点けること. "]},{"code":401,"indent":1,"parameters":["　底の水面が見えたら前のバックの紐を引いて……"]},{"code":401,"indent":1,"parameters":["　これね, これを引くとボートが自動で膨らむから」"]},{"code":101,"indent":1,"parameters":["",0,0,2]},{"code":401,"indent":1,"parameters":["　Master Srg. Kumoi"]},{"code":401,"indent":1,"parameters":["「それから先は行ってみないと分からないけど, 一応水と"]},{"code":401,"indent":1,"parameters":["　食料は2日分入ってるから. どうしても無理だったら"]},{"code":401,"indent":1,"parameters":["　迷わず帰って来て頂戴. いい?」"]},{"code":101,"indent":1,"parameters":["FaceH4",3,0,2]},{"code":401,"indent":1,"parameters":["「はい」"]},{"code":101,"indent":1,"parameters":["",0,0,2]},{"code":401,"indent":1,"parameters":["　Master Srg. Kumoi"]},{"code":401,"indent":1,"parameters":["「……本当はこんな危険な任務, 私が上官だったら絶対に"]},{"code":401,"indent":1,"parameters":["　認めないんだけど」"]},{"code":101,"indent":1,"parameters":["",0,0,2]},{"code":401,"indent":1,"parameters":["　Master Srg. Kumoi"]},{"code":401,"indent":1,"parameters":["「なんでかしらね, Hasumiさんを見てると他人のような"]},{"code":401,"indent":1,"parameters":["　気がしなくて」"]},{"code":101,"indent":1,"parameters":["FaceH4",1,0,2]},{"code":401,"indent":1,"parameters":["「Master Srg. Kumoi……」"]},{"code":101,"indent":1,"parameters":["",0,0,2]},{"code":401,"indent":1,"parameters":["　Master Srg. Kumoi"]},{"code":401,"indent":1,"parameters":["「――いい?　本当に無理しないで. "]},{"code":401,"indent":1,"parameters":["　どんな物よりも自分の命が第一なんだから」"]},{"code":101,"indent":1,"parameters":["",0,0,2]},{"code":401,"indent":1,"parameters":["　Master Srg. Kumoi"]},{"code":401,"indent":1,"parameters":["「ここにいる人はみんなあなたの帰りを待ってるから. "]},{"code":401,"indent":1,"parameters":["　それを忘れないで」"]},{"code":101,"indent":1,"parameters":["FaceH4",0,0,2]},{"code":401,"indent":1,"parameters":["「……わかりました」"]},{"code":230,"indent":1,"parameters":[60]},{"code":205,"indent":1,"parameters":[13,{"list":[{"code":29,"parameters":[2],"indent":null},{"code":13,"indent":null},{"code":0}],"repeat":false,"skippable":false,"wait":true}]},{"code":505,"indent":1,"parameters":[{"code":29,"parameters":[2],"indent":null}]},{"code":505,"indent":1,"parameters":[{"code":13,"indent":null}]},{"code":230,"indent":1,"parameters":[30]},{"code":205,"indent":1,"parameters":[-1,{"list":[{"code":16,"indent":null},{"code":0}],"repeat":false,"skippable":false,"wait":true}]},{"code":505,"indent":1,"parameters":[{"code":16,"indent":null}]},{"code":230,"indent":1,"parameters":[30]},{"code":101,"indent":1,"parameters":["FaceM1",1,0,2]},{"code":401,"indent":1,"parameters":["\\c[4]「緊張していますか?」"]},{"code":101,"indent":1,"parameters":["FaceH5",5,0,2]},{"code":401,"indent":1,"parameters":["「してないわけないでしょ?"]},{"code":401,"indent":1,"parameters":["　華厳の滝を見下ろしてる気分よ」"]},{"code":101,"indent":1,"parameters":["FaceM1",1,0,2]},{"code":401,"indent":1,"parameters":["\\c[4]「今までにベースジャンプの経験は……?」"]},{"code":101,"indent":1,"parameters":["FaceH4",0,0,2]},{"code":401,"indent":1,"parameters":["「今日が記念すべき1回目ね」"]},{"code":101,"indent":1,"parameters":["FaceM1",1,0,2]},{"code":401,"indent":1,"parameters":["\\c[4]「では, 良い思い出にしないといけませんね」"]},{"code":101,"indent":1,"parameters":["FaceH4",0,0,2]},{"code":401,"indent":1,"parameters":["「もちろんよ」"]},{"code":213,"indent":1,"parameters":[-1,8,true]},{"code":101,"indent":1,"parameters":["FaceM1",1,0,2]},{"code":401,"indent":1,"parameters":["\\c[4]「……もう, 何か確認することは"]},{"code":401,"indent":1,"parameters":["　ありませんか?」"]},{"code":101,"indent":1,"parameters":["FaceH4",3,0,2]},{"code":401,"indent":1,"parameters":["「女は度胸よ. "]},{"code":401,"indent":1,"parameters":["　ここまで来てうだうだ言っても始まらないわ」"]},{"code":101,"indent":1,"parameters":["FaceM1",1,0,2]},{"code":401,"indent":1,"parameters":["\\c[4]「では, Hasumiが良いと思う時に――」"]},{"code":230,"indent":1,"parameters":[120]},{"code":101,"indent":1,"parameters":["FaceH4",1,0,2]},{"code":401,"indent":1,"parameters":["「……スー……, ハー……」"]},{"code":101,"indent":1,"parameters":["FaceH4",3,0,2]},{"code":401,"indent":1,"parameters":["「――行くわ!」"]},{"code":101,"indent":1,"parameters":["FaceM1",1,0,2]},{"code":401,"indent":1,"parameters":["\\c[4]\\{「GOOD　TO　GO!」"]},{"code":101,"indent":1,"parameters":["FaceH4",0,0,2]},{"code":401,"indent":1,"parameters":["\\{「GOOD　TO　GO!」"]},{"code":205,"indent":1,"parameters":[13,{"list":[{"code":15,"parameters":[20],"indent":null},{"code":16,"indent":null},{"code":0}],"repeat":false,"skippable":false,"wait":false}]},{"code":505,"indent":1,"parameters":[{"code":15,"parameters":[20],"indent":null}]},{"code":505,"indent":1,"parameters":[{"code":16,"indent":null}]},{"code":205,"indent":1,"parameters":[-1,{"list":[{"code":29,"parameters":[5],"indent":null},{"code":1,"indent":null},{"code":1,"indent":null},{"code":44,"parameters":[{"name":"Darkness7","volume":90,"pitch":100,"pan":0}],"indent":null},{"code":14,"parameters":[0,7],"indent":null},{"code":0}],"repeat":false,"skippable":false,"wait":false}]},{"code":505,"indent":1,"parameters":[{"code":29,"parameters":[5],"indent":null}]},{"code":505,"indent":1,"parameters":[{"code":1,"indent":null}]},{"code":505,"indent":1,"parameters":[{"code":1,"indent":null}]},{"code":505,"indent":1,"parameters":[{"code":44,"parameters":[{"name":"Darkness7","volume":90,"pitch":100,"pan":0}],"indent":null}]},{"code":505,"indent":1,"parameters":[{"code":14,"parameters":[0,7],"indent":null}]},{"code":230,"indent":1,"parameters":[20]},{"code":223,"indent":1,"parameters":[[255,255,255,0],30,false]},{"code":230,"indent":1,"parameters":[45]},{"code":221,"indent":1,"parameters":[]},{"code":245,"indent":1,"parameters":[{"name":"Wind4","volume":100,"pitch":150,"pan":0}]},{"code":230,"indent":1,"parameters":[300]},{"code":101,"indent":1,"parameters":["FaceM1",1,0,2]},{"code":401,"indent":1,"parameters":["\\c[4]「――Hasumi, 見えました!　穴の底です!」"]},{"code":101,"indent":1,"parameters":["FaceH4",3,0,2]},{"code":401,"indent":1,"parameters":["「うん!」"]},{"code":250,"indent":1,"parameters":[{"name":"Wind4","volume":90,"pitch":80,"pan":0}]},{"code":230,"indent":1,"parameters":[7]},{"code":250,"indent":1,"parameters":[{"name":"Wind4","volume":90,"pitch":90,"pan":0}]},{"code":230,"indent":1,"parameters":[7]},{"code":250,"indent":1,"parameters":[{"name":"Wind4","volume":90,"pitch":110,"pan":0}]},{"code":230,"indent":1,"parameters":[7]},{"code":250,"indent":1,"parameters":[{"name":"Bow4","volume":90,"pitch":100,"pan":0}]},{"code":230,"indent":1,"parameters":[90]},{"code":250,"indent":1,"parameters":[{"name":"Dive","volume":100,"pitch":120,"pan":0}]},{"code":245,"indent":1,"parameters":[{"name":"Waterfall1","volume":85,"pitch":70,"pan":0}]},{"code":230,"indent":1,"parameters":[250]},{"code":201,"indent":1,"parameters":[0,115,8,7,8,0]},{"code":322,"indent":1,"parameters":[1,"mainCharacter",5,"FaceH4",0,""]},{"code":121,"indent":1,"parameters":[75,75,0]},{"code":121,"indent":1,"parameters":[87,87,1]},{"code":121,"indent":1,"parameters":[406,406,0]},{"code":205,"indent":1,"parameters":[-1,{"list":[{"code":29,"parameters":[4],"indent":null},{"code":0}],"repeat":false,"skippable":false,"wait":true}]},{"code":505,"indent":1,"parameters":[{"code":29,"parameters":[4],"indent":null}]},{"code":223,"indent":1,"parameters":[[0,-34,-34,0],1,true]},{"code":222,"indent":1,"parameters":[]},{"code":0,"indent":1,"parameters":[]},{"code":402,"indent":0,"parameters":[1,"No"]},{"code":0,"indent":1,"parameters":[]},{"code":404,"indent":0,"parameters":[]},{"code":0,"indent":0,"parameters":[]}],"moveFrequency":3,"moveRoute":{"list":[{"code":0,"parameters":[]}],"repeat":true,"skippable":false,"wait":false},"moveSpeed":3,"moveType":0,"priorityType":1,"stepAnime":false,"through":false,"trigger":0,"walkAnime":true}],"x":18,"y":30},
{"id":14,"name":"[Treasure Box]ドライバー","note":"","pages":[{"conditions":{"actorId":1,"actorValid":false,"itemId":1,"itemValid":false,"selfSwitchCh":"A","selfSwitchValid":false,"switch1Id":1,"switch1Valid":false,"switch2Id":1,"switch2Valid":false,"variableId":1,"variableValid":false,"variableValue":0},"directionFix":true,"image":{"characterIndex":3,"characterName":"!SF_Chest","direction":2,"pattern":1,"tileId":0},"list":[{"code":108,"indent":0,"parameters":["●　Day 6以前に訪れると出現　●"]},{"code":250,"indent":0,"parameters":[{"name":"Chest1","pan":0,"pitch":100,"volume":90}]},{"code":205,"indent":0,"parameters":[0,{"list":[{"code":36},{"code":17},{"code":15,"parameters":[3]},{"code":18},{"code":15,"parameters":[3]},{"code":0}],"repeat":false,"skippable":false,"wait":true}]},{"code":505,"indent":0,"parameters":[{"code":36}]},{"code":505,"indent":0,"parameters":[{"code":17}]},{"code":505,"indent":0,"parameters":[{"code":15,"parameters":[3]}]},{"code":505,"indent":0,"parameters":[{"code":18}]},{"code":505,"indent":0,"parameters":[{"code":15,"parameters":[3]}]},{"code":123,"indent":0,"parameters":["A",0]},{"code":249,"indent":0,"parameters":[{"name":"Item","volume":90,"pitch":100,"pan":0}]},{"code":128,"indent":0,"parameters":[50,0,0,1,false]},{"code":101,"indent":0,"parameters":["",0,0,2]},{"code":401,"indent":0,"parameters":["Got a \\c[2]アーツオブハート\\c[0]!"]},{"code":0,"indent":0,"parameters":[]}],"moveFrequency":3,"moveRoute":{"list":[{"code":0,"parameters":[]}],"repeat":true,"skippable":false,"wait":false},"moveSpeed":3,"moveType":0,"priorityType":1,"stepAnime":false,"through":false,"trigger":0,"walkAnime":false},{"conditions":{"actorId":1,"actorValid":false,"itemId":1,"itemValid":false,"selfSwitchCh":"A","selfSwitchValid":false,"switch1Id":401,"switch1Valid":true,"switch2Id":1,"switch2Valid":false,"variableId":1,"variableValid":false,"variableValue":0},"directionFix":false,"image":{"characterIndex":0,"characterName":"","direction":2,"pattern":0,"tileId":0},"list":[{"code":0,"indent":0,"parameters":[]}],"moveFrequency":3,"moveRoute":{"list":[{"code":0,"parameters":[]}],"repeat":true,"skippable":false,"wait":false},"moveSpeed":3,"moveType":0,"priorityType":0,"stepAnime":false,"through":false,"trigger":0,"walkAnime":true},{"conditions":{"actorId":1,"actorValid":false,"itemId":1,"itemValid":false,"selfSwitchCh":"A","selfSwitchValid":true,"switch1Id":1,"switch1Valid":false,"switch2Id":1,"switch2Valid":false,"variableId":1,"variableValid":false,"variableValue":0},"directionFix":true,"image":{"characterIndex":3,"characterName":"!SF_Chest","direction":8,"pattern":1,"tileId":0},"list":[{"code":0,"indent":0,"parameters":[]}],"moveFrequency":3,"moveRoute":{"list":[{"code":0,"parameters":[]}],"repeat":true,"skippable":false,"wait":false},"moveSpeed":3,"moveType":0,"priorityType":1,"stepAnime":false,"through":false,"trigger":0,"walkAnime":false}],"x":21,"y":10}
]
}