{
"autoplayBgm":true,"autoplayBgs":false,"battleback1Name":"Lava1","battleback2Name":"DarkSpace","bgm":{"name":"","pan":0,"pitch":100,"volume":90},"bgs":{"name":"","pan":0,"pitch":100,"volume":90},"disableDashing":false,"displayName":"","encounterList":[],"encounterStep":30,"height":20,"note":"","parallaxLoopX":false,"parallaxLoopY":false,"parallaxName":"","parallaxShow":true,"parallaxSx":0,"parallaxSy":0,"scrollType":0,"specifyBattleback":true,"tilesetId":7,"width":17,
"data":[1570,1570,1569,1570,1569,1570,1569,1623,1569,1569,1569,1568,1623,1568,1568,1568,1568,1570,1570,1623,1570,1569,1570,1569,1569,1569,1623,1569,1568,1569,1568,1568,1568,1568,1570,1570,1569,1570,1569,1570,1569,1569,1569,1569,1569,1568,1569,1568,1568,1568,1568,1570,1570,1569,1570,1569,1570,1569,1569,1569,1569,1569,1568,1569,1568,1568,1568,1568,1570,1570,1569,1570,1569,1570,1536,1536,1536,1536,1536,1568,1569,1568,1568,1568,1568,1570,1570,1569,1570,1536,1536,1536,1536,1536,1536,1536,1536,1536,1568,1568,1568,1568,1570,1570,1536,1536,1536,1536,1536,1536,1536,1536,1536,1536,1536,1536,1568,1568,1568,1570,1570,1536,1536,1536,1536,2850,2836,2836,2836,2852,1536,1536,1536,1568,1568,1568,1570,1536,1536,1536,2850,2836,2817,2816,2816,2816,2818,2852,1536,1536,1536,1568,1568,1570,1536,1536,1579,2832,2816,2816,2816,2816,2816,2816,2840,1581,1536,1536,1568,1568,1570,1536,1536,2850,2817,2816,2816,2820,2844,2824,2816,2818,2852,1536,1536,1568,1568,1536,1536,1579,2832,2816,2816,2816,2840,2906,2832,2816,2816,2840,1581,1536,1536,1568,1536,1536,1579,2832,2816,2816,2820,2854,2896,2832,2816,2816,2818,2852,1536,1536,1568,1536,1536,1579,2832,2816,2816,2840,2898,2890,2856,2824,2816,2816,2840,1581,1536,1536,1536,1536,1579,2832,2816,2816,2840,2880,2866,2900,2832,2816,2816,2840,1581,1536,1536,1536,1536,2850,2817,2816,2816,2840,2880,2868,2902,2832,2816,2816,2840,1581,1536,1536,1536,1579,2832,2816,2816,2816,2840,2880,2888,2850,2817,2816,2816,2818,2852,1536,1536,1536,1579,2832,2816,2816,2816,2840,2904,2889,2832,2816,2816,2816,2816,2840,1581,1536,1536,1579,2856,2828,2844,2844,2846,2853,2908,2834,2844,2844,2844,2844,2841,1581,1536,1536,1587,1606,2848,1582,1558,1559,2833,2836,2842,1557,1558,1558,1583,2833,2852,1536,0,0,0,0,0,0,0,0,0,0,0,0,0,0,0,0,0,0,0,0,0,0,0,0,0,0,0,0,0,0,0,0,0,0,0,0,0,0,0,0,0,0,0,0,0,0,0,0,0,0,0,0,0,0,0,0,0,0,0,0,0,0,0,0,0,0,0,0,0,0,0,0,0,0,0,0,0,0,0,0,0,0,0,0,0,0,0,0,0,0,0,0,0,0,0,0,0,0,0,0,0,0,0,0,0,0,0,0,0,0,0,0,0,0,0,0,0,0,0,0,0,0,0,0,0,0,3822,0,0,0,0,0,0,0,0,0,0,0,0,0,0,0,3822,0,0,0,3818,0,0,0,0,0,0,0,0,0,0,0,3818,0,0,0,0,3820,0,0,0,0,0,0,0,0,0,0,0,3820,0,0,0,0,0,3818,0,0,0,0,0,0,0,0,3818,0,0,3822,0,0,0,0,3808,0,0,0,0,0,0,0,0,3817,3821,0,0,0,0,0,0,3795,3821,0,0,0,0,0,0,0,0,0,0,0,0,0,0,0,3820,0,0,0,0,0,0,0,0,0,3818,0,0,0,0,0,0,0,0,0,0,0,0,0,0,0,3811,3815,0,0,0,0,0,0,3818,0,3822,0,0,0,0,0,0,3808,0,0,0,0,0,0,0,3817,3813,0,0,0,0,0,0,0,3820,0,0,0,0,0,0,0,0,3820,0,0,0,0,0,0,0,0,0,0,0,0,0,0,0,0,0,0,0,0,0,0,0,0,0,0,0,0,0,0,0,0,0,0,0,0,0,0,0,0,0,0,0,0,0,0,0,0,0,0,0,0,0,0,0,0,0,0,0,0,0,0,0,0,0,0,0,0,0,0,0,0,0,0,0,0,0,0,0,0,0,0,0,0,0,0,0,0,0,0,0,0,0,0,0,0,0,0,0,0,0,0,0,0,0,0,0,0,0,0,0,0,0,0,0,0,0,0,0,0,0,0,0,0,0,0,0,0,0,0,0,0,0,0,0,0,0,0,0,0,0,0,0,0,0,0,0,0,0,30,31,0,0,0,0,0,0,0,0,0,0,29,30,0,0,0,0,0,0,0,0,0,0,0,0,0,0,0,0,0,0,0,0,0,0,0,31,0,0,0,0,0,0,0,0,0,0,0,0,0,0,0,0,0,0,0,0,0,0,0,0,0,0,0,0,0,0,0,0,0,0,0,0,0,0,0,0,0,0,0,0,0,0,0,0,0,0,0,0,0,0,0,0,0,0,0,0,0,0,0,0,0,0,0,0,0,0,0,0,0,0,0,0,0,0,0,0,0,0,0,0,0,0,0,0,0,0,0,0,0,0,0,0,0,0,0,0,0,0,0,0,0,0,0,0,0,0,0,0,0,0,0,0,0,0,0,0,0,0,0,0,0,0,0,0,0,0,0,0,0,0,0,0,0,0,0,0,0,0,0,0,0,0,0,0,0,0,0,0,0,0,0,0,0,0,0,0,0,0,0,0,0,0,0,0,0,0,0,0,0,0,0,0,0,0,0,0,0,0,0,0,0,0,0,0,0,0,0,0,0,0,0,0,0,0,0,0,0,0,0,0,0,0,0,0,0,0,0,0,0,0,224,225,225,0,226,0,0,0,0,0,0,0,0,0,0,224,225,232,233,233,233,234,225,226,0,0,0,0,0,0,224,225,232,233,240,241,241,241,242,233,234,226,0,0,0,0,0,232,233,240,241,0,0,0,0,0,241,242,234,0,0,0,0,224,240,241,0,0,0,0,0,0,0,0,226,242,226,0,0,0,232,0,0,0,0,29,30,30,14,15,0,0,0,234,0,0,0,240,0,0,14,15,0,0,0,22,23,31,0,0,242,0,0,224,0,0,29,22,23,0,0,0,0,0,14,15,0,0,226,0,232,0,0,0,0,0,2,0,0,0,0,22,23,0,0,234,0,240,0,29,0,0,0,0,0,0,0,1,0,0,31,0,242,226,0,0,0,0,0,0,0,0,0,0,2,0,0,0,0,0,234,0,0,14,15,0,0,0,1,0,0,0,0,14,15,31,0,242,0,0,22,23,0,2,0,0,0,1,0,0,22,23,0,0,0,0,0,0,0,0,0,0,0,0,0,0,2,0,0,0,0,0,0,29,0,0,0,1,0,0,0,0,0,0,0,0,0,0,0,0,0,0,0,0,0,1,0,0,1,0,0,0,14,15,31,0,0,0,14,15,0,2,0,0,0,0,0,0,0,22,23,0,0,0,0,22,23,48,106,50,0,0,0,48,106,106,50,0,0,0,0,0,48,106,0,0,0,0,0,0,0,0,0,0,106,106,50,0,0,0,0,0,0,0,0,0,0,0,0,0,0,0,0,0,0,0,0,0,0,0,0,0,0,0,0,0,0,0,0,0,0,0,0,0,0,0,0,0,0,0,0,0,0,0,0,0,0,0,0,0,0,0,0,0,0,0,0,0,0,0,0,0,0,0,0,0,0,0,0,0,0,0,0,0,0,0,0,0,0,0,0,0,0,0,0,0,0,0,0,0,0,0,0,0,0,0,0,0,0,0,0,0,0,0,0,0,0,0,0,0,0,0,0,0,0,0,0,0,0,0,0,0,0,0,0,0,0,0,0,0,0,0,0,0,0,0,0,0,0,0,0,0,0,0,0,0,0,0,0,0,0,0,0,0,0,0,0,0,0,0,0,0,0,0,0,0,0,0,0,0,0,0,0,0,0,0,0,0,0,0,0,0,0,0,0,0,0,0,0,0,0,0,0,0,0,0,0,0,0,0,0,0,0,0,0,0,0,0,0,0,0,0,0,0,0,0,0,0,0,0,0,0,0,0,0,0,0,0,0,0,0,0,0,0,0,0,0,0,0,0,0,0,0,0,0,0,0,0,0,0,0,0,0,0,0,0,0,0,0,0,0,0,0,0,0,0,0,0,0,0,0,0,0,0,0,0,0,0,0,0,0,0,0,0,0,0,0,0,0,0,0,0,0,0,0,0,0,0,0,0,0,0,0,0,0,0,0,0,0,0,0,0,0,0,0,0,0,0,0,0,0,0,0,0,0,0,0,0,0,0,0,0,0,0,0,0,0,0,0,0,0,0,0,0,0,0,0,0,0,0,0,0,0,0,0,0,0,0,0,0,0,0,0,0,0,0,0,0,0,0,0,0,0,0,0,0,0,0,0,0,0,0,0,0,0,0,0,0,0,0,0,0,0,0,0,0,0,0,0,0,0,0,0,0,0,0,0,0,0,0,0,0,0,0,0,0,0,0,0,0,0,0,0,0,0,0,0,0,0,0,0,0,0,0,0,0,0,0,0,0,0,0,0,0,0,0,0,0,0,0,0,0,0,0,0,0,0,0,0,0,0,0,0,0,0,0,0,0,0,0,0,0,0,0,0,0,0,0,0,0,0,0,0,0,0,0,0,0,0,0,0,0,0,0,0,0,0,0,0,0,0,0,0,0,0,0,0,0,0,0,0,0,0,0,0,0,0,0,0,0,0,0,0,0,0,0,0,0,0,0,0,0,0,0,0,0,0,0,0,0,0,0,0,0,0,0,0,0,0,0,0,0,0,0,0,0,0,0,0,0,0,0,0,0,0,0,0,0,0,0,0,0,0,0,0,0,0,0,0,0,0,0,0,0,0,0,0,0,0,0,0,0,0,0,0,0,0,0,0,0,0,0,0,0,0,0,0,0,0,0,0,0,0,0,0,0,0,0,0,0,0,0,0,0,0,0,0,0,0,0,0,0,0,0,0,0,0,0,0,0,0,0,0,0,0,0,0,0,0,0,0,0,0,0,0,0,0,0,0,0,0,0,0,0,0,0,0,0,0,0,0,0,0,0,0,0,0],
"events":[
null,
{"id":1,"name":"Cerberus","note":"","pages":[{"conditions":{"actorId":1,"actorValid":false,"itemId":1,"itemValid":false,"selfSwitchCh":"A","selfSwitchValid":false,"switch1Id":1,"switch1Valid":false,"switch2Id":1,"switch2Valid":false,"variableId":1,"variableValid":false,"variableValue":0},"directionFix":true,"image":{"tileId":0,"characterName":"$BigMonster3","direction":6,"pattern":1,"characterIndex":0},"list":[{"code":0,"indent":0,"parameters":[]}],"moveFrequency":3,"moveRoute":{"list":[{"code":0,"parameters":[]}],"repeat":true,"skippable":false,"wait":false},"moveSpeed":3,"moveType":0,"priorityType":1,"stepAnime":true,"through":false,"trigger":0,"walkAnime":true},{"conditions":{"actorId":1,"actorValid":false,"itemId":1,"itemValid":false,"selfSwitchCh":"A","selfSwitchValid":false,"switch1Id":141,"switch1Valid":true,"switch2Id":1,"switch2Valid":false,"variableId":1,"variableValid":false,"variableValue":0},"directionFix":false,"image":{"characterIndex":0,"characterName":"","direction":2,"pattern":0,"tileId":0},"list":[{"code":0,"indent":0,"parameters":[]}],"moveFrequency":3,"moveRoute":{"list":[{"code":0,"parameters":[]}],"repeat":true,"skippable":false,"wait":false},"moveSpeed":3,"moveType":0,"priorityType":0,"stepAnime":false,"through":false,"trigger":0,"walkAnime":true}],"x":8,"y":9},
{"id":2,"name":"[AUTOev] ","note":"","pages":[{"conditions":{"actorId":1,"actorValid":false,"itemId":1,"itemValid":false,"selfSwitchCh":"A","selfSwitchValid":false,"switch1Id":1,"switch1Valid":false,"switch2Id":1,"switch2Valid":false,"variableId":1,"variableValid":false,"variableValue":0},"directionFix":false,"image":{"characterIndex":0,"characterName":"","direction":2,"pattern":0,"tileId":0},"list":[{"code":205,"indent":0,"parameters":[-1,{"list":[{"code":4,"indent":null},{"code":4,"indent":null},{"code":4,"indent":null},{"code":4,"indent":null},{"code":4,"indent":null},{"code":0}],"repeat":false,"skippable":false,"wait":true}]},{"code":505,"indent":0,"parameters":[{"code":4,"indent":null}]},{"code":505,"indent":0,"parameters":[{"code":4,"indent":null}]},{"code":505,"indent":0,"parameters":[{"code":4,"indent":null}]},{"code":505,"indent":0,"parameters":[{"code":4,"indent":null}]},{"code":505,"indent":0,"parameters":[{"code":4,"indent":null}]},{"code":213,"indent":0,"parameters":[-1,1,true]},{"code":230,"indent":0,"parameters":[30]},{"code":250,"indent":0,"parameters":[{"name":"Monster2","volume":90,"pitch":70,"pan":0}]},{"code":230,"indent":0,"parameters":[60]},{"code":132,"indent":0,"parameters":[{"name":"SC_battle8","volume":40,"pitch":100,"pan":0}]},{"code":133,"indent":0,"parameters":[{"name":"Victory1","volume":85,"pitch":110,"pan":0}]},{"code":111,"indent":0,"parameters":[0,218,1]},{"code":301,"indent":1,"parameters":[0,8,false,true]},{"code":601,"indent":1,"parameters":[]},{"code":117,"indent":2,"parameters":[6]},{"code":250,"indent":2,"parameters":[{"name":"Collapse1","volume":90,"pitch":130,"pan":0}]},{"code":205,"indent":2,"parameters":[1,{"list":[{"code":37,"indent":null},{"code":39,"indent":null},{"code":0}],"repeat":false,"skippable":false,"wait":true}]},{"code":505,"indent":2,"parameters":[{"code":37,"indent":null}]},{"code":505,"indent":2,"parameters":[{"code":39,"indent":null}]},{"code":230,"indent":2,"parameters":[60]},{"code":250,"indent":2,"parameters":[{"name":"Blow1","volume":90,"pitch":100,"pan":0}]},{"code":101,"indent":2,"parameters":["FaceH3",4,0,2]},{"code":401,"indent":2,"parameters":["「……はぁ，はぁ……」"]},{"code":101,"indent":2,"parameters":["FaceM1",1,0,2]},{"code":401,"indent":2,"parameters":["\\c[4]「お見事です」"]},{"code":101,"indent":2,"parameters":["FaceH3",4,0,2]},{"code":401,"indent":2,"parameters":["「……こんなのがいるなんて……, "]},{"code":401,"indent":2,"parameters":["　聞いてなかったわ……」"]},{"code":101,"indent":2,"parameters":["FaceM1",1,0,2]},{"code":401,"indent":2,"parameters":["\\c[4]「私も, まさかあれに勝てるとは――」"]},{"code":101,"indent":2,"parameters":["FaceH2",4,0,2]},{"code":401,"indent":2,"parameters":["「何よそれ?」"]},{"code":101,"indent":2,"parameters":["FaceM1",1,0,2]},{"code":401,"indent":2,"parameters":["\\c[4]「――いえ, こう申し上げたかったのです」　"]},{"code":101,"indent":2,"parameters":["FaceM1",1,0,2]},{"code":401,"indent":2,"parameters":["\\c[4]「ここに来てくださったのがHasumiで"]},{"code":401,"indent":2,"parameters":["　良かったと」"]},{"code":101,"indent":2,"parameters":["FaceH1",0,0,2]},{"code":401,"indent":2,"parameters":["「…………」"]},{"code":101,"indent":2,"parameters":["FaceM1",1,0,2]},{"code":401,"indent":2,"parameters":["\\c[4]「…………」"]},{"code":101,"indent":2,"parameters":["FaceH1",0,0,2]},{"code":401,"indent":2,"parameters":["「いったん撤収ね」"]},{"code":101,"indent":2,"parameters":["FaceM1",1,0,2]},{"code":401,"indent":2,"parameters":["\\c[4]「それがよろしいかと」"]},{"code":205,"indent":2,"parameters":[-1,{"list":[{"code":1,"indent":null},{"code":1,"indent":null},{"code":1,"indent":null},{"code":1,"indent":null},{"code":0}],"repeat":false,"skippable":false,"wait":false}]},{"code":505,"indent":2,"parameters":[{"code":1,"indent":null}]},{"code":505,"indent":2,"parameters":[{"code":1,"indent":null}]},{"code":505,"indent":2,"parameters":[{"code":1,"indent":null}]},{"code":505,"indent":2,"parameters":[{"code":1,"indent":null}]},{"code":230,"indent":2,"parameters":[45]},{"code":221,"indent":2,"parameters":[]},{"code":111,"indent":2,"parameters":[0,423,0]},{"code":121,"indent":3,"parameters":[141,141,0]},{"code":223,"indent":3,"parameters":[[0,0,0,0],1,false]},{"code":230,"indent":3,"parameters":[180]},{"code":101,"indent":3,"parameters":["",0,0,2]},{"code":401,"indent":3,"parameters":["\\c[3]　　　▼△▼　　ムービーをスキップします　　▼△▼"]},{"code":230,"indent":3,"parameters":[60]},{"code":101,"indent":3,"parameters":["",0,0,2]},{"code":401,"indent":3,"parameters":["　　　　　　　　　　　 ―Day 2―"]},{"code":401,"indent":3,"parameters":["　　　　　　　2100年12月26日 (日)AM 8時07分"]},{"code":401,"indent":3,"parameters":["　　　　　　　　　Ground Defence Force, Gotemba East Base"]},{"code":401,"indent":3,"parameters":["　　　　　　　　　　　Nautilus2階"]},{"code":201,"indent":3,"parameters":[0,6,13,3,4,0]},{"code":314,"indent":3,"parameters":[0,0]},{"code":123,"indent":3,"parameters":["A",0]},{"code":0,"indent":3,"parameters":[]},{"code":411,"indent":2,"parameters":[]},{"code":230,"indent":3,"parameters":[30]},{"code":223,"indent":3,"parameters":[[-255,-255,-255,0],1,true]},{"code":222,"indent":3,"parameters":[]},{"code":241,"indent":3,"parameters":[{"name":"BGM_Theme2_Balmung_FSPC","volume":45,"pitch":100,"pan":0}]},{"code":230,"indent":3,"parameters":[120]},{"code":231,"indent":3,"parameters":[10,"title3",0,0,0,80,100,100,0,0]},{"code":232,"indent":3,"parameters":[10,0,0,0,0,83,100,100,255,0,40,true]},{"code":232,"indent":3,"parameters":[10,0,0,0,0,127,100,100,255,0,465,true]},{"code":231,"indent":3,"parameters":[11,"uu1-3-7",0,0,20,-8,100,100,255,0]},{"code":230,"indent":3,"parameters":[3]},{"code":231,"indent":3,"parameters":[11,"uu1-3-7",0,0,-16,6,100,100,255,0]},{"code":230,"indent":3,"parameters":[3]},{"code":231,"indent":3,"parameters":[11,"uu1-3-7",0,0,-4,-12,100,100,255,0]},{"code":230,"indent":3,"parameters":[3]},{"code":231,"indent":3,"parameters":[11,"uu1-3-7",0,0,0,0,100,100,255,0]},{"code":230,"indent":3,"parameters":[30]},{"code":224,"indent":3,"parameters":[[255,255,255,255],90,false]},{"code":117,"indent":3,"parameters":[1]},{"code":201,"indent":3,"parameters":[0,58,13,29,6,1]},{"code":123,"indent":3,"parameters":["A",0]},{"code":0,"indent":3,"parameters":[]},{"code":412,"indent":2,"parameters":[]},{"code":0,"indent":2,"parameters":[]},{"code":603,"indent":1,"parameters":[]},{"code":108,"indent":2,"parameters":["▼△▼　　敗北時に変身中か否かで分岐　　▼△▼"]},{"code":111,"indent":2,"parameters":[0,3,0]},{"code":101,"indent":3,"parameters":["FaceH3",4,0,2]},{"code":401,"indent":3,"parameters":["「なんなのこいつ, とんでもなく強――……」"]},{"code":117,"indent":3,"parameters":[6]},{"code":243,"indent":3,"parameters":[]},{"code":242,"indent":3,"parameters":[1]},{"code":117,"indent":3,"parameters":[155]},{"code":121,"indent":3,"parameters":[26,26,0]},{"code":201,"indent":3,"parameters":[0,20,8,3,2,0]},{"code":223,"indent":3,"parameters":[[-17,-34,-34,0],1,true]},{"code":222,"indent":3,"parameters":[]},{"code":244,"indent":3,"parameters":[]},{"code":0,"indent":3,"parameters":[]},{"code":411,"indent":2,"parameters":[]},{"code":117,"indent":3,"parameters":[6]},{"code":250,"indent":3,"parameters":[{"name":"Monster2","volume":90,"pitch":100,"pan":0}]},{"code":212,"indent":3,"parameters":[-1,16,false]},{"code":205,"indent":3,"parameters":[-1,{"list":[{"code":29,"parameters":[5],"indent":null},{"code":13,"indent":null},{"code":29,"parameters":[4],"indent":null},{"code":0}],"repeat":false,"skippable":false,"wait":true}]},{"code":505,"indent":3,"parameters":[{"code":29,"parameters":[5],"indent":null}]},{"code":505,"indent":3,"parameters":[{"code":13,"indent":null}]},{"code":505,"indent":3,"parameters":[{"code":29,"parameters":[4],"indent":null}]},{"code":230,"indent":3,"parameters":[30]},{"code":101,"indent":3,"parameters":["FaceH3",4,0,2]},{"code":401,"indent":3,"parameters":["「なんなのこいつ, とんでもなく強――……」"]},{"code":121,"indent":3,"parameters":[26,26,0]},{"code":201,"indent":3,"parameters":[0,20,8,3,2,0]},{"code":223,"indent":3,"parameters":[[-17,-34,-34,0],1,true]},{"code":212,"indent":3,"parameters":[-1,45,false]},{"code":0,"indent":3,"parameters":[]},{"code":412,"indent":2,"parameters":[]},{"code":0,"indent":2,"parameters":[]},{"code":604,"indent":1,"parameters":[]},{"code":0,"indent":1,"parameters":[]},{"code":411,"indent":0,"parameters":[]},{"code":301,"indent":1,"parameters":[0,178,false,true]},{"code":601,"indent":1,"parameters":[]},{"code":117,"indent":2,"parameters":[6]},{"code":250,"indent":2,"parameters":[{"name":"Collapse1","volume":90,"pitch":130,"pan":0}]},{"code":205,"indent":2,"parameters":[1,{"list":[{"code":37,"indent":null},{"code":39,"indent":null},{"code":0}],"repeat":false,"skippable":false,"wait":true}]},{"code":505,"indent":2,"parameters":[{"code":37,"indent":null}]},{"code":505,"indent":2,"parameters":[{"code":39,"indent":null}]},{"code":230,"indent":2,"parameters":[60]},{"code":250,"indent":2,"parameters":[{"name":"Blow1","volume":90,"pitch":100,"pan":0}]},{"code":101,"indent":2,"parameters":["FaceH3",4,0,2]},{"code":401,"indent":2,"parameters":["「……はぁ，はぁ……」"]},{"code":101,"indent":2,"parameters":["FaceM1",1,0,2]},{"code":401,"indent":2,"parameters":["\\c[4]「お見事です」"]},{"code":101,"indent":2,"parameters":["FaceH3",4,0,2]},{"code":401,"indent":2,"parameters":["「……こんなのがいるなんて……, "]},{"code":401,"indent":2,"parameters":["　聞いてなかったわ……」"]},{"code":101,"indent":2,"parameters":["FaceM1",1,0,2]},{"code":401,"indent":2,"parameters":["\\c[4]「私も, まさかあれに勝てるとは――」"]},{"code":101,"indent":2,"parameters":["FaceH2",4,0,2]},{"code":401,"indent":2,"parameters":["「何よそれ?」"]},{"code":101,"indent":2,"parameters":["FaceM1",1,0,2]},{"code":401,"indent":2,"parameters":["\\c[4]「――いえ, こう申し上げたかったのです」　"]},{"code":101,"indent":2,"parameters":["FaceM1",1,0,2]},{"code":401,"indent":2,"parameters":["\\c[4]「ここに来てくださったのがHasumiで"]},{"code":401,"indent":2,"parameters":["　良かったと」"]},{"code":101,"indent":2,"parameters":["FaceH1",0,0,2]},{"code":401,"indent":2,"parameters":["「…………」"]},{"code":101,"indent":2,"parameters":["FaceM1",1,0,2]},{"code":401,"indent":2,"parameters":["\\c[4]「…………」"]},{"code":101,"indent":2,"parameters":["FaceH1",0,0,2]},{"code":401,"indent":2,"parameters":["「いったん撤収ね」"]},{"code":101,"indent":2,"parameters":["FaceM1",1,0,2]},{"code":401,"indent":2,"parameters":["\\c[4]「それがよろしいかと」"]},{"code":205,"indent":2,"parameters":[-1,{"list":[{"code":1,"indent":null},{"code":1,"indent":null},{"code":1,"indent":null},{"code":1,"indent":null},{"code":0}],"repeat":false,"skippable":false,"wait":false}]},{"code":505,"indent":2,"parameters":[{"code":1,"indent":null}]},{"code":505,"indent":2,"parameters":[{"code":1,"indent":null}]},{"code":505,"indent":2,"parameters":[{"code":1,"indent":null}]},{"code":505,"indent":2,"parameters":[{"code":1,"indent":null}]},{"code":230,"indent":2,"parameters":[45]},{"code":221,"indent":2,"parameters":[]},{"code":111,"indent":2,"parameters":[0,423,0]},{"code":121,"indent":3,"parameters":[141,141,0]},{"code":223,"indent":3,"parameters":[[0,0,0,0],1,false]},{"code":230,"indent":3,"parameters":[180]},{"code":101,"indent":3,"parameters":["",0,0,2]},{"code":401,"indent":3,"parameters":["\\c[3]　　　▼△▼　　ムービーをスキップします　　▼△▼"]},{"code":230,"indent":3,"parameters":[60]},{"code":101,"indent":3,"parameters":["",0,0,2]},{"code":401,"indent":3,"parameters":["　　　　　　　　　　　 ―Day 2―"]},{"code":401,"indent":3,"parameters":["　　　　　　　2100年12月26日 (日)AM 8時07分"]},{"code":401,"indent":3,"parameters":["　　　　　　　　　Ground Defence Force, Gotemba East Base"]},{"code":401,"indent":3,"parameters":["　　　　　　　　　　　Nautilus2階"]},{"code":201,"indent":3,"parameters":[0,6,13,3,4,0]},{"code":314,"indent":3,"parameters":[0,0]},{"code":123,"indent":3,"parameters":["A",0]},{"code":0,"indent":3,"parameters":[]},{"code":411,"indent":2,"parameters":[]},{"code":230,"indent":3,"parameters":[30]},{"code":223,"indent":3,"parameters":[[-255,-255,-255,0],1,true]},{"code":222,"indent":3,"parameters":[]},{"code":241,"indent":3,"parameters":[{"name":"BGM_Theme2_Balmung_FSPC","volume":45,"pitch":100,"pan":0}]},{"code":230,"indent":3,"parameters":[120]},{"code":231,"indent":3,"parameters":[10,"title3",0,0,0,80,100,100,0,0]},{"code":232,"indent":3,"parameters":[10,0,0,0,0,83,100,100,255,0,40,true]},{"code":232,"indent":3,"parameters":[10,0,0,0,0,127,100,100,255,0,465,true]},{"code":231,"indent":3,"parameters":[11,"uu1-3-7",0,0,20,-8,100,100,255,0]},{"code":230,"indent":3,"parameters":[3]},{"code":231,"indent":3,"parameters":[11,"uu1-3-7",0,0,-16,6,100,100,255,0]},{"code":230,"indent":3,"parameters":[3]},{"code":231,"indent":3,"parameters":[11,"uu1-3-7",0,0,-4,-12,100,100,255,0]},{"code":230,"indent":3,"parameters":[3]},{"code":231,"indent":3,"parameters":[11,"uu1-3-7",0,0,0,0,100,100,255,0]},{"code":230,"indent":3,"parameters":[30]},{"code":224,"indent":3,"parameters":[[255,255,255,255],90,false]},{"code":117,"indent":3,"parameters":[1]},{"code":201,"indent":3,"parameters":[0,58,13,29,6,1]},{"code":123,"indent":3,"parameters":["A",0]},{"code":0,"indent":3,"parameters":[]},{"code":412,"indent":2,"parameters":[]},{"code":0,"indent":2,"parameters":[]},{"code":603,"indent":1,"parameters":[]},{"code":108,"indent":2,"parameters":["▼△▼　　敗北時に変身中か否かで分岐　　▼△▼"]},{"code":111,"indent":2,"parameters":[0,3,0]},{"code":101,"indent":3,"parameters":["FaceH3",4,0,2]},{"code":401,"indent":3,"parameters":["「なんなのこいつ, とんでもなく強――……」"]},{"code":117,"indent":3,"parameters":[6]},{"code":243,"indent":3,"parameters":[]},{"code":242,"indent":3,"parameters":[1]},{"code":117,"indent":3,"parameters":[155]},{"code":121,"indent":3,"parameters":[26,26,0]},{"code":201,"indent":3,"parameters":[0,20,8,3,2,0]},{"code":223,"indent":3,"parameters":[[-17,-34,-34,0],1,true]},{"code":222,"indent":3,"parameters":[]},{"code":244,"indent":3,"parameters":[]},{"code":0,"indent":3,"parameters":[]},{"code":411,"indent":2,"parameters":[]},{"code":117,"indent":3,"parameters":[6]},{"code":250,"indent":3,"parameters":[{"name":"Monster2","volume":90,"pitch":100,"pan":0}]},{"code":212,"indent":3,"parameters":[-1,16,false]},{"code":205,"indent":3,"parameters":[-1,{"list":[{"code":29,"parameters":[5],"indent":null},{"code":13,"indent":null},{"code":29,"parameters":[4],"indent":null},{"code":0}],"repeat":false,"skippable":false,"wait":true}]},{"code":505,"indent":3,"parameters":[{"code":29,"parameters":[5],"indent":null}]},{"code":505,"indent":3,"parameters":[{"code":13,"indent":null}]},{"code":505,"indent":3,"parameters":[{"code":29,"parameters":[4],"indent":null}]},{"code":230,"indent":3,"parameters":[30]},{"code":101,"indent":3,"parameters":["FaceH3",4,0,2]},{"code":401,"indent":3,"parameters":["「なんなのこいつ, とんでもなく強――……」"]},{"code":121,"indent":3,"parameters":[26,26,0]},{"code":201,"indent":3,"parameters":[0,20,8,3,2,0]},{"code":223,"indent":3,"parameters":[[-17,-34,-34,0],1,true]},{"code":212,"indent":3,"parameters":[-1,45,false]},{"code":0,"indent":3,"parameters":[]},{"code":412,"indent":2,"parameters":[]},{"code":0,"indent":2,"parameters":[]},{"code":604,"indent":1,"parameters":[]},{"code":0,"indent":1,"parameters":[]},{"code":412,"indent":0,"parameters":[]},{"code":132,"indent":0,"parameters":[{"name":"SC_battle2","volume":40,"pitch":100,"pan":0}]},{"code":133,"indent":0,"parameters":[{"name":"Victory2","volume":85,"pitch":110,"pan":0}]},{"code":214,"indent":0,"parameters":[]},{"code":0,"indent":0,"parameters":[]}],"moveFrequency":3,"moveRoute":{"list":[{"code":0,"parameters":[]}],"repeat":true,"skippable":false,"wait":false},"moveSpeed":3,"moveType":0,"priorityType":0,"stepAnime":false,"through":false,"trigger":3,"walkAnime":true},{"conditions":{"actorId":1,"actorValid":false,"itemId":1,"itemValid":false,"selfSwitchCh":"A","selfSwitchValid":true,"switch1Id":1,"switch1Valid":false,"switch2Id":1,"switch2Valid":false,"variableId":1,"variableValid":false,"variableValue":0},"directionFix":false,"image":{"characterIndex":0,"characterName":"","direction":2,"pattern":0,"tileId":0},"list":[{"code":0,"indent":0,"parameters":[]}],"moveFrequency":3,"moveRoute":{"list":[{"code":0,"parameters":[]}],"repeat":true,"skippable":false,"wait":false},"moveSpeed":3,"moveType":0,"priorityType":0,"stepAnime":false,"through":false,"trigger":0,"walkAnime":true}],"x":0,"y":0},
{"id":3,"name":"EV003","note":"","pages":[{"conditions":{"actorId":1,"actorValid":false,"itemId":1,"itemValid":false,"selfSwitchCh":"A","selfSwitchValid":false,"switch1Id":1,"switch1Valid":false,"switch2Id":1,"switch2Valid":false,"variableId":1,"variableValid":false,"variableValue":0},"directionFix":false,"image":{"characterIndex":0,"characterName":"","direction":2,"pattern":0,"tileId":0},"list":[{"code":250,"indent":0,"parameters":[{"name":"Move1","pan":0,"pitch":100,"volume":90}]},{"code":201,"indent":0,"parameters":[0,20,7,3,0,0]},{"code":0,"indent":0,"parameters":[]}],"moveFrequency":3,"moveRoute":{"list":[{"code":0,"parameters":[]}],"repeat":true,"skippable":false,"wait":false},"moveSpeed":3,"moveType":0,"priorityType":0,"stepAnime":false,"through":false,"trigger":1,"walkAnime":true}],"x":7,"y":19},
{"id":4,"name":"EV004","note":"","pages":[{"conditions":{"actorId":1,"actorValid":false,"itemId":1,"itemValid":false,"selfSwitchCh":"A","selfSwitchValid":false,"switch1Id":1,"switch1Valid":false,"switch2Id":1,"switch2Valid":false,"variableId":1,"variableValid":false,"variableValue":0},"directionFix":false,"image":{"characterIndex":0,"characterName":"","direction":2,"pattern":0,"tileId":0},"list":[{"code":250,"indent":0,"parameters":[{"name":"Move1","pan":0,"pitch":100,"volume":90}]},{"code":201,"indent":0,"parameters":[0,20,7,3,0,0]},{"code":0,"indent":0,"parameters":[]}],"moveFrequency":3,"moveRoute":{"list":[{"code":0,"parameters":[]}],"repeat":true,"skippable":false,"wait":false},"moveSpeed":3,"moveType":0,"priorityType":0,"stepAnime":false,"through":false,"trigger":1,"walkAnime":true}],"x":8,"y":19},
{"id":5,"name":"EV005","note":"","pages":[{"conditions":{"actorId":1,"actorValid":false,"itemId":1,"itemValid":false,"selfSwitchCh":"A","selfSwitchValid":false,"switch1Id":1,"switch1Valid":false,"switch2Id":1,"switch2Valid":false,"variableId":1,"variableValid":false,"variableValue":0},"directionFix":false,"image":{"characterIndex":0,"characterName":"","direction":2,"pattern":0,"tileId":0},"list":[{"code":250,"indent":0,"parameters":[{"name":"Move1","pan":0,"pitch":100,"volume":90}]},{"code":201,"indent":0,"parameters":[0,20,7,3,0,0]},{"code":0,"indent":0,"parameters":[]}],"moveFrequency":3,"moveRoute":{"list":[{"code":0,"parameters":[]}],"repeat":true,"skippable":false,"wait":false},"moveSpeed":3,"moveType":0,"priorityType":0,"stepAnime":false,"through":false,"trigger":1,"walkAnime":true}],"x":9,"y":19},
null,
null
]
}