{
"autoplayBgm":false,"autoplayBgs":false,"battleback1Name":"","battleback2Name":"","bgm":{"name":"","pan":0,"pitch":100,"volume":90},"bgs":{"name":"","pan":0,"pitch":100,"volume":90},"disableDashing":false,"displayName":"","encounterList":[],"encounterStep":30,"height":13,"note":"","parallaxLoopX":false,"parallaxLoopY":false,"parallaxName":"","parallaxShow":true,"parallaxSx":0,"parallaxSy":0,"scrollType":0,"specifyBattleback":false,"tilesetId":6,"width":17,
"data":[0,0,6768,6752,6756,6780,6780,6780,6780,6780,6780,6780,6760,6752,6776,0,0,0,0,6770,6780,6790,7138,7138,7138,7138,7138,7138,7138,6792,6780,6777,0,0,0,0,6784,7138,7142,7144,7144,7144,7144,7144,7144,7148,7139,7138,6784,0,0,0,0,6784,7144,7148,1633,1633,1633,1633,1633,1633,1633,7145,7144,6784,0,0,0,0,6784,1633,1633,1633,1633,1633,1633,1633,1633,1633,1633,1633,6784,0,0,0,0,6784,1633,1633,1633,1633,1633,1633,1633,1633,1633,1633,1633,6784,0,0,0,0,6784,1633,1633,1633,1633,1633,1633,1633,1633,1633,1633,1633,6784,0,0,0,0,6784,1633,1633,1633,1633,1633,1633,1633,1633,1633,1633,1633,6784,0,0,0,0,6784,1633,1633,1633,1633,1633,1633,1633,1633,1633,1633,1633,6784,0,0,0,0,6784,1633,1633,1633,1633,1633,1633,1633,1633,1633,1633,1633,6784,0,0,0,0,6769,6788,1633,1633,1633,1633,1633,1633,1633,1633,1633,6786,6778,0,0,0,0,6792,6782,6785,6785,6785,6797,1633,6795,6785,6785,6785,6781,6790,0,0,0,0,0,0,0,0,0,0,0,0,0,0,0,0,0,0,0,0,0,0,0,0,0,0,0,0,0,0,0,0,0,0,0,0,0,0,0,0,0,0,0,0,0,0,0,0,0,0,0,0,0,0,0,0,0,0,0,0,0,0,0,0,0,0,0,0,0,0,0,0,0,0,0,0,0,0,3531,3533,3963,3965,0,0,0,0,0,0,0,0,0,0,0,3534,0,0,0,0,3534,0,0,0,0,0,0,0,0,3531,3533,0,0,3150,0,3534,0,0,3530,0,0,0,0,0,0,0,3150,0,3534,0,0,0,0,0,0,3532,0,0,0,0,0,0,0,0,0,0,0,0,0,0,0,0,0,0,0,0,0,0,0,0,0,0,0,0,3531,3533,0,3534,0,0,0,0,0,0,0,0,0,3534,0,3522,3524,0,0,0,0,3150,0,3534,0,0,0,0,0,0,0,3150,3528,3526,0,0,0,3531,3533,3150,0,0,0,0,0,0,0,0,0,0,0,0,0,0,0,0,0,0,0,0,0,0,0,0,0,0,0,0,0,0,0,0,0,0,0,0,0,0,0,0,0,0,0,0,0,0,0,0,0,0,0,0,0,0,0,0,0,0,0,0,0,0,0,0,0,0,0,0,0,0,0,0,0,0,0,0,0,0,0,0,0,0,0,0,0,0,0,0,0,0,0,0,0,0,0,0,0,0,0,0,0,0,0,0,0,0,0,0,0,0,0,0,0,0,0,0,0,0,0,82,0,0,0,0,0,0,0,0,0,0,0,0,0,0,0,0,82,0,0,0,0,0,0,0,0,0,0,0,0,0,0,0,0,0,0,0,0,0,0,0,0,323,323,323,0,0,0,323,323,323,0,0,0,0,0,0,0,0,0,0,0,0,0,0,0,0,0,0,0,0,0,0,0,0,0,0,0,0,0,0,0,0,0,0,0,0,0,0,0,0,0,0,0,0,0,0,0,0,0,0,0,0,0,0,0,0,0,0,0,0,0,0,0,0,0,0,0,0,0,0,0,0,0,0,0,0,0,0,0,0,0,0,0,0,0,0,0,0,0,0,0,0,0,0,0,0,0,0,0,0,0,0,0,0,0,0,0,0,0,0,0,0,319,0,0,0,319,0,0,0,0,0,0,0,0,0,0,368,354,354,355,0,0,370,371,0,0,0,0,0,0,0,0,354,368,362,362,363,0,0,143,129,0,74,0,0,0,0,0,0,362,376,0,0,0,0,0,0,0,0,74,0,0,0,0,0,0,0,0,0,0,0,0,0,0,0,0,74,0,0,0,0,0,0,0,0,0,498,499,0,498,499,0,0,82,0,0,0,0,0,0,501,502,503,506,507,0,506,507,501,502,503,0,0,0,0,0,0,509,510,511,0,0,0,0,0,509,510,511,0,0,0,0,0,0,0,0,0,0,0,0,0,0,0,0,0,0,0,0,0,0,0,0,0,0,0,0,0,0,0,0,0,0,0,0,0,0,0,0,0,0,0,0,0,0,0,0,0,0,0,0,0,0,0,0,0,0,0,0,0,0,0,0,0,0,0,0,0,0,0,0,0,0,0,0,0,0,0,0,0,0,0,0,0,0,0,0,0,0,0,0,0,0,0,0,0,0,0,0,0,0,0,0,0,0,0,0,0,0,0,0,0,0,0,0,0,0,0,0,0,0,0,0,0,0,0,5,0,0,0,0,0,0,0,0,0,0,0,0,0,0,5,0,0,0,0,0,0,0,0,0,0,0,0,0,0,0,0,5,0,0,0,0,0,0,0,0,0,0,0,0,0,0,0,0,5,0,0,0,0,0,0,0,0,0,0,0,0,0,0,0,0,5,0,0,0,0,0,0,0,0,0,0,0,0,0,0,0,0,5,0,0,0,0,0,0,0,0,0,0,0,0,0,0,0,0,5,0,0,0,0,0,0,0,0,0,0,0,0,0,0,0,0,0,0,0,0,0,0,0,0,0,0,0,0,0,0,0,0,0,0,0,0,0,0,0,0,0,0,0,0,0,0,0,0,0,0,0,0,0,0,0,0,0,0,0,0,0,0,0,0,0,0,0,0,0,0,0,0,0,0,0,0,0,0,0,0,0,0,0,0,0,0,0,0,0,0,0,0,0,0,0,0,0,0,0,0,0,0,0,0,0,0,0,0,0,0,0,0,0,0,0,0,0,0,0,0,0,0,0,0,0,0,0,0,0,0,0,0,0,0,0,0,0,0,0,0,0,0,0,0,0,0,0,0,0,0,0,0,0,0,0,0,0,0,0,0,0,0,0,0,0,0,0,0,0,0,0,0,0,0,0,0,0,0,0,0,0,0,0,0,0,0,0,0,0,0,0,0,0,0,0,0,0,0,0,0,0,0,0,0,0,0,0,0,0,0,0,0,0,0,0,0,0,0,0,0,0,0,0,0,0,0,0,0,0,0,0,0,0,0,0,0,0,0,0,0,0,0,0,0,0,0,0,0,0,0,0,0,0,0,0,0,0,0,0,0,0,0,0,0,0,0,0,0,0,0,0,0,0,0,0,0,0,0,0,0,0,0,0,0,0],
"events":[
null,
{"id":1,"name":"[Treasure Box]","note":"","pages":[{"conditions":{"actorId":1,"actorValid":false,"itemId":1,"itemValid":false,"selfSwitchCh":"A","selfSwitchValid":false,"switch1Id":1,"switch1Valid":false,"switch2Id":1,"switch2Valid":false,"variableId":1,"variableValid":false,"variableValue":0},"directionFix":true,"image":{"characterIndex":3,"characterName":"!SF_Chest","direction":2,"pattern":1,"tileId":0},"list":[{"code":250,"indent":0,"parameters":[{"name":"Chest1","pan":0,"pitch":100,"volume":90}]},{"code":205,"indent":0,"parameters":[0,{"list":[{"code":36},{"code":17},{"code":15,"parameters":[3]},{"code":18},{"code":15,"parameters":[3]},{"code":0}],"repeat":false,"skippable":false,"wait":true}]},{"code":505,"indent":0,"parameters":[{"code":36}]},{"code":505,"indent":0,"parameters":[{"code":17}]},{"code":505,"indent":0,"parameters":[{"code":15,"parameters":[3]}]},{"code":505,"indent":0,"parameters":[{"code":18}]},{"code":505,"indent":0,"parameters":[{"code":15,"parameters":[3]}]},{"code":123,"indent":0,"parameters":["A",0]},{"code":249,"indent":0,"parameters":[{"name":"Item","volume":90,"pitch":100,"pan":0}]},{"code":128,"indent":0,"parameters":[33,0,0,1,false]},{"code":101,"indent":0,"parameters":["",0,0,2]},{"code":401,"indent":0,"parameters":["Found a \\c[2]インフィニットリアクター\\c[0] !"]},{"code":0,"indent":0,"parameters":[]}],"moveFrequency":3,"moveRoute":{"list":[{"code":0,"parameters":[]}],"repeat":true,"skippable":false,"wait":false},"moveSpeed":3,"moveType":0,"priorityType":1,"stepAnime":false,"through":false,"trigger":0,"walkAnime":false},{"conditions":{"actorId":1,"actorValid":false,"itemId":1,"itemValid":false,"selfSwitchCh":"A","selfSwitchValid":true,"switch1Id":1,"switch1Valid":false,"switch2Id":1,"switch2Valid":false,"variableId":1,"variableValid":false,"variableValue":0},"directionFix":true,"image":{"characterIndex":3,"characterName":"!SF_Chest","direction":8,"pattern":1,"tileId":0},"list":[{"code":0,"indent":0,"parameters":[]}],"moveFrequency":3,"moveRoute":{"list":[{"code":0,"parameters":[]}],"repeat":true,"skippable":false,"wait":false},"moveSpeed":3,"moveType":0,"priorityType":1,"stepAnime":false,"through":false,"trigger":0,"walkAnime":false}],"x":12,"y":4},
{"id":2,"name":"[enm]固定パターン","note":"","pages":[{"conditions":{"actorId":1,"actorValid":false,"itemId":1,"itemValid":false,"selfSwitchCh":"A","selfSwitchValid":false,"switch1Id":124,"switch1Valid":false,"switch2Id":1,"switch2Valid":false,"variableId":1,"variableValid":false,"variableValue":0},"directionFix":false,"image":{"tileId":0,"characterName":"SF_Monster","direction":2,"pattern":1,"characterIndex":3},"list":[{"code":250,"indent":0,"parameters":[{"name":"Machine","volume":90,"pitch":130,"pan":0}]},{"code":230,"indent":0,"parameters":[120]},{"code":111,"indent":0,"parameters":[0,218,1]},{"code":301,"indent":1,"parameters":[0,52,false,true]},{"code":601,"indent":1,"parameters":[]},{"code":117,"indent":2,"parameters":[6]},{"code":121,"indent":2,"parameters":[39,39,0]},{"code":121,"indent":2,"parameters":[40,40,0]},{"code":121,"indent":2,"parameters":[42,42,0]},{"code":250,"indent":2,"parameters":[{"name":"Collapse1","volume":90,"pitch":130,"pan":0}]},{"code":122,"indent":2,"parameters":[49,49,1,0,1]},{"code":123,"indent":2,"parameters":["B",0]},{"code":0,"indent":2,"parameters":[]},{"code":603,"indent":1,"parameters":[]},{"code":108,"indent":2,"parameters":["▼△▼　　敗北時に変身中か否かで分岐　　▼△▼"]},{"code":121,"indent":2,"parameters":[39,39,0]},{"code":121,"indent":2,"parameters":[40,40,0]},{"code":121,"indent":2,"parameters":[42,42,0]},{"code":111,"indent":2,"parameters":[0,3,0]},{"code":117,"indent":3,"parameters":[6]},{"code":243,"indent":3,"parameters":[]},{"code":242,"indent":3,"parameters":[1]},{"code":117,"indent":3,"parameters":[163]},{"code":201,"indent":3,"parameters":[0,41,37,44,2,0]},{"code":223,"indent":3,"parameters":[[-51,-51,-34,0],1,true]},{"code":222,"indent":3,"parameters":[]},{"code":244,"indent":3,"parameters":[]},{"code":0,"indent":3,"parameters":[]},{"code":411,"indent":2,"parameters":[]},{"code":117,"indent":3,"parameters":[6]},{"code":212,"indent":3,"parameters":[-1,45,false]},{"code":0,"indent":3,"parameters":[]},{"code":412,"indent":2,"parameters":[]},{"code":0,"indent":2,"parameters":[]},{"code":604,"indent":1,"parameters":[]},{"code":0,"indent":1,"parameters":[]},{"code":411,"indent":0,"parameters":[]},{"code":301,"indent":1,"parameters":[0,222,false,true]},{"code":601,"indent":1,"parameters":[]},{"code":117,"indent":2,"parameters":[6]},{"code":121,"indent":2,"parameters":[39,39,0]},{"code":121,"indent":2,"parameters":[40,40,0]},{"code":121,"indent":2,"parameters":[42,42,0]},{"code":250,"indent":2,"parameters":[{"name":"Collapse1","volume":90,"pitch":130,"pan":0}]},{"code":122,"indent":2,"parameters":[49,49,1,0,1]},{"code":123,"indent":2,"parameters":["B",0]},{"code":0,"indent":2,"parameters":[]},{"code":603,"indent":1,"parameters":[]},{"code":108,"indent":2,"parameters":["▼△▼　　敗北時に変身中か否かで分岐　　▼△▼"]},{"code":121,"indent":2,"parameters":[39,39,0]},{"code":121,"indent":2,"parameters":[40,40,0]},{"code":121,"indent":2,"parameters":[42,42,0]},{"code":111,"indent":2,"parameters":[0,3,0]},{"code":117,"indent":3,"parameters":[6]},{"code":243,"indent":3,"parameters":[]},{"code":242,"indent":3,"parameters":[1]},{"code":117,"indent":3,"parameters":[163]},{"code":201,"indent":3,"parameters":[0,41,37,44,2,0]},{"code":223,"indent":3,"parameters":[[-51,-51,-34,0],1,true]},{"code":222,"indent":3,"parameters":[]},{"code":244,"indent":3,"parameters":[]},{"code":0,"indent":3,"parameters":[]},{"code":411,"indent":2,"parameters":[]},{"code":117,"indent":3,"parameters":[6]},{"code":212,"indent":3,"parameters":[-1,45,false]},{"code":0,"indent":3,"parameters":[]},{"code":412,"indent":2,"parameters":[]},{"code":0,"indent":2,"parameters":[]},{"code":604,"indent":1,"parameters":[]},{"code":0,"indent":1,"parameters":[]},{"code":412,"indent":0,"parameters":[]},{"code":0,"indent":0,"parameters":[]}],"moveFrequency":3,"moveRoute":{"list":[{"code":0,"parameters":[]}],"repeat":true,"skippable":false,"wait":false},"moveSpeed":3,"moveType":0,"priorityType":1,"stepAnime":true,"through":false,"trigger":2,"walkAnime":true},{"conditions":{"actorId":1,"actorValid":false,"itemId":1,"itemValid":false,"selfSwitchCh":"B","selfSwitchValid":true,"switch1Id":1,"switch1Valid":false,"switch2Id":1,"switch2Valid":false,"variableId":1,"variableValid":false,"variableValue":0},"directionFix":false,"image":{"characterIndex":0,"characterName":"","direction":2,"pattern":0,"tileId":0},"list":[{"code":0,"indent":0,"parameters":[]}],"moveFrequency":3,"moveRoute":{"list":[{"code":0,"parameters":[]}],"repeat":true,"skippable":false,"wait":false},"moveSpeed":3,"moveType":0,"priorityType":0,"stepAnime":false,"through":true,"trigger":0,"walkAnime":true}],"x":8,"y":6},
{"id":3,"name":"予言機に関する覚書","note":"","pages":[{"conditions":{"actorId":1,"actorValid":false,"itemId":1,"itemValid":false,"selfSwitchCh":"A","selfSwitchValid":false,"switch1Id":1,"switch1Valid":false,"switch2Id":1,"switch2Valid":false,"variableId":1,"variableValid":false,"variableValue":0},"directionFix":true,"image":{"tileId":0,"characterName":"!Flame","direction":2,"pattern":0,"characterIndex":7},"list":[{"code":250,"indent":0,"parameters":[{"name":"Book1","volume":90,"pitch":100,"pan":0}]},{"code":231,"indent":0,"parameters":[4,"uu4-3",0,0,0,0,100,100,0,0]},{"code":232,"indent":0,"parameters":[4,0,0,0,0,0,100,100,255,0,15,false]},{"code":234,"indent":0,"parameters":[4,[-136,-136,-136,0],15,true]},{"code":101,"indent":0,"parameters":["",0,0,2]},{"code":401,"indent":0,"parameters":[""]},{"code":401,"indent":0,"parameters":["\\>　　　　　<<　　予言観測機に関する覚書　>>"]},{"code":101,"indent":0,"parameters":["",0,0,2]},{"code":401,"indent":0,"parameters":["数十回に及ぶ試行と入出力結果の計算により, 観測機の示す"]},{"code":401,"indent":0,"parameters":["予言が極めてシンプルな数式の計算に基づいていることが判"]},{"code":401,"indent":0,"parameters":["明した. "]},{"code":101,"indent":0,"parameters":["",0,0,2]},{"code":401,"indent":0,"parameters":["相変わらず本体の材質と損傷方法については不明だが, その"]},{"code":401,"indent":0,"parameters":["機能は単なる子供だましではないかと思われる. "]},{"code":101,"indent":0,"parameters":["",0,0,2]},{"code":401,"indent":0,"parameters":["しかしこの式を見る限り計算不可能なパターンが含まれるよ"]},{"code":401,"indent":0,"parameters":["うだがその値の入力テストはまだ所長の許可を得られていな"]},{"code":401,"indent":0,"parameters":["い. "]},{"code":250,"indent":0,"parameters":[{"name":"Book1","volume":90,"pitch":100,"pan":0}]},{"code":232,"indent":0,"parameters":[4,0,0,0,0,0,100,100,0,0,15,false]},{"code":0,"indent":0,"parameters":[]}],"moveFrequency":3,"moveRoute":{"list":[{"code":0,"parameters":[]}],"repeat":true,"skippable":false,"wait":false},"moveSpeed":3,"moveType":0,"priorityType":1,"stepAnime":true,"through":false,"trigger":0,"walkAnime":true}],"x":10,"y":3},
{"id":4,"name":"EV004","note":"","pages":[{"conditions":{"actorId":1,"actorValid":false,"itemId":1,"itemValid":false,"selfSwitchCh":"A","selfSwitchValid":false,"switch1Id":1,"switch1Valid":false,"switch2Id":1,"switch2Valid":false,"variableId":1,"variableValid":false,"variableValue":0},"directionFix":false,"image":{"characterIndex":0,"characterName":"","direction":2,"pattern":0,"tileId":0},"list":[{"code":250,"indent":0,"parameters":[{"name":"Move1","pan":0,"pitch":100,"volume":90}]},{"code":201,"indent":0,"parameters":[0,41,37,44,0,0]},{"code":0,"indent":0,"parameters":[]}],"moveFrequency":3,"moveRoute":{"list":[{"code":0,"parameters":[]}],"repeat":true,"skippable":false,"wait":false},"moveSpeed":3,"moveType":0,"priorityType":0,"stepAnime":false,"through":false,"trigger":1,"walkAnime":true}],"x":8,"y":11}
]
}