{
  "airship": {
    "bgm": {
      "name": "Ship3",
      "pan": 0,
      "pitch": 100,
      "volume": 90
    },
    "characterIndex": 3,
    "characterName": "Vehicle",
    "startMapId": 0,
    "startX": 0,
    "startY": 0
  },
  "armorTypes": [
    "",
    "Jewel",
    "Driver"
  ],
  "attackMotions": [
    {
      "type": 0,
      "weaponImageId": 0
    },
    {
      "type": 1,
      "weaponImageId": 1
    },
    {
      "type": 1,
      "weaponImageId": 2
    },
    {
      "type": 1,
      "weaponImageId": 3
    },
    {
      "type": 1,
      "weaponImageId": 4
    },
    {
      "type": 1,
      "weaponImageId": 5
    },
    {
      "type": 1,
      "weaponImageId": 6
    },
    {
      "type": 2,
      "weaponImageId": 7
    },
    {
      "type": 2,
      "weaponImageId": 8
    },
    {
      "type": 2,
      "weaponImageId": 9
    },
    {
      "type": 0,
      "weaponImageId": 10
    },
    {
      "type": 0,
      "weaponImageId": 11
    },
    {
      "type": 0,
      "weaponImageId": 12
    }
  ],
  "battleBgm": {
    "name": "SC_battle2",
    "pan": 0,
    "pitch": 100,
    "volume": 40
  },
  "battleback1Name": "DirtField",
  "battleback2Name": "Mine",
  "battlerHue": 0,
  "battlerName": "Dragon",
  "boat": {
    "bgm": {
      "name": "Ship1",
      "pan": 0,
      "pitch": 100,
      "volume": 90
    },
    "characterIndex": 0,
    "characterName": "Vehicle",
    "startMapId": 0,
    "startX": 0,
    "startY": 0
  },
  "currencyUnit": "₿",
  "defeatMe": {
    "name": "Defeat1",
    "pan": 0,
    "pitch": 100,
    "volume": 90
  },
  "editMapId": 43,
  "elements": [
    "",
    "Physics",
    "Flame",
    "Ice",
    "Lightning",
    "Plasma",
    "Darkness",
    "Drain",
    "Breast caressing",
    "Secret Fondling",
    "Brainwashing",
    "",
    ""
  ],
  "equipTypes": [
    "",
    "Marco",
    "Core Slot",
    "D slot."
  ],
  "gameTitle": "The Tale of Undercrust - Hasumi and the Last Seven Days",
  "gameoverMe": {
    "name": "Gameover1",
    "pan": 0,
    "pitch": 100,
    "volume": 90
  },
  "locale": "en_US",
  "magicSkills": [
    1
  ],
  "menuCommands": [
    true,
    true,
    true,
    true,
    false,
    true
  ],
  "optDisplayTp": true,
  "optDrawTitle": false,
  "optExtraExp": false,
  "optFloorDeath": false,
  "optFollowers": false,
  "optSideView": false,
  "optSlipDeath": false,
  "optTransparent": true,
  "partyMembers": [
    1
  ],
  "ship": {
    "bgm": {
      "name": "Ship2",
      "pan": 0,
      "pitch": 100,
      "volume": 90
    },
    "characterIndex": 1,
    "characterName": "Vehicle",
    "startMapId": 0,
    "startX": 0,
    "startY": 0
  },
  "skillTypes": [
    "",
    "E Skills",
    "Swordsmanship Skills",
    "Transformation",
    "Resistance",
    "Standby",
    "E-Shield",
    "Normal attack."
  ],
  "sounds": [
    {
      "name": "SE_select02_FSPC",
      "pan": 0,
      "pitch": 100,
      "volume": 90
    },
    {
      "name": "Decision1",
      "pan": 0,
      "pitch": 100,
      "volume": 90
    },
    {
      "name": "Cancel2",
      "pan": 0,
      "pitch": 100,
      "volume": 90
    },
    {
      "name": "Buzzer1",
      "pan": 0,
      "pitch": 100,
      "volume": 90
    },
    {
      "name": "SE_select04_FSPC",
      "pan": 0,
      "pitch": 100,
      "volume": 90
    },
    {
      "name": "SE_se19_FSPC",
      "pan": 0,
      "pitch": 100,
      "volume": 90
    },
    {
      "name": "Load",
      "pan": 0,
      "pitch": 100,
      "volume": 90
    },
    {
      "name": "Battle1",
      "pan": 0,
      "pitch": 100,
      "volume": 90
    },
    {
      "name": "Run",
      "pan": 0,
      "pitch": 100,
      "volume": 90
    },
    {
      "name": "Attack3",
      "pan": 0,
      "pitch": 100,
      "volume": 90
    },
    {
      "name": "Damage4",
      "pan": 0,
      "pitch": 100,
      "volume": 70
    },
    {
      "name": "Collapse1",
      "pan": 0,
      "pitch": 100,
      "volume": 90
    },
    {
      "name": "Collapse2",
      "pan": 0,
      "pitch": 100,
      "volume": 90
    },
    {
      "name": "Collapse3",
      "pan": 0,
      "pitch": 100,
      "volume": 90
    },
    {
      "name": "Damage5",
      "pan": 0,
      "pitch": 100,
      "volume": 90
    },
    {
      "name": "Collapse4",
      "pan": 0,
      "pitch": 100,
      "volume": 90
    },
    {
      "name": "Recovery",
      "pan": 0,
      "pitch": 100,
      "volume": 90
    },
    {
      "name": "Miss",
      "pan": 0,
      "pitch": 100,
      "volume": 90
    },
    {
      "name": "Evasion1",
      "pan": 0,
      "pitch": 100,
      "volume": 90
    },
    {
      "name": "Evasion2",
      "pan": 0,
      "pitch": 100,
      "volume": 90
    },
    {
      "name": "Reflection",
      "pan": 0,
      "pitch": 100,
      "volume": 90
    },
    {
      "name": "Shop1",
      "pan": 0,
      "pitch": 100,
      "volume": 90
    },
    {
      "name": "Item3",
      "pan": 0,
      "pitch": 100,
      "volume": 90
    },
    {
      "name": "Item3",
      "pan": 0,
      "pitch": 100,
      "volume": 90
    }
  ],
  "startMapId": 43,
  "startX": 16,
  "startY": 12,
  "switches": [
    "",
    "●1-20 is used in combat",
    "[B]Marco Sw (M on)",
    "[M]Transforming",
    "[M]M Transformation State",
    "[M]S Transformation State",
    "[T]status affection 1",
    "[T]status affection 2",
    "[T]status affection 3",
    "[T]status affection 4",
    "[T]status affection 5",
    "[T]status affection 6",
    "[T]status affection 7",
    "[T]status affection 8",
    "[T]status affection 9",
    "[T]Infection 10 <climaxing>",
    "[system] with or without a cut-in",
    "[B]once in battle 1",
    "[B]broken suite",
    "[B]once in battle 2",
    "[ECharge]Cerberus Battle",
    "●21-First production flag",
    "[OK]Luminous slime",
    "[OK]Lower combatants",
    "[OK]Lava Drake ",
    "[OK]Dance Skeleton",
    "[OK]Cerberus",
    "[OK]Phosphorescent slime",
    "[OK]Religious Wizard",
    "[OK]Nicola (first match)",
    "[OK]Ghost",
    "[OK]Carsborn",
    "[OK]Slimy Kazura",
    "[OK]Wisp",
    "[OK]Sticky Kazura",
    "[OK]Oil Spider",
    "[OK]Lambda Parasite",
    "[OK]Underground Lake Spirit",
    "[OK]Lake Succubus",
    "[OK]DOS-01",
    "[OK]DOS-02",
    "[OK]DOS-03",
    "[OK]DOS-04",
    "[OK]DOS-05",
    "[OK]DOS-06",
    "[OK]DOS-07",
    "[OK]Electric Jerry",
    "[OK]Intermediate Combatant",
    "[OK]Nicola (2nd time)",
    "[OK]DOS-00",
    "[OK]Puppet Circus",
    "[OK]Nightmare (1st time)",
    "[OK]Tin Queen",
    "[OK]Tin Soldier",
    "[OK]Nightmare (2nd time)",
    "[OK]Senior Combatant",
    "[OK]Giant Combatant",
    "[OK]Brain Washer",
    "[OK]Machine Guard",
    "[OK]Nikora (3rd time)",
    "[OK]Nebra",
    "● 61-DOS series Stefrag",
    "[T]Affected (chest)",
    "[T]Drain (chest)",
    "[T]Affected (crotch)",
    "[T]Drain (crotch)",
    "[T]Affected (head)",
    "[T]Drain (head)",
    "[T]Affected (limb restraint)",
    "[T]Affected (systemic restraint)",
    "[T]Drain (07 Hypnosis)",
    "[sys]Start battle in Hanes",
    "[sys]Harness with completed map",
    "[B-]Harnes bind at the end",
    "[T]Item use prohibited flag",
    "[B]Start flag in transformation state",
    "[OK]Rusted tentacles",
    "[OK]creaking tentacles",
    "[OK]Sarcoma mutant",
    "[OK]Fals = Anactors",
    "[OK]Solaris",
    "● 81-Around the system",
    "[sys]Nobel mode started",
    "[sys]Dungeon name pop",
    "[sys]in battle",
    "[sys]Weapon change (execution)",
    "[sys]Glossary available",
    "[sys]Escape navigation available",
    "[sys]Star Chart Opening",
    "[Release]Christmas Lost",
    "[Release]Hypnosis Voice 1",
    "[Release]Hypnosis Voice 2",
    "[Release]Hold me",
    "[Release]Cartoonist Sexual Harassment",
    "[Release]Hypnotic Man 1",
    "[Release]Hypnotic Man 2",
    "[Release]Hypnotic Man 3",
    "[Release]Harness release",
    "[Release]Rabbit Moon Lid Processing",
    "[Release]Love lid processing",
    "[Release]Mental Contamination END",
    "-Hidden Cave Release-",
    "[Release]Lava Reservoir",
    "[Release]Crystal Cave",
    "[Release]Limestone Cave",
    "[Release]Underground Storage",
    "[Release]Parasite Burrow",
    "[Release]boiling lava tube",
    "",
    "[Release]Cold air side hole",
    "[Release]5th Station Base",
    "-Day 1-",
    "[Progress]After the first conversation in Rabbit Moon",
    "[dgn]First Mushroom Collection",
    "[dgn]After a conversation about exploration",
    "[dgn]Groundwater check",
    "[dgn]Sea of Fire Check 1",
    "[dgn]Fire Sea Check 2",
    "[dgn]Fire Sea Check 3",
    "[dgn]Drilling in bedrock",
    "[dgn]Barrier Check",
    "[dgn]Destroyed the rock",
    "[dgn]Rock Destruction B2-1",
    "[dgn]After the first slime war",
    "[sys]Dgn name displayed 1",
    "[Progress]Rabbit Moon Conversation Completed",
    "[dgn]Rock Destruction 1F-2",
    "[dgn]Aisle collapse",
    "[dgn]Narrow road exit opened",
    "[dgn]Watch out for Drake's Nest",
    "[auto]Opening ev startup",
    "[hev]Slime Branch Flag",
    "",
    "",
    "",
    "",
    "",
    "",
    "",
    "",
    "",
    "-Day 2-",
    "[dgn]Flag to save cult members",
    "[dgn]Erin Temple Flag 1",
    "[Sys] Dgn name displayed 2",
    "[Bas] Introducing Love",
    "[dgn]After a conversation with Nikola",
    "[dgn]Barrier Check 2",
    "[dgn]Pot Discount",
    "[dgn]Ice stake first check",
    "[dgn]Drop the rope",
    "[dgn]Obstacle Rock Check",
    "[dgn]Lava Destruction 1",
    "[dgn]Lava Destruction 2",
    "[dgn]Lava Destruction Check",
    "[dgn]Barite Check",
    "[dgn]Crystal Fracture",
    "[dgn]cult member erasing flag",
    "[dgn]Defeated by Nikola",
    "[dgn]Draining",
    "[Sys] Hot springs available",
    "[Bas] I talked about hot springs",
    "[Bas] End of conversation with Marco",
    "[dgn]Rescue of cult members (Flag)",
    "[dgn]Open Iwato (for memo)",
    "[dgn]Celestial Sphere Box Appears",
    "",
    "",
    "",
    "",
    "",
    "-Day 3-",
    "[Dgn] Ivy Mowed 1",
    "[Sys] Dgn name displayed 3",
    "[Dgn] Obstacle Rock Destruction 1",
    "[Dgn] Obstacle Rock Destruction 2",
    "[Bas] After the meeting",
    "[Dgn] Win the Succubus",
    "[Dgn] Spider Egg Check",
    "[Bas] Conversation with Tezuka and Kodama",
    "[Bas] Marco Conversation End",
    "[Dgn] Ivy Mowed 2",
    "[Dgn] Obstacle Rock Destruction 3",
    "[Dgn] To Succubus Battle (for memo)",
    "[Dgn] Sticky Vine Battle (for memo)",
    "[Bas] Meet Minegishi Minegishi",
    "[Dgn] Obstacle Rock Destruction 4",
    "",
    "",
    "",
    "",
    "",
    "",
    "",
    "",
    "",
    "",
    "",
    "",
    "",
    "[HDgn] Drill a hole in a limestone cave",
    "● Overall map initial production control",
    "[First production] Abandoned mine",
    "[First production] Cold air side hole",
    "[First production] Wetland",
    "[First production] Laboratory",
    "[First production] Dollhouse",
    "[First production] Hoshigamiden",
    "[First production] Wriggle abyss",
    "[First production] Lava pool",
    "[First production] Crystal Cave",
    "[First production] 5th station base",
    "[First production] Research Institute 1",
    "[First production] Dollhouse",
    "[First production] Hoshigamiden",
    "[First production]",
    "[First production]",
    "[Sys] production cut",
    "[Sys] Simple mode",
    "[Recollection Room] Battle Recollection Transition",
    "[BAD END branch] Recollecting?",
    "-Day 4-",
    "[Bas] After a conversation with Dr. Ishido",
    "[Progress] Release of Research Institute 1",
    "[Dgn] Defeat DOS-00",
    "[Dgn] Open the 1st floor shutter",
    "[Dgn] Ivy Rock Destruction",
    "[Dgn] Open the 2nd floor shutter",
    "[Dgn] 2F Shutter Check",
    "[Dgn] 2F staircase shutter open",
    "[Dgn] Hypnosis defeats Nicola",
    "[Dgn] Victory over Nicola (common)",
    "[Sys] Dgn name displayed 4",
    "[Dgn] Ivy Rock Destruction 2",
    "[Dgn] Prophecy machine damaged",
    "[Dgn] Open 3F Shutter",
    "[Dgn] Open 4F Shutter",
    "[Base] I showed you the record",
    "[Base] Kaoru and Conversation 1",
    "[Base] Kaoru and Conversation 2",
    "[Base] Rabbit Moon, Kaoru",
    "[Dgn] Zazideo ev end",
    "[Btl] DOS-00 shock resistant",
    "[Dgn] Radio Tower Door Unlocking",
    "[Dgn4] Lighting Check",
    "",
    "[Dgn5] Cat key use",
    "[Sys] Dgn name displayed 5-2",
    "[Dgn5] Black Barrier Check",
    "[HDgn] Crystal Check",
    "[HDgn] Underground storage found",
    "-5th day",
    "Nightmare 1 Event Battle Flag 1",
    "Nightmare 1 Event Battle Flag 2",
    "[Parallel launch] Nightmare defeat event 1",
    "[Progress] Redhead Corps",
    "[Progress] Barriers to Relay Bases",
    "[Progress] Discovery of the entrance to the passage",
    "[Dgn] Defeat Nightmare 2",
    "[Sys] Dgn name displayed 5",
    "[Dgn] Debris Check Central Stairs",
    "[Dgn] 1 FA room lock unlocked",
    "[Dgn] 2FA room in-process operation",
    "[Dgn] Black Barrier Check",
    "[Dgn] 2FD room work in process",
    "[Dgn] 2FC room lock unlock",
    "[Dgn] 2FB room lock unlock",
    "[Btl] Nightmare 1 Ecstatic Battle",
    "[Btl] Nightmare 1 Sensual Battle",
    "[Btl] Nightmare 1 Pleasure Battle",
    "[Dgn] Hole in the floor",
    "[Dgn] Win Nightmare 1",
    "[Ev] Incapacitating event resistance",
    "[Dgn] 3FC room lock unlock",
    "[Dgn] 3FB room lock unlock",
    "[Dgn] 3FD room work in process",
    "[Dgn] Defeat Nightmare 2",
    "[Progress] Dr. Sudden",
    "[Dgn] Drill a hole in the basement",
    "[Bas] CG automatic scroll",
    "-Nigt 5-",
    "-Day 6-",
    "[Dgn] Blower",
    "[Sys] Dgn name displayed 6",
    "[Progress] Liberation of Hoshigamiden",
    "[Dgn] Defeat Nebra",
    "[Dgn] Mobile device activation 1",
    "[Dgn] Common adjustment flag",
    "[Dgn] How to dismiss the lookout",
    "[Dgn] Lookout Withdrawal 2",
    "[Dgn] Lookout Withdrawal 1",
    "[Dgn] under scroll flag",
    "[Dgn] Warning light flashes",
    "[Dgn] Duct Cover Destruction 1",
    "[Dgn] Wine breaks",
    "[Dgn] To the duct again",
    "[Dgn] Saba room cover fall",
    "[Dgn] Shikishima's DP destruction",
    "[Dgn] Destruction of Shikishima Table",
    "[Dgn] Mobile device activation 2",
    "[Dgn] Mobile device activation 3",
    "= Watched check =",
    "[Watched] Luminous Sla",
    "[Watched] Lower Combatants",
    "[Watched] Dance Skelton",
    "[Watched] Cerberus",
    "[Watched] Religious Wizard",
    "[Watched] Ghost",
    "[Watched] Cars Bonn",
    "[Watched] Slimy Kazura",
    "[Watched] Oil Spider",
    "[Watched] Lake Succubus",
    "[Watched] DOS series",
    "[Watched] Intermediate Combatants",
    "[Watched] DOS-00",
    "[Watched] Puppet Circus",
    "[Watched] Queen Tinplate",
    "[Watched] Nightmare 1",
    "[Watched] Nightmare 2",
    "[Watched] Senior Combatant",
    "[Watched] Giant cult member",
    "[Watched] Brain Washer",
    "[Watched] Nebra",
    "[Watched] Sarcoma",
    "[Watched] Rabbit Fucking",
    "[Watched] Love Handjob",
    "[Watched] Harnes Bind Release 1",
    "[Watched] Harnes Bind Release 2",
    "[Watched] Meat Tentacles",
    "[Watched] Contamination END",
    "[Watched] Hypnosis Man 1",
    "[Watched] Hypnosis Man 2",
    "[Watched] Hypnotic Man 3",
    "[Watched] Member Sexual Harassment",
    "[Watched] Hypnosis Audio 1",
    "[Watched] Hypnosis Audio 2",
    "",
    "",
    "[Moment] Character Moving Flag",
    "[OK] Harnes bind release 1",
    "[OK] Harnes bind release 2",
    "Cartoon of Dollhouse",
    "[Ctn] Anti 2 FA Room 1",
    "[Ctn] Prison cell 1",
    "[Ctn] Prison cell 2",
    "[Ctn] Prison cell 3",
    "[Ctn] Prison Cell 4",
    "[Ctn] Prison cell 5",
    "[Ctn] Prison cell 6",
    "[Ctn] Prison cell 7",
    "-Chase the enemy of Hoshigami-",
    "[Enm1] Discovery",
    "[Enm2] Discovery",
    "[Enm3] Discovery",
    "[Enm4] Discovery",
    "[Enm5] Discovery",
    "[Enm6] Discovery",
    "[Enm7] Discovery",
    "[Enm8] Discovery",
    "[Enm9] Discovery",
    "",
    "-Destroy Hoshigami-den monitor-",
    "Monitor destruction 1",
    "Monitor Destruction 2",
    "Monitor Destruction 3",
    "Monitor destruction 4",
    "Monitor destruction 5",
    "Monitor destruction 6",
    "Monitor destruction 7",
    "Monitor destruction 8",
    "Monitor Destruction A",
    "Monitor Destruction B",
    "Communication device destruction",
    "[Ctn] Anti 2F back 1",
    "[Ctn] Anti 2F Oku 2",
    "[Ctn] Anti 2F Oku 3",
    "[Sys] Continue after the defeat of Harnes",
    "[Sys] Futanari with completed map",
    "[Sys] Futanari begins battle",
    "[B-] Futanari at the end",
    "[Base] Hypnotic Man Appears",
    "-6th day continued-",
    "[Dgn] Futanari Victory",
    "[Dgn] defeated by Nicola",
    "[Dgn] Defeat Nicola",
    "[Dgn] Earthquake (parallel start)",
    "[Dgn] Nebra 2nd time",
    "[Dgn] 3F barrier release",
    "[Dgn] Defeat Machine Guard",
    "[HDgn] Lava tube discovery",
    "",
    "",
    "",
    "",
    "",
    "",
    "",
    "",
    "",
    "",
    "-Night 6-",
    "-Day 7-",
    "[Dgn] Win the Meat Wall",
    "[Dgn] Defeat Fals",
    "[Dgn] Hole in the crack",
    "[Base] Listen to records",
    "[Dgn] Abyss Admission",
    "[Dgn] Enter Duct 1",
    "[Dgn] defeat enm1",
    "[Dgn] defeat enm2",
    "[Dgn7] Lighting Check",
    "",
    "",
    "",
    "",
    "",
    "",
    "",
    "",
    "",
    "",
    "[Flag correction] 1.1.2",
    "[Recollection] Review fully open",
    "[OP skip ON]",
    "[Flag correction] 1.1.5",
    "[Starting ending]",
    "[Item] Nanomachine can be used",
    "[Item] Harness available",
    "[Dbg] Start B mode",
    "",
    "",
    "",
    "",
    "",
    "",
    "",
    "",
    "",
    "",
    "",
    ""
  ],
  "terms": {
    "basic": [
      "Lvl",
      "Lv",
      "HP",
      "HP",
      "MP",
      "MP",
      "GAIN",
      "GAIN",
      "E.P",
      "EXP"
    ],
    "commands": [
        "Fight",
        "Escape",
        "Attack",
        "E-shield",
        "Item",
        "Skill",
        "Equipment",
        "Status",
        "Sort",
        "Save",
        "Main menu",
        "Option",
        "Marco",
        "Driver",
        "Important things",
        "Equipment",
        "Strongest equipment",
        "Remove everything",
        "New Game",
        "Continue",
        null,
        "Go to Title",
        "Back to game",
        null,
        "Buy",
        "Sell"
    ],
    "params": [
        "Max HP",
        "Max MP",
        "Pow",
        "Def",
        "SP Attack",
        "SP Def",
        "Agility",
        "Fortune",
        "Hit Rate",
        "Avoidance Rate"
    ],
    "messages": {
        "actionFailure": "%1 did not work!",
        "actorDamage": "%1 received %2 damage!",
        "actorDrain": "%1 was robbed of %2 by %3!",
        "actorGain": "%2 of %1 has increased by %3!",
        "actorLoss": "%2 of %1 has decreased by %3!",
        "actorNoDamage": "%1 has not been damaged!",
        "actorNoHit": "Miss! %1 has not been damaged!",
        "actorRecovery": "%2 of %1 has recovered %3!",
        "alwaysDash": "Always dash",
        "bgmVolume": "BGM volume",
        "bgsVolume": "BGS volume",
        "buffAdd": "%1 %2 has increased!",
        "buffRemove": "%1 %2 is back!",
        "commandRemember": "Remember commands",
        "counterAttack": "%1 counterattack!",
        "criticalToActor": "A blow of grief !!",
        "criticalToEnemy": "A blow of conscience !!",
        "debuffAdd": "%1 %2 has dropped!",
        "defeat": "%1 lost the battle.",
        "emerge": "%1 appears!",
        "enemyDamage": "Damage %1 to %2!",
        "enemyDrain": "Stolen %2 of %1 by %3!",
        "enemyGain": "%1 %2 increased by %3!",
        "enemyLoss": "%1 %2 has been reduced by %3!",
        "enemyNoDamage": "Can't damage %1!",
        "enemyNoHit": "Miss! Can't damage %1!",
        "enemyRecovery": "%1 %2 recovered %3!",
        "escapeFailure": "But couldn't escape!",
        "escapeStart": "%1 has escaped!",
        "evasion": "%1 dodged the attack!",
        "expNext": "up to the next %1",
        "expTotal": "Current %1",
        "file": "file",
        "levelUp": "%1 went up to %2 %3!",
        "loadMessage": "Which file do you want to load?",
        "magicEvasion": "%1 has countered magic!",
        "magicReflection": "%1 bounced magic!",
        "meVolume": "ME Volume",
        "obtainExp": "Get %1 %2!",
        "obtainGold": "Got %1 G money!",
        "obtainItem": "Got %1!",
        "obtainSkill": "Learned %1!",
        "partyName": "%1 standing",
        "possession": "Number of possessions",
        "preemptive": "%1 took the initiative!",
        "saveMessage": "Which file do you want to save to?",
        "seVolume": "SE Volume",
        "substitute": "%1 covered up for %2!",
        "surprise": "%1 was surprised!",
        "useItem": "%1 used %2!",
        "victory": "%1 victory!"
    }
  },
  "testBattlers": [
    {
      "actorId": 1,
      "equips": [
        2,
        3,
        37
      ],
      "level": 25
    },
    {
      "actorId": 0,
      "equips": [
        2,
        1,
        2,
        3,
        0
      ],
      "level": 1
    },
    {
      "actorId": 0,
      "equips": [
        3,
        0,
        2,
        3,
        4
      ],
      "level": 1
    },
    {
      "actorId": 0,
      "equips": [
        4,
        0,
        2,
        3,
        4
      ],
      "level": 1
    }
  ],
  "testTroopId": 41,
  "title1Name": "Title",
  "title2Name": "",
  "titleBgm": {
    "name": "title",
    "pan": 0,
    "pitch": 100,
    "volume": 25
  },
  "variables": [
    "",
    "debugging (standing)",
    "※1-20 used in the system.",
    "「Red Lotus」 level",
    "「Freeze」 level",
    "「Thunder」 level",
    "「Emerald」 level",
    "「Dusk」 level",
    "[REC]M-mode count",
    "[REC]S-mode count",
    "[REC]battle count",
    "[REC]H-scene ratings",
    "[div.]contamination level",
    "[Moment]region variable",
    "[REC]treasures count",
    "",
    "",
    "",
    "",
    "",
    "[Trial]Enemy Defeat Count",
    "※21-40 Used in combat",
    "[Battle]climaxes count",
    "[Battle]最大HP",
    "[Battle]最大MP",
    "[Turn]現在HP",
    "[Turn]現在MP",
    "[Turn]現在HP％",
    "[Turn]現在MP％",
    "[Moment]乱数",
    "[Moment]受渡用変数1",
    "[Battle]ﾌﾟﾗｽﾌｫｰﾐｭﾗｰ",
    "",
    "[Turn]敵ｽﾃｰﾄｶｳﾝﾄ1",
    "[Turn]敵ｽﾃｰﾄｶｳﾝﾄ2",
    "",
    "",
    "",
    "",
    "",
    "●SOM平均値受渡変数",
    "●ｼﾅﾘｵ・ﾀﾞﾝｼﾞｮﾝで使用",
    "[Dgn1]障壁カウント",
    "[Dgn1]固い石灰岩ｶｳﾝﾄ",
    "[Dgn2]障壁カウント",
    "[Dgn2]障壁カウント2",
    "[拠点]Day 2ﾌﾗｸﾞｶｳﾝﾄ",
    "[Dgn2]固い氷ｶｳﾝﾄ",
    "[Dgn3]Succubus接触カウント",
    "[Dgn4]障壁カウント1",
    "[Dgn4]障壁カウント2",
    "[Dgn4]予言観測機入力",
    "[Dgn4]千の位",
    "[Dgn4]百の位",
    "[Dgn4]十の位",
    "[Dgn4]一の位",
    "[Dgn6]戻し先ｴﾘｱ区分",
    "[Dgn6]障壁カウント1",
    "[拠点]ﾊｽﾐ向きﾁｪｯｸ",
    "[Dgn3]寄生体撃破数",
    "[Dgn7]ﾌｧﾙｽの変身ｶｳﾝﾄ",
    "[回想]DOS頭部変数",
    "[回想]DOS胸部変数",
    "[回想]DOS股間変数",
    "[回想]DOS四肢変数",
    "[Dgn4]DOS-00ｼｮｯｸｶｳﾝﾄ",
    "",
    "",
    "",
    "",
    "",
    "",
    "",
    "",
    "",
    "",
    "",
    "",
    "",
    "",
    "[ﾃﾞﾊﾞｯｸﾞ][Dgn4]",
    "●敵追跡ｲﾍﾞﾝﾄで使用",
    "PLY1-X",
    "PLY1-Y",
    "enm1-X",
    "enm1-Y",
    "enm2-X",
    "enm2-Y",
    "enm3-X",
    "enm3-Y",
    "enm4-X",
    "enm4-Y",
    "enm5-X",
    "enm5-Y",
    "enm6-X",
    "enm6-Y",
    "enm7-X",
    "enm7-Y",
    "enm8-X",
    "enm8-Y",
    "",
    "R1",
    "R2",
    "R3",
    "R4",
    "R5",
    "R6",
    "R7",
    "R8",
    "R9",
    "R10",
    "R11",
    "R12",
    "R13",
    "R14",
    "R15",
    "R16",
    "R17",
    "R18",
    "R19",
    "R20",
    "R21",
    "R22",
    "R23",
    "R24",
    "R25",
    "R26",
    "R27",
    "R28",
    "R29",
    "R30",
    "R31",
    "R32",
    "R33",
    "R34",
    "R35",
    "B1",
    "B2",
    "B3",
    "B4",
    "B5",
    "B6",
    "B7",
    "B8",
    "B9",
    "B10",
    "B11",
    "B12",
    "B13",
    "B14",
    "B15",
    "B16",
    "B17",
    "B18",
    "B19",
    "B20",
    "B21",
    "B22",
    "B23",
    "B24",
    "B25",
    "B26",
    "B27",
    "B28",
    "B29",
    "B30",
    "B31",
    "B32",
    "B33",
    "B34",
    "B35",
    "◆処理変数K",
    "◆処理変数L",
    "◆比較変数P",
    "◆MINﾕｰｸﾘｯﾄﾞ変数Q",
    "◆MINﾀｲﾙNo.保存変数R",
    "◆暴露変数M (Rに対応)",
    "◆暴露変数ｎ (Bに対応)",
    "◆ループカウント変数",
    "●R平均値計算用",
    "●B平均値計算用",
    "",
    "",
    "",
    "",
    "",
    "",
    "",
    "",
    "",
    "",
    "",
    "",
    "",
    "",
    "",
    "",
    "",
    "",
    "",
    ""
  ],
  "versionId": 49913022,
  "victoryMe": {
    "name": "Victory2",
    "pan": 0,
    "pitch": 110,
    "volume": 85
  },
  "weaponTypes": [
    "",
    "両手剣",
    "双剣"
  ],
  "windowTone": [
    0,
    0,
    0,
    0
  ],
  "hasEncryptedImages": false,
  "hasEncryptedAudio": false,
  "encryptionKey": "9c0e9c73ce2d6a1f72f5fa99b739e313"
}
